
k_africa = {
	867.1.1 = {	change_development_level = 3 }
	1066.1.1 = { change_development_level = 6 }
	
	#Muhallabids
	768.1.1 = {
		government = clan_government
		holder = 210014
	}
	#768.1.1 = {
	#	liege = "e_arabia"
	#}
	771.1.1 = {
		holder = 210015
	}
	771.1.6 = {
		holder = 210014
	}
	772.1.1 = {
		holder = 210009
	}
	787.1.1 = {
		holder = 210010
	}
	787.1.10 = {
		holder = 210016
	}
	791.1.1 = {
		holder = 210017
	}
	793.1.1 = {
		holder = 210018
	}
	#Aghlabids
	800.1.1 = {
		holder = 163140
	}
	800.1.1 = {
		liege = 0
	}
	812.1.1 = {
		holder = 163141
	}
	817.1.1 = {
		holder = 163142
	}
	838.6.10 = {
		holder = 163143
	}
	841.1.1 = {
		holder = 163144
	}
	856.1.1 = {
		holder = 163145
	}
	863.1.1 = {
		holder = 163146
	}
	864.1.1 = {
		holder = 163096
	}
	875.1.1 = {
		holder = 163147
	}
	#Zirids
	1045.1.1 = {
		holder = 20935
	}
	1062.1.1 = {
		holder = 20825
		effect = {
			if = {
				limit = {
					exists = holder
					has_dlc_feature = royal_court
				}
				holder = {
					set_court_language = language_arabic
					if = {
						limit = { NOT = { knows_court_language_of = this } }
						learn_court_language_of = this
					}
				}
			}
		}
	}
	1108.1.1 = {
		holder = 3906
	}
	1116.1.1 = {
		holder = 3210
	}
	1121.1.1 = {
		holder = 3211
	}
	1148.6.22 = {
		holder = 0
	}
	
	#Hafsids
	1229.1.1 = {
		holder = 33021
	}
	1251.1.1 = {
		holder = 33024
	}
	1276.1.1 = {
		holder = 33026
	}
	1279.1.1 = {
		holder = 33025
	}
	1284.1.1 = {
		holder = 33017
	}
	1295.1.1 = {
		holder = 33027
	}
	1309.1.1 = {
		holder = 33028
	}
	1310.1.1 = {
		holder = 33031
	}
	1311.1.1 = {
		holder = 33042
	}
	1317.1.1 = {
		holder = 33043
	}
	1318.1.1 = {
		holder = 33032
	}

}

d_kairouan = {
	867.1.1 = {	change_development_level = 7 }
	1066.1.1 = { change_development_level = 10 }
	
	1054.1.1 = {
		government = tribal_government
		holder = 155029
	}
}

c_kairwan = {
	376.1.1 = {
		de_jure_liege = d_africa
		liege = d_africa
		holder = 990015
	}
	376.1.2 = {
		de_jure_liege = d_kairouan
		holder = 0
		liege = none
	}
	867.1.1 = {	change_development_level = 8 }
	1066.1.1 = { change_development_level = 12 }
	
	768.1.1 = {
		government = clan_government
		liege = k_africa
		holder = 210014
	}
	864.1.1 = {
		holder = 163096
	}
	1062.1.1 = {
		liege = "d_kairouan"
		holder = 155029
	}
	1066.1.1 = {
		holder = bedouin0016 #fictional wali to keep Kairouan Clan
	}
	1073.1.1 = {
		liege = "k_africa"
	}
	1073.1.1 = {
		holder = 20825
	}
	1108.1.1 = {
		holder = 3906
	}
	1116.1.1 = {
		holder = 3210
	}
	1121.1.1 = {
		holder = 3211
	}
	1148.6.22 = {
		holder = 155031
	}
	1152.1.1 = {
		liege = "k_sicily"
	}
	1152.1.1 = {
		holder = 155146
	}
	1155.1.1 = {
		holder = 155147
	}
	1160.1.22 = {
		liege = "k_maghreb"
	}
	1160.1.22 = {
		holder = 3211
	}
	1163.1.1 = {
		liege = "d_tunis"
	}
	1163.1.1 = {
		holder = 33012
	}
	1176.1.1 = {
		holder = 33013
	}
	1186.1.1 = {
		liege = "d_tripolitania"
	}
	1186.1.1 = {
		holder = 32977
	}
	1187.10.15 = {
		liege = "d_tunis"
	}
	1187.10.15 = {
		holder = 33013
	}
	1198.1.1 = {
		holder = 32977
	}
	1207.1.1 = {
		holder = 33014
	}
	1224.1.1 = {
		holder = 33020
	}
	1229.1.1 = {
		holder = 33021
	}
	1251.1.1 = {
		holder = 33024
	}
	1276.1.1 = {
		holder = 33026
	}
	1279.1.1 = {
		holder = 33025
	}
	1284.1.1 = {
		holder = 33017
	}
	1295.1.1 = {
		holder = 33027
	}
	1309.1.1 = {
		holder = 33028
	}
	1310.1.1 = {
		holder = 33031
	}
	1311.1.1 = {
		holder = 33042
	}
	1317.1.1 = {
		holder = 33043
	}
	1318.1.1 = {
		holder = 33032
	}

}



c_west_qamuda = {
	768.1.1 = {	
		government = clan_government
		liege = k_africa
		holder = 210014
	}
	864.1.1 = {	
		liege = d_tunis
		holder = 6887
	}
	1054.1.1 = {
		liege = "d_kairouan"
		government = tribal_government
		holder = 155029
	}
	1073.1.1 = {
		government = clan_government
		liege = "k_africa"
		holder = 20825
	}
	1108.1.1 = {
		holder = 3906
	}
	1116.1.1 = {
		holder = 3210
	}
	1121.1.1 = {
		holder = 3211
	}
	1148.6.22 = {
		holder = 155031
	}
	1152.1.1 = {
		liege = "k_sicily"
	}
	1152.1.1 = {
		holder = 155146
	}
	1155.1.1 = {
		holder = 155147
	}
	1160.1.22 = {
		liege = "k_maghreb"
	}
	1160.1.22 = {
		holder = 3211
	}
	1163.1.1 = {
		liege = "d_tunis"
	}
	1163.1.1 = {
		holder = 33012
	}
	1176.1.1 = {
		holder = 33013
	}
	1186.1.1 = {
		liege = "d_tripolitania"
	}
	1186.1.1 = {
		holder = 32977
	}
	1187.10.15 = {
		liege = "d_tunis"
	}
	1187.10.15 = {
		holder = 33013
	}
	1198.1.1 = {
		holder = 32977
	}
	1207.1.1 = {
		holder = 33014
	}
	1224.1.1 = {
		holder = 33020
	}
	1229.1.1 = {
		holder = 33021
	}
	1251.1.1 = {
		holder = 33024
	}
	1276.1.1 = {
		holder = 33026
	}
	1279.1.1 = {
		holder = 33025
	}
	1284.1.1 = {
		holder = 33017
	}
	1295.1.1 = {
		holder = 33027
	}
	1309.1.1 = {
		holder = 33028
	}
	1310.1.1 = {
		holder = 33031
	}
	1311.1.1 = {
		holder = 33042
	}
	1317.1.1 = {
		holder = 33043
	}
	1318.1.1 = {
		holder = 33032
	}
	
	

}


c_tabassa = {
	768.1.1 = {	
		liege = k_africa
		holder = 210014
	}
	864.1.1 = {	
		liege = d_tunis
		holder = 6887
	}
	920.1.1 = {
		holder = 20931
	}
	973.1.1 = {
		holder = 20932
	}
	984.1.1 = {
		holder = 20933
	}
	995.1.1 = {
		holder = 20934
	}
	1015.1.1 = {
		holder = 20935
	}
	1062.1.1 = {
		liege = "d_tunis"
	}
	1062.1.1 = {
		holder = 155029
	}
	1090.1.1 = {
		holder = 155030
	}
	1120.1.1 = {
		holder = 155031
	}
	1159.7.1 = {
		holder = 33012
	}
	1176.1.1 = {
		holder = 33013
	}
	1186.1.1 = {
		liege = "d_tripolitania"
	}
	1186.1.1 = {
		holder = 32977
	}
	1187.10.15 = {
		liege = "d_tunis"
	}
	1187.10.15 = {
		holder = 33013
	}
	1198.1.1 = {
		holder = 32977
	}
	1207.1.1 = {
		holder = 33014
	}
	1224.1.1 = {
		holder = 33020
	}
	1229.1.1 = {
		holder = 33021
	}
	1251.1.1 = {
		holder = 33024
	}
	1276.1.1 = {
		holder = 33026
	}
	1279.1.1 = {
		holder = 33025
	}
	1284.1.1 = {
		holder = 33017
	}
	1295.1.1 = {
		holder = 33027
	}
	1309.1.1 = {
		holder = 33028
	}
	1310.1.1 = {
		holder = 33031
	}
	1311.1.1 = {
		holder = 33042
	}
	1317.1.1 = {
		holder = 33043
	}
	1318.1.1 = {
		holder = 33032
	}
}


d_tunis = {
	867.1.1 = {	change_development_level = 8 }
	1066.1.1 = { change_development_level = 12 }
	
	864.1.1 = {	
		government = clan_government
		liege = k_africa
		holder = 6887
	}
	1066.1.1 = {
		liege = 0
	holder = 155029
	}
	1090.1.1 = {
		liege = "k_africa"
	}
	1090.1.1 = {
		holder = 155030
	}
	1120.1.1 = {
		holder = 155031
	}
	1152.1.1 = {
		liege = 0
	}
	1159.7.1 = {
		liege = "k_maghreb"
	}
	1159.7.1 = {
		holder = 33012
	}
	1176.1.1 = {
		holder = 33013
	}
	1198.1.1 = {
		liege = 0
	}
	1198.1.1 = {
		holder = 32977
	}
	1207.1.1 = {
		liege = "k_maghreb"
	}
	1207.1.1 = {
		holder = 33014
	}
	1224.1.1 = {
		holder = 33020
	}
	1229.1.1 = {
		liege = "k_africa"
	}
	1229.1.1 = {
		holder = 33021
	}
	1251.1.1 = {
		holder = 33024
	}
	1276.1.1 = {
		holder = 33026
	}
	1279.1.1 = {
		holder = 33025
	}
	1284.1.1 = {
		holder = 33017
	}
	1295.1.1 = {
		holder = 33027
	}
	1309.1.1 = {
		holder = 33028
	}
	1310.1.1 = {
		holder = 33031
	}
	1311.1.1 = {
		holder = 33042
	}
	1317.1.1 = {
		holder = 33043
	}
	1318.1.1 = {
		holder = 33032
	}
	

}


c_tunis = {
	376.1.1 = {
		de_jure_liege = d_africa
		liege = d_africa
		holder = 990015
	}
	376.1.2 = {
		de_jure_liege = d_tunis
		holder = 0
		liege = none
	}
	867.1.1 = {	change_development_level = 10 }
	1066.1.1 = { change_development_level = 16 }
	
	768.1.1 = {	
		holder = 210014
	}
	768.1.1 = {	
		liege = "k_africa"
	}
	864.1.1 = {
		government = clan_government
		holder = 163096
	}
	920.1.1 = {
		holder = 20931
	}
	973.1.1 = {
		holder = 20932
	}
	984.1.1 = {
		holder = 20933
	}
	995.1.1 = {
		holder = 20934
	}
	1015.1.1 = {
		holder = 20935
	}
	1062.1.1 = {
		holder = 155048
	}
	1095.1.1 = {
		holder = 155049
	}
	1105.9.17 = {
		holder = 155050
	}
	1107.3.8 = {
		liege = 0
	}
	1107.3.8 = {
		holder = 155051
	}
	1117.1.1 = {
		liege = "k_africa"
	}
	1128.1.1 = {
		liege = "d_alger"
	}
	1128.1.1 = {
		holder = 32956
	}
	1148.1.1 = {
		liege = 0
	}
	1148.1.1 = {
		holder = 155052
	}
	1148.8.1 = {
		holder = 155054
	}
	1159.2.1 = {
		holder = 155055
	}
	1159.7.1 = {
		liege = "d_tunis"
	}
	1159.7.1 = {
		holder = 33012
	}
	1176.1.1 = {
		holder = 33013
	}
	1198.1.1 = {
		liege = "k_maghreb"
	}
	1203.12.15 = {
		liege = "d_tunis"
	}
	1203.12.15 = {
		holder = 32977
	}
	1207.1.1 = {
		holder = 33014
	}
	1224.1.1 = {
		holder = 33020
	}
	1229.1.1 = {
		holder = 33021
	}
	1251.1.1 = {
		holder = 33024
	}
	1276.1.1 = {
		holder = 33026
	}
	1279.1.1 = {
		holder = 33025
	}
	1284.1.1 = {
		holder = 33017
	}
	1295.1.1 = {
		holder = 33027
	}
	1309.1.1 = {
		holder = 33028
	}
	1310.1.1 = {
		holder = 33031
	}
	1311.1.1 = {
		holder = 33042
	}
	1317.1.1 = {
		holder = 33043
	}
	1318.1.1 = {
		holder = 33032
	}
	

}


c_satfura = {
	376.1.1 = {
		de_jure_liege = d_africa
		holder = 990015
	}
	376.1.2 = {
		holder = 0
		liege = none
	}
	768.1.1 = {
		liege = "k_africa"
	}
	768.1.1 = {	
		holder = 210014
	}
	864.1.1 = {
		holder = 163096
	}
	1066.1.1 = {
		liege = "d_tunis"
	}
	1066.1.1 = {
		holder = 155057
	}
	1095.1.1 = {
		holder = 155058
	}
	1108.1.1 = {
		holder = 155059
	}
	1121.1.1 = {
		holder = 155060
	}
	1134.1.1 = {
		holder = 155061
	}
	1147.1.1 = {
		holder = 155062
	}
	1152.1.1 = {
		liege = 0
	}
	1152.1.1 = {
		holder = 155063
	}
	1159.7.1 = {
		liege = "d_tunis"
	}
	1159.7.1 = {
		holder = 33012
	}
	1176.1.1 = {
		holder = 33013
	}
	1198.1.1 = {
		holder = 32977
	}
	1207.1.1 = {
		holder = 33014
	}
	1224.1.1 = {
		holder = 33020
	}
	1229.1.1 = {
		holder = 33021
	}
	1251.1.1 = {
		holder = 33024
	}
	1276.1.1 = {
		holder = 33026
	}
	1279.1.1 = {
		holder = 33025
	}
	1284.1.1 = {
		holder = 33017
	}
	1295.1.1 = {
		holder = 33027
	}
	1309.1.1 = {
		holder = 33028
	}
	1310.1.1 = {
		holder = 33031
	}
	1311.1.1 = {
		holder = 33042
	}
	1317.1.1 = {
		holder = 33043
	}
	1318.1.1 = {
		holder = 33032
	}
	
	

}


c_medjerda = {
	376.1.1 = {
		de_jure_liege = d_africa
		liege = d_africa
		holder = 990015
	}
	376.1.2 = {
		de_jure_liege = d_tunis
		holder = 0
		liege = none
	}
	768.1.1 = {	
		government = clan_government
		liege = k_africa
		holder = 210014
	}
	864.1.1 = {	
		liege = d_tunis
		holder = 6887
	}

	1062.1.1 = {
		liege = "d_tunis"
		holder = 155142
	}
	1090.1.1 = {
		holder = 155030
	}
	1120.1.1 = {
		holder = 155031
	}
	1159.7.1 = {
		holder = 33012
	}
	1176.1.1 = {
		holder = 33013
	}
	1186.1.1 = {
		liege = "d_tripolitania"
	}
	1186.1.1 = {
		holder = 32977
	}
	1187.10.15 = {
		liege = "d_tunis"
	}
	1187.10.15 = {
		holder = 33013
	}
	1198.1.1 = {
		holder = 32977
	}
	1207.1.1 = {
		holder = 33014
	}
	1224.1.1 = {
		holder = 33020
	}
	1229.1.1 = {
		holder = 33021
	}
	1251.1.1 = {
		holder = 33024
	}
	1276.1.1 = {
		holder = 33026
	}
	1279.1.1 = {
		holder = 33025
	}
	1284.1.1 = {
		holder = 33017
	}
	1295.1.1 = {
		holder = 33027
	}
	1309.1.1 = {
		holder = 33028
	}
	1310.1.1 = {
		holder = 33031
	}
	1311.1.1 = {
		holder = 33042
	}
	1317.1.1 = {
		holder = 33043
	}
	1318.1.1 = {
		holder = 33032
	}

}


c_mahdiya = {
	376.1.1 = {
		de_jure_liege = d_africa
		liege = d_africa
		holder = 990015
	}
	376.1.2 = {
		de_jure_liege = d_tunis
		holder = 0
		liege = none
	}
	867.1.1 = {	change_development_level = 10 }
	1066.1.1 = { change_development_level = 16 }
	
	768.1.1 = {	
		liege = "k_africa"
	}
	768.1.1 = {	
		holder = 210014
	}
	864.1.1 = {
		holder = 163096
	}
	920.1.1 = {
		holder = 20931
	}
	973.1.1 = {
		holder = 20932
	}
	984.1.1 = {
		holder = 20933
	}
	995.1.1 = {
		holder = 20934
	}
	1015.1.1 = {
		holder = 20935
	}
	1060.1.1 = {
		holder = 20825
	}
	1108.1.1 = {
		holder = 3906
	}
	1116.1.1 = {
		holder = 3210
	}
	1121.1.1 = {
		holder = 3211
	}
	1148.6.22 = {
		liege = "k_sicily"
	}
	1148.6.22 = {
		holder = 211502
	}
	1154.2.26 = {
		holder = 211501
	}
	1160.1.22 = {
		liege = "k_maghreb"
	}
	1160.1.22 = {
		holder = 3211
	}
	1163.1.1 = {
		liege = "d_tunis"
	}
	1163.1.1 = {
		holder = 33012
	}
	1176.1.1 = {
		holder = 33013
	}
	1198.1.1 = {
		liege = 0
	}
	1198.1.1 = {
		holder = 155115
	}
	1207.1.1 = {
		liege = "d_tunis"
	}
	1207.1.1 = {
		holder = 33014
	}
	1224.1.1 = {
		holder = 33020
	}
	1229.1.1 = {
		holder = 33021
	}
	1251.1.1 = {
		holder = 33024
	}
	1276.1.1 = {
		holder = 33026
	}
	1279.1.1 = {
		holder = 33025
	}
	1284.1.1 = {
		holder = 33017
	}
	1295.1.1 = {
		holder = 33027
	}
	1309.1.1 = {
		holder = 33028
	}
	1310.1.1 = {
		holder = 33031
	}
	1311.1.1 = {
		holder = 33042
	}
	1317.1.1 = {
		holder = 33043
	}
	1318.1.1 = {
		holder = 33032
	}	

}

d_kroumerie = {
	867.1.1 = {	change_development_level = 7 }
	1066.1.1 = { change_development_level = 10 }
}

c_constantine = {
	376.1.1 = {
		de_jure_liege = d_africa
		liege = d_africa
		holder = 990015
	}
	376.1.2 = {
		de_jure_liege = d_kroumerie
		holder = 0
		liege = none
	}
	767.1.1 = {	
		liege = k_africa
		holder = 210035
	}
	864.1.1 = {	
		government = clan_government
		holder = baranis0026
	}
	897.1.1 = {	
		holder = baranis0025
	}
	903.1.1 = {	
		holder = baranis0024
	}
	946.1.1 = {	
		holder = baranis0023
	}
	981.1.1 = {	
		holder = baranis0022
	}
	1003.1.1 = {	
		holder = baranis0021
	}
	1032.1.1 = {
		holder = 155037
	}
	1066.1.1 = {
		liege = d_zab #should be tributary
	}
	1090.1.1 = {
		holder = 155038
	}
	1110.1.1 = {
		holder = 155039
	}
	1130.1.1 = {
		holder = 155040
	}

	1152.1.1 = {
		liege = "d_alger"
		holder = 155087
	}
	1190.1.1 = {
		holder = 32985
	}
	1199.1.23 = {
		holder = 155041
	}
	1200.1.1 = {
		liege = "d_tunis"
	}
	1200.1.1 = {
		holder = 32977
	}
	1207.1.1 = {
		liege = "d_alger"
	}
	1207.1.1 = {
		holder = 155041
	}
	1220.1.1 = {
		holder = 155042
	}
	1223.1.1 = {
		liege = "k_maghreb"
	}
	1229.1.1 = {
		liege = "d_alger"
	}
	1270.1.1 = {
		holder = 155043
	}
	1295.1.1 = {
		holder = 155044
	}
	1305.1.1 = {
		holder = 155046
	}
	1330.1.1 = {
		holder = 155045
	}

}


c_annaba = {
	376.1.1 = {
		de_jure_liege = d_africa
		liege = d_africa
		holder = 990015
	}
	376.1.2 = {
		de_jure_liege = d_kroumerie
		holder = 0
		liege = none
	}
	867.1.1 = {	change_development_level = 8 }
	1066.1.1 = { change_development_level = 12 }
	
	767.1.1 = {	
		government = clan_government
		liege = k_africa
		holder = 210035
	}
	864.1.1 = {	
		holder = 6883
	}
	1062.1.1 = {
		holder = 20834
	}
	1088.1.1 = {
		holder = 155038
	}
	1110.1.1 = {
		holder = 155039
	}
	1130.1.1 = {
		holder = 155040
	}
	1152.1.1 = {
		liege = "k_sicily"
		holder = 32956
	}
	1159.7.1 = {
		liege = "d_alger"
		holder = 155087
	}
	1190.1.1 = {
		holder = 32985
	}
	1199.1.23 = {
		holder = 155041
	}
	1200.1.1 = {
		liege = "d_tunis"
		holder = 32977
	}
	1207.1.1 = {
		liege = "d_alger"
		holder = 155041
	}
	1220.1.1 = {
		holder = 155042
	}
	1223.1.1 = {
		liege = "k_maghreb"
	}
	1229.1.1 = {
		liege = "d_alger"
	}
	1270.1.1 = {
		holder = 155043
	}
	1295.1.1 = {
		holder = 155044
	}
	1305.1.1 = {
		holder = 155046
	}
	1330.1.1 = {
		holder = 155045
	}

}


c_sfax = {
	376.1.1 = {
		de_jure_liege = d_africa
		liege = d_africa
		holder = 990015
	}
	376.1.2 = {
		de_jure_liege = d_gabes
		holder = 0
		liege = none
	}
	768.1.1 = {	
		government = clan_government
		liege = "k_africa"
	}
	768.1.1 = {	
		holder = 210014
	}
	864.1.1 = {
		holder = 163096
	}
	920.1.1 = {
		holder = 20931
	}
	973.1.1 = {
		holder = 20932
	}
	984.1.1 = {
		holder = 20933
	}
	995.1.1 = {
		holder = 20934
	}
	1015.1.1 = {
		holder = 20935
	}
	1060.1.1 = {
		holder = 20825
	}
	1108.1.1 = {
		holder = 3906
	}
	1116.1.1 = {
		holder = 3210
	}
	1121.1.1 = {
		holder = 3211
	}
	1148.6.22 = {
		liege = "k_sicily"
	}
	1148.6.22 = {
		holder = 211502
	}
	1154.2.26 = {
		holder = 211501
	}
	1160.1.22 = {
		liege = "k_maghreb"
	}
	1160.1.22 = {
		holder = 3211
	}
	1163.1.1 = {
		liege = "d_tunis"
	}
	1163.1.1 = {
		holder = 33012
	}
	1176.1.1 = {
		holder = 33013
	}
	1198.1.1 = {
		liege = 0
	}
	1198.1.1 = {
		holder = 155115
	}
	1207.1.1 = {
		liege = "d_tunis"
	}
	1207.1.1 = {
		holder = 33014
	}
	1224.1.1 = {
		holder = 33020
	}
	1229.1.1 = {
		holder = 33021
	}
	1251.1.1 = {
		holder = 33024
	}
	1276.1.1 = {
		holder = 33026
	}
	1279.1.1 = {
		holder = 33025
	}
	1284.1.1 = {
		holder = 33017
	}
	1295.1.1 = {
		holder = 33027
	}
	1309.1.1 = {
		holder = 33028
	}
	1310.1.1 = {
		holder = 33031
	}
	1311.1.1 = {
		holder = 33042
	}
	1317.1.1 = {
		holder = 33043
	}
	1318.1.1 = {
		holder = 33032
	}
	
}

d_gabes = {
	867.1.1 = {	change_development_level = 7 }
	1066.1.1 = { change_development_level = 10 }
	
	867.1.1 = {
		government = clan_government
		liege = k_africa
		holder = 163147
	}
	902.1.1 = {
		holder = 0
	}
}

c_gabes = {
	376.1.1 = {
		de_jure_liege = d_africa
		liege = d_africa
		holder = 990015
	}
	376.1.2 = {
		de_jure_liege = d_gabes
		holder = 0
		liege = none
	}
	864.1.1 = {
		government = clan_government
		liege = k_africa
		holder = 163147
	}
	1054.1.1 = {
		liege = 0
		government = clan_government
		holder = zanata0003 #Abdallah b.Muhammad of Banu al-Rand
	}
	1055.1.1 = {
		liege = d_tunis #tributary to Hilalian Arabs - Riyahdids
	}
	1073.1.1 = {
		holder = zanata0004
	}
	1111.1.1 = {
		holder = zanata0005
	}
	1146.1.1 = {
		holder = zanata0006
	}
	1157.1.1 = {
		holder = zanata0007
	}

	1159.1.1 = {
		liege = "k_maghreb" #Almohad conquest
		holder = 3211
	}

	1163.1.1 = {
		liege = "d_tunis"
	}
	1163.1.1 = {
		holder = 33012
	}
	1172.1.1 = {
		liege = "d_tripolitania"
	}
	1172.1.1 = {
		holder = 155113
	}
	1187.10.15 = {
		liege = "d_tunis"
	}
	1187.10.15 = {
		holder = 33013
	}
	1192.1.1 = {
		liege = "d_tripolitania"
	}
	1192.1.1 = {
		holder = 155113
	}
	1195.1.1 = {
		holder = 32977
	}
	1198.1.1 = {
		liege = "d_tunis"
	}
	1207.1.1 = {
		holder = 33014
	}
	1224.1.1 = {
		holder = 33020
	}
	1229.1.1 = {
		holder = 33021
	}
	1251.1.1 = {
		holder = 33024
	}
	1276.1.1 = {
		holder = 33026
	}
	1279.1.1 = {
		holder = 33025
	}
	1284.1.1 = {
		holder = 33017
	}
	1295.1.1 = {
		holder = 33027
	}
	1309.1.1 = {
		holder = 33028
	}
	1310.1.1 = {
		holder = 33031
	}
	1311.1.1 = {
		holder = 33042
	}
	1317.1.1 = {
		holder = 33043
	}
	1318.1.1 = {
		holder = 33032
	}

}


c_qashtiliya = {
	768.1.1 = {	
		government = clan_government
		liege = k_africa
		holder = 210014
	}
	864.1.1 = {	
		liege = d_tunis
		holder = 6887
	}
	1062.1.1 = {
		government = tribal_government
		liege = "d_tunis"
		holder = 155029
	}
	1073.1.1 = {
		liege = "k_africa"
	}
	1073.1.1 = {
		holder = 20825
	}
	1108.1.1 = {
		holder = 3906
	}
	1116.1.1 = {
		holder = 3210
	}
	1121.1.1 = {
		holder = 3211
	}
	1148.6.22 = {
		holder = 155031
	}
	1152.1.1 = {
		liege = "k_sicily"
	}
	1152.1.1 = {
		holder = 155146
	}
	1155.1.1 = {
		holder = 155147
	}
	1160.1.22 = {
		liege = "k_maghreb"
	}
	1160.1.22 = {
		holder = 3211
	}
	1163.1.1 = {
		liege = "d_tunis"
	}
	1163.1.1 = {
		holder = 33012
	}
	1176.1.1 = {
		holder = 33013
	}
	1186.1.1 = {
		liege = "d_tripolitania"
	}
	1186.1.1 = {
		holder = 32977
	}
	1187.10.15 = {
		liege = "d_tunis"
	}
	1187.10.15 = {
		holder = 33013
	}
	1198.1.1 = {
		holder = 32977
	}
	1207.1.1 = {
		holder = 33014
	}
	1224.1.1 = {
		holder = 33020
	}
	1229.1.1 = {
		holder = 33021
	}
	1251.1.1 = {
		holder = 33024
	}
	1276.1.1 = {
		holder = 33026
	}
	1279.1.1 = {
		holder = 33025
	}
	1284.1.1 = {
		holder = 33017
	}
	1295.1.1 = {
		holder = 33027
	}
	1309.1.1 = {
		holder = 33028
	}
	1310.1.1 = {
		holder = 33031
	}
	1311.1.1 = {
		holder = 33042
	}
	1317.1.1 = {
		holder = 33043
	}
	1318.1.1 = {
		holder = 33032
	}
	

}

d_jerid = {
	1062.1.1 = {
		government = tribal_government
		holder = 155138
	}
}

c_souf = {
	768.1.1 = {	
		government = tribal_government
		liege = k_africa
		holder = 210014
	}
	864.1.1 = {	
		liege = k_africa
		holder = 163147
	}
	1062.1.1 = {
		liege = "d_jerid"
		holder = 155138
	}
	1070.1.1 = {
		holder = 155139
	}
	1080.1.1 = {
		holder = 155140
	}
	1096.1.1 = {
		liege = "k_africa"
	}
	1096.1.1 = {
		holder = 155089
	}
	1098.1.1 = {
		liege = "d_tunis"
	}
	1098.1.1 = {
		holder = 155143
	}
	1110.1.1 = {
		holder = 155144
	}
	1121.1.1 = {
		holder = 155145
	}
	1148.1.1 = {
		liege = "k_sicily"
	}
	1148.1.1 = {
		holder = 155146
	}
	1155.1.1 = {
		holder = 155147
	}
	1160.1.22 = {
		liege = "k_maghreb"
	}
	1160.1.22 = {
		holder = 3211
	}
	1163.1.1 = {
		liege = "d_tunis"
	}
	1163.1.1 = {
		holder = 33012
	}
	1172.1.1 = {
		liege = "d_tripolitania"
	}
	1172.1.1 = {
		holder = 155113
	}
	1187.10.15 = {
		liege = "d_tunis"
	}
	1187.10.15 = {
		holder = 33013
	}
	1192.1.1 = {
		liege = "d_tripolitania"
	}
	1192.1.1 = {
		holder = 155113
	}
	1195.1.1 = {
		holder = 32977
	}
	1198.1.1 = {
		liege = "d_tunis"
	}
	1207.1.1 = {
		holder = 33014
	}
	1224.1.1 = {
		holder = 33020
	}
	1229.1.1 = {
		holder = 33021
	}
	1251.1.1 = {
		holder = 33024
	}
	1276.1.1 = {
		holder = 33026
	}
	1279.1.1 = {
		holder = 33025
	}
	1284.1.1 = {
		holder = 33017
	}
	1295.1.1 = {
		holder = 33027
	}
	1309.1.1 = {
		holder = 33028
	}
	1310.1.1 = {
		holder = 33031
	}
	1311.1.1 = {
		holder = 33042
	}
	1317.1.1 = {
		holder = 33043
	}
	1318.1.1 = {
		holder = 33032
	}
	
}

c_bir_amir = {
	376.1.1 = {
		holder = 990064
		liege = d_garamantes
	}
	376.1.2 = {
		holder = 0
		liege = none
	}
	768.1.1 = {
		government = tribal_government
		liege = k_africa
		holder = 210014
	}
	864.1.1 = {
		liege = k_africa
		holder = 163147
	}
	1062.1.1 = {
		liege = "d_jerid"
		holder = 155138
	}

#Old history
	1070.1.1 = {
		holder = 155139
	}
	1080.1.1 = {
		holder = 155140
	}
	1096.1.1 = {
		liege = "k_africa"
	}
	1096.1.1 = {
		holder = 155089
	}
	1098.1.1 = {
		liege = "d_tunis"
	}
	1098.1.1 = {
		holder = 155143
	}
	1110.1.1 = {
		holder = 155144
	}
	1121.1.1 = {
		holder = 155145
	}
	1148.1.1 = {
		liege = "k_sicily"
	}
	1148.1.1 = {
		holder = 155146
	}
	1155.1.1 = {
		holder = 155147
	}
	1160.1.22 = {
		liege = "k_maghreb"
	}
	1160.1.22 = {
		holder = 3211
	}
	1163.1.1 = {
		liege = "d_tunis"
	}
	1163.1.1 = {
		holder = 33012
	}
	1172.1.1 = {
		liege = "d_tripolitania"
	}
	1172.1.1 = {
		holder = 155113
	}
	1187.10.15 = {
		liege = "d_tunis"
	}
	1187.10.15 = {
		holder = 33013
	}
	1192.1.1 = {
		liege = "d_tripolitania"
	}
	1192.1.1 = {
		holder = 155113
	}
	1195.1.1 = {
		holder = 32977
	}
	1198.1.1 = {
		liege = "d_tunis"
	}
	1207.1.1 = {
		holder = 33014
	}
	1224.1.1 = {
		holder = 33020
	}
	1229.1.1 = {
		holder = 33021
	}
	1251.1.1 = {
		holder = 33024
	}
	1276.1.1 = {
		holder = 33026
	}
	1279.1.1 = {
		holder = 33025
	}
	1284.1.1 = {
		holder = 33017
	}
	1295.1.1 = {
		holder = 33027
	}
	1309.1.1 = {
		holder = 33028
	}
	1310.1.1 = {
		holder = 33031
	}
	1311.1.1 = {
		holder = 33042
	}
	1317.1.1 = {
		holder = 33043
	}
	1318.1.1 = {
		holder = 33032
	}
	
	
	

}


c_ghadames = {
	376.1.1 = {
		holder = 990064
		liege = d_garamantes
	}
	376.1.2 = {
		holder = 0
		liege = none
	}
	768.1.1 = {	
		#liege = k_africa
		holder = 210014
		government = tribal_government
	}
	864.1.1 = {	
		#liege = d_tunis
		holder = 1228833
	}
	1062.1.1 = {
		liege = "d_jerid"
		holder = 155138
	}

#Old history
	1070.1.1 = {
		holder = 155139
	}
	1080.1.1 = {
		holder = 155140
	}
	1096.1.1 = {
		liege = "k_africa"
	}
	1096.1.1 = {
		holder = 155089
	}
	1098.1.1 = {
		liege = "d_tunis"
	}
	1098.1.1 = {
		holder = 155143
	}
	1110.1.1 = {
		holder = 155144
	}
	1121.1.1 = {
		holder = 155145
	}
	1148.1.1 = {
		liege = "k_sicily"
	}
	1148.1.1 = {
		holder = 155146
	}
	1155.1.1 = {
		holder = 155147
	}
	1160.1.22 = {
		liege = "k_maghreb"
	}
	1160.1.22 = {
		holder = 3211
	}
	1163.1.1 = {
		liege = "d_tunis"
	}
	1163.1.1 = {
		holder = 33012
	}
	1172.1.1 = {
		liege = "d_tripolitania"
	}
	1172.1.1 = {
		holder = 155113
	}
	1187.10.15 = {
		liege = "d_tunis"
	}
	1187.10.15 = {
		holder = 33013
	}
	1192.1.1 = {
		liege = "d_tripolitania"
	}
	1192.1.1 = {
		holder = 155113
	}
	1195.1.1 = {
		holder = 32977
	}
	1198.1.1 = {
		liege = "d_tunis"
	}
	1207.1.1 = {
		holder = 33014
	}
	1224.1.1 = {
		holder = 33020
	}
	1229.1.1 = {
		holder = 33021
	}
	1251.1.1 = {
		holder = 33024
	}
	1276.1.1 = {
		holder = 33026
	}
	1279.1.1 = {
		holder = 33025
	}
	1284.1.1 = {
		holder = 33017
	}
	1295.1.1 = {
		holder = 33027
	}
	1309.1.1 = {
		holder = 33028
	}
	1310.1.1 = {
		holder = 33031
	}
	1311.1.1 = {
		holder = 33042
	}
	1317.1.1 = {
		holder = 33043
	}
	1318.1.1 = {
		holder = 33032
	}
	
	
	

}


d_tripolitania = {
	768.1.1 = {
		holder = 210031
	}
	866.1.1 = {
		#liege = "k_africa" - should not be a vasal, but tributary
		government = clan_government
		holder = 273136 #Hawwara
	}
	866.10.10 = {
		holder = 273137
	}
	900.1.1 = {
		holder = 273139
	}
	940.1.1 = {
		holder = 273140
	}
	1052.1.1 = {
		holder = 155184
	}
	1066.1.1 = {
		liege = 0
		government = tribal_government
		holder = 155185
	}
	1087.1.1 = {
		holder = 155186
	}
	1108.1.1 = {
		holder = 155187
	}
	1129.1.1 = {
		holder = 155188
	}
	1146.1.1 = {
		liege = "k_sicily"
		holder = 155136
	}
	1160.1.22 = {
		liege = "k_maghreb"
		holder = 33013
	}
	1172.1.1 = {
		liege = "k_egypt"
		holder = 155113
	}
	1187.10.15 = {
		liege = "k_maghreb"
	}
	1192.1.1 = {
		liege = 0
	}
	1195.1.1 = {
		holder = 32977
	}
	1210.1.1 = {
		liege = "k_maghreb"
	}
	1210.1.1 = {
		holder = 33016
	}
	1223.1.1 = {
		holder = 33018
	}
	1229.1.1 = {
		liege = "k_africa"
	}
	1251.1.1 = {
		holder = 33040
	}
	1270.1.1 = {
		holder = 33041
	}
	1290.1.1 = {
		holder = 33030
	}
	1300.1.1 = {
		holder = 33032
	}
	1318.1.1 = {
		holder = 33034
	}
	1324.1.1 = {
		liege = 0
	}
	1324.1.1 = {
		holder = 155237
	}
	1327.1.1 = {
		holder = 155238
	}
	1348.1.1 = {
		holder = 155239
	}
}


c_tripolitana = {
	376.1.1 = {
		de_jure_liege = d_africa
		liege = d_africa
		holder = 990015
	}
	376.1.2 = {
		de_jure_liege = d_tripolitania
		holder = 0
		liege = none
	}
	867.1.1 = {	change_development_level = 8 }
	1066.1.1 = { change_development_level = 12 }
	
	768.1.1 = {	
		government = clan_government
		liege = "d_tripolitania"
	}
	768.1.1 = {
		holder = 210031
	}
	866.1.1 = {
		government = clan_government
		holder = 273136 #Hawwara
	}
	866.10.10 = {
		holder = 273137
	}
	900.1.1 = {
		holder = 273139
	}
	940.1.1 = {
		holder = 273140
	}
	1052.1.1 = {
		holder = 155184
	}
	1058.1.1 = {
		holder = 155130
	}
	1068.1.1 = {
		holder = 155131
	}
	1078.1.1 = {
		holder = 155132
	}
	1090.1.1 = {
		holder = 155133
	}
	1115.1.1 = {
		holder = 155134
	}
	1146.1.1 = {
		holder = 155136
	}
	1160.1.22 = {
		holder = 33013
	}
	1172.1.1 = {
		holder = 155113
	}
	1195.1.1 = {
		holder = 32977
	}
	1210.1.1 = {
		holder = 33016
	}
	1223.1.1 = {
		holder = 33018
	}
	1251.1.1 = {
		holder = 33040
	}
	1270.1.1 = {
		holder = 33041
	}
	1290.1.1 = {
		holder = 33030
	}
	1300.1.1 = {
		holder = 33032
	}
	1318.1.1 = {
		holder = 33034
	}
	1324.1.1 = {
		holder = 155237
	}
	1327.1.1 = {
		holder = 155238
	}
	1348.1.1 = {
		holder = 155239
	}
}


c_djerba = {
	376.1.1 = {
		de_jure_liege = d_africa
		liege = d_africa
		holder = 990015
	}
	376.1.2 = {
		de_jure_liege = d_tripolitania
		holder = 0
		liege = none
	}
	768.1.1 = {	
		government = clan_government
		liege = d_tripolitania
		holder = 210031
	}
	864.1.1 = {	
		liege = k_africa
		holder = 6884
	}
	1052.1.1 = {
		holder = 155184
	}
	1066.1.1 = {
		government = tribal_government
		holder = 155185
	}
	1087.1.1 = {
		holder = 155186
	}
	1108.1.1 = {
		holder = 155187
	}
	1129.1.1 = {
		holder = 155188
	}
	1146.1.1 = {
		holder = 155136
	}
	1160.1.22 = {
		holder = 33013
	}
	1172.1.1 = {
		holder = 155113
	}
	1195.1.1 = {
		holder = 32977
	}
	1210.1.1 = {
		holder = 33016
	}
	1223.1.1 = {
		holder = 33018
	}
	1251.1.1 = {
		holder = 33040
	}
	1270.1.1 = {
		holder = 33041
	}
	1290.1.1 = {
		holder = 33030
	}
	1300.1.1 = {
		holder = 33032
	}
	1318.1.1 = {
		holder = 33034
	}
	1324.1.1 = {
		holder = 155237
	}
	1327.1.1 = {
		holder = 155238
	}
	1348.1.1 = {
		holder = 155239
	}
}


c_jafara = {
	376.1.1 = {
		de_jure_liege = d_africa
		liege = d_africa
		holder = 990015
	}
	376.1.2 = {
		de_jure_liege = d_tripolitania
		holder = 0
		liege = none
	}
	768.1.1 = {	
		government = clan_government
		liege = d_tripolitania
		holder = 210031
	}
	866.1.1 = {
		holder = 273136 #Hawwara
	}
	866.10.10 = {
		holder = 273137
	}
	900.1.1 = {
		holder = 273139
	}
	940.1.1 = {
		holder = 273140
	}
	1052.1.1 = {
		holder = 155184
	}
	1066.1.1 = {
		government = tribal_government
		holder = 155185
	}
	1087.1.1 = {
		holder = 155186
	}
	1108.1.1 = {
		holder = 155187
	}
	1129.1.1 = {
		holder = 155188
	}
	1146.1.1 = {
		holder = 155136
	}
	1160.1.22 = {
		holder = 33013
	}
	1172.1.1 = {
		holder = 155113
	}
	1195.1.1 = {
		holder = 32977
	}
	1210.1.1 = {
		holder = 33016
	}
	1223.1.1 = {
		holder = 33018
	}
	1251.1.1 = {
		holder = 33040
	}
	1270.1.1 = {
		holder = 33041
	}
	1290.1.1 = {
		holder = 33030
	}
	1300.1.1 = {
		holder = 33032
	}
	1318.1.1 = {
		holder = 33034
	}
	1324.1.1 = {
		holder = 155237
	}
	1327.1.1 = {
		holder = 155238
	}
	1348.1.1 = {
		holder = 155239
	}
}


d_syrte = {
	864.1.1 = {
		government = clan_government
		liege = 0
		holder = 273135
	}
	903.1.1 = {
		holder = 0
	}
}


c_syrte = {
	376.1.1 = {
		de_jure_liege = d_cyrene_et_crete
		liege = d_cyrene_et_crete
		holder = 990023
	}
	376.1.2 = {
		de_jure_liege = d_syrt
		holder = 0
		liege = none
	}
	768.1.1 = {	
		government = clan_government
		liege = d_tripolitania
		holder = 210031
	}
	864.1.1 = {
		liege = d_syrte
		holder = 273135
	}

	# Debbabid branch of Suleimids
	1050.1.1 = {
		government = tribal_government
		liege = d_cyrenaica
		holder = 1229655
	}
	1060.1.1 = {
		holder = 1229656
	}

#Old history
	1093.1.1 = {
		government = clan_government
		holder = 155208
	}
	1105.1.1 = {
		holder = 155226
	}
	1135.1.1 = {
		holder = 155227
	}
	1165.1.1 = {
		holder = 155228
	}
	1195.1.1 = {
		holder = 155229
	}
	1225.1.1 = {
		holder = 155230
	}
	1255.1.1 = {
		holder = 155231
	}
	1285.1.1 = {
		holder = 155232
	}
	1337.1.1 = {
		holder = 155234
	}
}


c_labda = {
	376.1.1 = {
		de_jure_liege = d_africa
		liege = d_africa
		holder = 990015
	}
	376.1.2 = {
		de_jure_liege = d_syrte
		holder = 0
		liege = none
	}
	768.1.1 = {	
		government = clan_government
		liege = "d_tripolitania"
	}
	768.1.1 = {
		holder = 210031
	}
	866.1.1 = {
		holder = 273136 #Hawwara
	}
	866.10.10 = {
		holder = 273137
	}
	900.1.1 = {
		holder = 273139
	}
	940.1.1 = {
		holder = 273140
	}

# Debbabid branch of Suleimids
	1050.1.1 = {
		government = tribal_government
		liege = d_cyrenaica
		holder = 1229655
	}
	1060.1.1 = {
		holder = 1229656
	}

#Old history
	1093.1.1 = {
		government = clan_government
		holder = 155133
	}
	1115.1.1 = {
		holder = 155134
	}
	1146.1.1 = {
		holder = 155136
	}
	1160.1.22 = {
		holder = 33013
	}
	1172.1.1 = {
		holder = 155113
	}
	1195.1.1 = {
		holder = 32977
	}
	1210.1.1 = {
		holder = 33016
	}
	1223.1.1 = {
		holder = 33018
	}
	1251.1.1 = {
		holder = 33040
	}
	1270.1.1 = {
		holder = 33041
	}
	1290.1.1 = {
		holder = 33030
	}
	1300.1.1 = {
		holder = 33032
	}
	1318.1.1 = {
		holder = 33034
	}
	1324.1.1 = {
		holder = 155237
	}
	1327.1.1 = {
		holder = 155238
	}
	1348.1.1 = {
		holder = 155239
	}
}


c_waddan = {
	376.1.1 = {
		holder = 990064
		liege = d_garamantes
	}
	376.1.2 = {
		holder = 0
		liege = none
	}
	768.1.1 = {	
		liege = "d_tripolitania"
		government = tribal_government
	}
	768.1.1 = {
		holder = 210031
	}
	864.1.1 = {
		liege = d_syrte
		holder = 273135
	}

#Zegbid branch Suleimids
	1052.1.1 = {
		liege = d_cyrenaica
		holder = 1229657
	}
	1062.1.1 = {
		holder = 1229658
	}

#old history
	1090.1.1 = {
		holder = 155186
	}
	1108.1.1 = {
		holder = 155187
	}
	1129.1.1 = {
		holder = 155188
	}
	1146.1.1 = {
		holder = 155136
	}
	1160.1.22 = {
		holder = 33013
	}
	1172.1.1 = {
		holder = 155113
	}
	1195.1.1 = {
		holder = 32977
	}
	1210.1.1 = {
		holder = 33016
	}
	1223.1.1 = {
		holder = 33018
	}
	1251.1.1 = {
		holder = 33040
	}
	1270.1.1 = {
		holder = 33041
	}
	1290.1.1 = {
		holder = 33030
	}
	1300.1.1 = {
		holder = 33032
	}
	1318.1.1 = {
		holder = 33034
	}
	1324.1.1 = {
		holder = 155237
	}
	1327.1.1 = {
		holder = 155238
	}
	1348.1.1 = {
		holder = 155239
	}
}

