
k_orissa = {
	376.1.1 = {
		liege = e_gupta
	}
	867.1.1 = { change_development_level = 7 }
	1066.1.1 = { change_development_level = 10 }
	
	1040.1.1 = {
		holder = 189195	#Udyotakesari
	}
	1065.1.1 = {
		holder = 189196	#Janmejaya
	}
	1085.1.1 = {
		holder = 189197	#Puranjaya
	}
	1100.1.1 = {
		holder = 189199	#Karnadeva
	}

	#Eastern Ganga dynasty:
	1110.1.1 = {
		holder = 189183 #Codaganga
	}
	1150.1.1 = {
		holder = 191207 #Kamarnava
	}
	1157.1.1 = {
		holder = 191208 #Raghava
	}
	1171.1.1 = {
		holder = 191209 #Ragaraja
	}
	1192.1.1 = {
		holder = 189178 #Anangabhima
	}
	1195.1.1 = {
		holder = 191210 #Rajaraja
	}
	1216.1.1 = {
		holder = 191211 #Ana gabhima
	}
	1238.1.1 = {
		holder = 191212 #Narasimha
	}
	1264.1.1 = {
		holder = 191213 #Bhanudeva
	}
	1279.1.1 = {
		holder = 191214 #Narasimha
	}
	1306.1.1 = {
		holder = 191215 #Bhanudeva
	}
	1328.1.1 = {
		holder = 191216 #Narasimha
	}
	1352.1.1 = {
		holder = 191217 #Bhanudeva
	}
	1378.1.1 = {
		holder = 191218 #Narasimha
	}
	1414.1.1 = {
		holder = 189177 #Bhanudeva
	}
}


d_tosali = {
	376.1.1 = {
		liege = k_orissa
	}
	376.1.2 = {
		liege = none
	}
	867.1.1 = { change_development_level = 12 }
	1066.1.1 = { change_development_level = 18 }
	
	736.1.1 = {
		holder = 191169	#Ksemankaradeva
	}
	756.1.1 = {
		holder = 191170	#Sivakaradeva
	}
	790.1.1 = {
		holder = 191171	#Subhakaradeva
	}
	809.1.1 = {
		holder = 191172	#Sivakaradeva
	}
	820.1.1 = {
		holder = 175120	#Santikaradeva
	}
	836.1.1 = {
		holder = 189184	#Subhakaradeva
	}
	839.1.1 = {
		holder = 189185	#Subhakaradeva
	}
	846.1.1 = {
		holder = 191173	#Tribhuvana Mahadeva
	}
	860.1.1 = {
		holder = 189186	#Santikaradeva
	}
	881.1.1 = {
		holder = 189187	#Subhakaradeva
	}
	885.1.1 = {
		holder = 191174	#Sivakaradeva
	}
	894.1.1 = {
		holder = 191175	#Tribhuvana Mahadevi
	}
	900.1.1 = {
		holder = 191176	#Santikaradeva
	}
	905.1.1 = {
		holder = 191177	#Subhakaradeva
	}
	920.1.1 = {
		holder = 191178	#Gauri
	}
	930.1.1 = {
		holder = 191179	#Dandi Mahadevi
	}
	940.1.1 = {
		holder = 191180	#Vakula Mahadeva
	}
	955.1.1 = {
		holder = 191181	#Dharma Mahadevi
	}
	956.1.1 = {
		holder = 189190	#Bhimaratha
	}
	975.1.1 = {
		holder = 189191	#Dharamaratha
	}
	995.1.1 = {
		holder = 189191	#Nahusa
	}
	1010.1.1 = {
		holder = 189193	#Indranatha
	}
	1022.1.1 = {
		holder = 189194	#Yayati
	}
	1040.1.1 = {
		holder = 189195	#Udyotakesari
		liege = k_orissa
	}
	1065.1.1 = {
		holder = 189196	#Janmejaya
	}
	1085.1.1 = {
		holder = 189197	#Puranjaya
	}
	1100.1.1 = {
		holder = 189199	#Karnadeva
	}
	1110.1.1 = {
		holder = 189183 #Codaganga
	}
	1150.1.1 = {
		holder = 191207 #Kamarnava
	}
	1157.1.1 = {
		holder = 191208 #Raghava
	}
	1171.1.1 = {
		holder = 191209 #Ragaraja
	}
	1192.1.1 = {
		holder = 189178 #Anangabhima
	}
	1195.1.1 = {
		holder = 191210 #Rajaraja
	}
	1216.1.1 = {
		holder = 191211 #Anangabhīma
	}
	1238.1.1 = {
		holder = 191212 #Narasimha
	}
	1264.1.1 = {
		holder = 191213 #Bhanudeva
	}
	1279.1.1 = {
		holder = 191214 #Narasimha
	}
	1306.1.1 = {
		holder = 191215 #Bhanudeva
	}
	1328.1.1 = {
		holder = 191216 #Narasimha
	}
	1352.1.1 = {
		holder = 191217 #Bhanudeva
	}
	1378.1.1 = {
		holder = 191218 #Narasimha
	}
	1414.1.1 = {
		holder = 189177 #Bhanudeva
	}
}


c_kataka = {
	736.1.1 = {
		holder = 191169	#Ksemankaradeva
		liege = d_tosali
	}
	756.1.1 = {
		holder = 191170	#Sivakaradeva
	}
	790.1.1 = {
		holder = 191171	#Subhakaradeva
	}
	809.1.1 = {
		holder = 191172	#Sivakaradeva
	}
	820.1.1 = {
		holder = 175120	#Santikaradeva
	}
	836.1.1 = {
		holder = 189184	#Subhakaradeva
	}
	839.1.1 = {
		holder = 189185	#Subhakaradeva
	}
	846.1.1 = {
		holder = 191173	#Tribhuvana Mahadeva
	}
	860.1.1 = {
		holder = 189186	#Santikaradeva
	}
	881.1.1 = {
		holder = 189187	#Subhakaradeva
	}
	885.1.1 = {
		holder = 191174	#Sivakaradeva
	}
	894.1.1 = {
		holder = 191175	#Tribhuvana Mahadevi
	}
	900.1.1 = {
		holder = 191176	#Santikaradeva
	}
	905.1.1 = {
		holder = 191177	#Subhakaradeva
	}
	920.1.1 = {
		holder = 191178	#Gauri
	}
	930.1.1 = {
		holder = 191179	#Dandi Mahadevi
	}
	940.1.1 = {
		holder = 191180	#Vakula Mahadeva
	}
	955.1.1 = {
		holder = 191181	#Dharma Mahadevi
	}
	956.1.1 = {
		holder = 189190	#Bhimaratha
	}
	975.1.1 = {
		holder = 189191	#Dharamaratha
	}
	995.1.1 = {
		holder = 189191	#Nahusa
	}
	1010.1.1 = {
		holder = 189193	#Indranatha
	}
	1022.1.1 = {
		holder = 189194	#Yayati
	}
	1040.1.1 = {
		holder = 189195	#Udyotakesari
		liege = k_orissa
	}
	1065.1.1 = {
		holder = 189196	#Janmejaya
	}
	1085.1.1 = {
		holder = 189197	#Puranjaya
	}
	1110.1.1 = {
		holder = 189183 #Codaganga
	}
	1150.1.1 = {
		holder = 191207 #Kamarnava
	}
	1157.1.1 = {
		holder = 191208 #Raghava
	}
	1171.1.1 = {
		holder = 191209 #Ragaraja
	}
	1192.1.1 = {
		holder = 189178 #Anangabhima
	}
	1195.1.1 = {
		holder = 191210 #Rajaraja
	}
	1216.1.1 = {
		holder = 191211 #Anangabhīma
	}
	1238.1.1 = {
		holder = 191212 #Narasimha
	}
	1264.1.1 = {
		holder = 191213 #Bhanudeva
	}
	1279.1.1 = {
		holder = 191214 #Narasimha
	}
	1306.1.1 = {
		holder = 191215 #Bhanudeva
	}
	1328.1.1 = {
		holder = 191216 #Narasimha
	}
	1352.1.1 = {
		holder = 191217 #Bhanudeva
	}
	1378.1.1 = {
		holder = 191218 #Narasimha
	}
	1414.1.1 = {
		holder = 189177 #Bhanudeva
	}
}


c_viraja = {
	736.1.1 = {
		holder = 191169	#Ksemankaradeva
		liege = d_tosali
	}
	756.1.1 = {
		holder = 191170	#Sivakaradeva
	}
	790.1.1 = {
		holder = 191171	#Subhakaradeva
	}
	809.1.1 = {
		holder = 191172	#Sivakaradeva
	}
	820.1.1 = {
		holder = 175120	#Santikaradeva
	}
	836.1.1 = {
		holder = 189184	#Subhakaradeva
	}
	839.1.1 = {
		holder = 189185	#Subhakaradeva
	}
	846.1.1 = {
		holder = 191173	#Tribhuvana Mahadeva
	}
	860.1.1 = {
		holder = 189186	#Santikaradeva
	}
	881.1.1 = {
		holder = 189187	#Subhakaradeva
	}
	885.1.1 = {
		holder = 191174	#Sivakaradeva
	}
	894.1.1 = {
		holder = 191175	#Tribhuvana Mahadevi
	}
	900.1.1 = {
		holder = 191176	#Santikaradeva
	}
	905.1.1 = {
		holder = 191177	#Subhakaradeva
	}
	920.1.1 = {
		holder = 191178	#Gauri
	}
	930.1.1 = {
		holder = 191179	#Dandi Mahadevi
	}
	940.1.1 = {
		holder = 191180	#Vakula Mahadeva
	}
	955.1.1 = {
		holder = 191181	#Dharma Mahadevi
	}
	956.1.1 = {
		holder = 189190	#Bhimaratha
	}
	975.1.1 = {
		holder = 189191	#Dharamaratha
	}
	995.1.1 = {
		holder = 189191	#Nahusa
	}
	1010.1.1 = {
		holder = 189193	#Indranatha
	}
	1022.1.1 = {
		holder = 189194	#Yayati
	}
	1040.1.1 = {
		holder = 189195	#Udyotakesari
	}
	1065.1.1 = {
		holder = 189196	#Janmejaya
	}
	1085.1.1 = {
		holder = 189197	#Puranjaya
	}
	1100.1.1 = {
		holder = 189199	#Karnadeva
	}
	1110.1.1 = {
		holder = 189183 #Codaganga
	}
	1150.1.1 = {
		holder = 191207 #Kamarnava
	}
	1157.1.1 = {
		holder = 191208 #Raghava
	}
	1171.1.1 = {
		holder = 191209 #Ragaraja
	}
	1192.1.1 = {
		holder = 189178 #Anangabhima
	}
	1195.1.1 = {
		holder = 191210 #Rajaraja
	}
	1216.1.1 = {
		holder = 191211 #Anangabhīma
	}
	1238.1.1 = {
		holder = 191212 #Narasimha
	}
	1264.1.1 = {
		holder = 191213 #Bhanudeva
	}
	1279.1.1 = {
		holder = 191214 #Narasimha
	}
	1306.1.1 = {
		holder = 191215 #Bhanudeva
	}
	1328.1.1 = {
		holder = 191216 #Narasimha
	}
	1352.1.1 = {
		holder = 191217 #Bhanudeva
	}
	1378.1.1 = {
		holder = 191218 #Narasimha
	}
	1414.1.1 = {
		holder = 189177 #Bhanudeva
	}

}


c_khinjali_mandala = {
	740.1.1 = {
		liege = "d_tosali"
		holder = 191182	#Silabhanja
	}
	760.1.1 = {
		holder = 191183 #Satrubhanja
	}
	830.1.1 = {
		holder = 189205	#Rangabhanja
	}
	880.1.1 = {
		holder = 189206	#Nettabhanja
	}
	910.1.1 = {
		holder = 189207	#Silabhanja
	}
	920.1.1 = {
		holder = 191184 #Vidhyadharabhanja
	}
	933.1.1 = {
		holder = 191185 #Nettabhanja
	}
	934.1.1 = {
		holder = 191186 #Satrubhanja
	}
	940.1.1 = {
		liege = d_daksina_kosala
	}
	949.1.1 = {
		holder = 191187 #Bettabhanja
	}

	#Somavamsis
	956.1.1 = {
		holder = 189190	#Bhimaratha
	}
	975.1.1 = {
		holder = 189191	#Dharamaratha
	}
	995.1.1 = {
		holder = 189191	#Nahusa
	}
	1010.1.1 = {
		holder = 189193	#Indranatha
	}
	1022.1.1 = {
		holder = 189194	#Yayati
	}
	1040.1.1 = {
		holder = 189195	#Udyotakesari
	}

	#Baudh Bhanjas
	1050.1.1 = {
		holder = additional_bhanjas_1
		liege = d_tosali
	}
	1070.1.1 = {
		holder = additional_bhanjas_2
	}
	1090.1.1 = {
		holder = additional_bhanjas_3
	}
	#Eastern Gangas
	1150.1.1 = {
		holder = 191207 #Kamarnava
	}
	1157.1.1 = {
		holder = 191208 #Raghava
	}
	1171.1.1 = {
		holder = 191209 #Ragaraja
	}
	1192.1.1 = {
		holder = 189178 #Anangabhima
	}
	1195.1.1 = {
		holder = 191210 #Rajaraja
	}
	1216.1.1 = {
		holder = 191211 #Anangabhīma
	}
	1238.1.1 = {
		holder = 191212 #Narasimha
	}
	1264.1.1 = {
		holder = 191213 #Bhanudeva
	}
	1279.1.1 = {
		holder = 191214 #Narasimha
	}
	1306.1.1 = {
		holder = 191215 #Bhanudeva
	}
	1328.1.1 = {
		holder = 191216 #Narasimha
	}
	1352.1.1 = {
		holder = 191217 #Bhanudeva
	}
	1378.1.1 = {
		holder = 191218 #Narasimha
	}
	1414.1.1 = {
		holder = 189177 #Bhanudeva
	}

}


c_kodalaka_mandala = {
	740.1.1 = {
		holder = 191240 #Kanchanastambha Sulki
		liege = d_tosali
	}
	780.1.1 = {
		holder = 191241 #Kalahastambha Sulki
	}
	820.1.1 = {
		holder = 191242 #Kulastambha
	}
	839.1.1 = {
		holder = 189210 #Ranastambha Sulki
	}
	845.1.1 = {
		holder = 189211 #Jayasthamba
	}
	855.1.1 = {
		holder = 189212 #Kulasthamba II
	}
	#864 - Mandal is split in two parts, this follows the northern part:
	864.1.1 = {
		holder = 191238 #Jayasimha Tunga
	}
	878.1.1 = {
		holder = 189213	#Khadaga Tunga
	}
	890.1.1 = {
		holder = 189214	#Vinita Tunga
	}
	905.1.1 = {
		holder = 189215	#Solana Tunga
	}
	920.1.1 = {
		holder = 189216	#Gayada Tunga
	}
	950.1.1 = {
		holder = 191239	#Apsaradeva
	}
	956.1.1 = {
		holder = 189190	#Bhimaratha
		liege = d_daksina_kosala
	}
	956.1.1 = {
		holder = 189190	#Bhimaratha
	}
	975.1.1 = {
		holder = 189191	#Dharamaratha
	}
	995.1.1 = {
		holder = 189191	#Nahusa
	}
	1010.1.1 = {
		holder = 189193	#Indranatha
	}
	1022.1.1 = {
		holder = 189194	#Yayati
	}
	1040.1.1 = {
		holder = 189195	#Udyotakesari
	}
	1065.1.1 = {
		holder = 189196	#Janmejaya
	}
	1085.1.1 = {
		holder = 189197	#Puranjaya
	}
	1100.1.1 = {
		holder = 189199	#Karnadeva
	}
	1110.1.1 = {
		holder = 189183 #Codaganga
		liege = d_tosali
	}
	1150.1.1 = {
		holder = 191207 #Kamarnava
	}
	1157.1.1 = {
		holder = 191208 #Raghava
	}
	1171.1.1 = {
		holder = 191209 #Ragaraja
	}
	1192.1.1 = {
		holder = 189178 #Anangabhima
	}
	1195.1.1 = {
		holder = 191210 #Rajaraja
	}
	1216.1.1 = {
		holder = 191211 #Anangabhīma
	}
	1238.1.1 = {
		holder = 191212 #Narasimha
	}
	1264.1.1 = {
		holder = 191213 #Bhanudeva
	}
	1279.1.1 = {
		holder = 191214 #Narasimha
	}
	1306.1.1 = {
		holder = 191215 #Bhanudeva
	}
	1328.1.1 = {
		holder = 191216 #Narasimha
	}
	1352.1.1 = {
		holder = 191217 #Bhanudeva
	}
	1378.1.1 = {
		holder = 191218 #Narasimha
	}
	1414.1.1 = {
		holder = 189177 #Bhanudeva
	}

}


c_khijjingakota = {
	740.1.1 = {
		liege = "d_tosali"
		holder = 191182	#Silabhanja
	}
	760.1.1 = {
		holder = 191183 #Satrubhanja
	}
	830.1.1 = {
		holder = 189205	#Rangabhanja
	}
	880.1.1 = {
		holder = 189208	#Kottabhanja
	}
	900.1.1 = {
		holder = 191219 #Dibhanja
	}
	924.1.1 = {
		holder = 191220 #Ranabhanja
	}
	936.1.1 = {
		holder = 191221	#Prithvibhanja
	}
	950.1.1 = {
		holder = 191222 #Rajabhanja
	}
	956.1.1 = {
		holder = 189190	#Bhimaratha
	}
	975.1.1 = {
		holder = 189191	#Dharamaratha
	}
	995.1.1 = {
		holder = 189191	#Nahusa
	}
	1010.1.1 = {
		holder = 189193	#Indranatha
	}
	1022.1.1 = {
		holder = 189194	#Yayati
	}
	1040.1.1 = {
		holder = 189195	#Udyotakesari
	}
	1065.1.1 = {
		holder = 189196	#Janmejaya
	}
	1085.1.1 = {
		holder = 189197	#Puranjaya
	}
	1100.1.1 = {
		holder = 189199	#Karnadeva
	}
	1110.1.1 = {
		holder = 189183 #Codaganga
	}
	1150.1.1 = {
		holder = 191207 #Kamarnava
	}
	1157.1.1 = {
		holder = 191208 #Raghava
	}
	1171.1.1 = {
		holder = 191209 #Ragaraja
	}
	1192.1.1 = {
		holder = 189178 #Anangabhima
	}
	1195.1.1 = {
		holder = 191210 #Rajaraja
	}
	1216.1.1 = {
		holder = 191211 #Anangabhīma
	}
	1238.1.1 = {
		holder = 191212 #Narasimha
	}
	1264.1.1 = {
		holder = 191213 #Bhanudeva
	}
	1279.1.1 = {
		holder = 191214 #Narasimha
	}
	1306.1.1 = {
		holder = 191215 #Bhanudeva
	}
	1328.1.1 = {
		holder = 191216 #Narasimha
	}
	1352.1.1 = {
		holder = 191217 #Bhanudeva
	}
	1378.1.1 = {
		holder = 191218 #Narasimha
	}
	1414.1.1 = {
		holder = 189177 #Bhanudeva
	}

}


d_daksina_kosala = {
	376.1.1 = {
		liege = k_orissa
	}
	376.1.2 = {
		liege = none
	}
	670.1.1 = {
		holder = 191223	#Udayana
	}
	720.1.1 = {
		holder = 191224	#Judrabala
	}
	750.1.1 = {
		holder = 191225	#Nannadeva
	}
	780.1.1 = {
		holder = 191228	#Chandragupta
	}
	800.1.1 = {
		holder = 191230	#Haragupta
	}
	850.1.1 = {
		holder = 191231	#Balarjuna
	}
	882.1.1 = {
		holder = 189188	#Janamejaya
	}
	922.1.1 = {
		holder = 189189	#Yayati
	}
	955.1.1 = {
		holder = 189190	#Bhimaratha
	}
	975.1.1 = {
		holder = 189191	#Dharamaratha
	}
	995.1.1 = {
		holder = 189191	#Nahusa
	}
	1010.1.1 = {
		holder = 189193	#Indranatha
	}
	1022.1.1 = {
		holder = 189194	#Yayati
	}
	1040.1.1 = {
		holder = 189195	#Udyotakesari
		liege = k_orissa
	}
	1050.1.1 = {
		holder = additional_somavamsis_2 #Abhimanyu - Grandfather of Udyotakesari.
	}
	1063.1.1 = {
		holder = additional_somavamsis_3 #Someshvara - Son of Abhimanyu
	}
	1075.1.1 = { #Lost to Dandakas and Haihayas
		holder = 0	#Janmejaya
		liege = 0
	}
	1225.1.1 = {
		holder = 191355 #Laxmideo
	}
	1250.1.1 = {
		holder = 191356 #Simhana
	}
	1280.1.1 = {
		holder = 191357 #Danghira
	}
	1300.1.1 = {
		holder = 191358 #Ramachandra
	}
	1340.1.1 = {
		holder = 191359 #Ratanasena
	}
	1380.1.1 = {
		holder = 191360 #Vahar
	}
	1426.1.1 = {
		holder = 191361 #Kamaldeva
	}
}


c_rayapura = {
	760.1.1 = {
		holder = 191295 #Nandivarman
		liege = d_ratanpur
	}
	810.1.1 = {
		holder = 191296 #Vijayaditya
	}
	840.1.1 = {
		holder = 191297 #Malladeva
	}
	870.1.1 = {
		holder = 175130 #Vikramaditya I Jayameru
	}
	895.1.1 = {
		holder = 189188	#Janamejaya
		liege = d_daksina_kosala
	}
	922.1.1 = {
		holder = 189189	#Yayati
	}
	955.1.1 = {
		holder = 189190	#Bhimaratha
	}
	975.1.1 = {
		holder = 189191	#Dharamaratha
	}
	995.1.1 = {
		holder = 189191	#Nahusa
	}
	1010.1.1 = {
		holder = 189193	#Indranatha
	}
	1022.1.1 = {
		holder = 189194	#Yayati
	}
	1040.1.1 = {
		holder = 189195	#Udyotakesari
	}
	1050.1.1 = {
		holder = additional_somavamsis_2 #Abhimanyu - Grandfather of Udyotakesari.
	}
	1063.1.1 = {
		holder = additional_somavamsis_3 #Someshvara - Son of Abhimanyu
	}
	1075.1.1 = { #Lost to Haihayas
		holder = 191348 #Prthvideva
		liege = d_ratanpur
	}
	1110.1.1 = {
		holder = 191349 #Jajalladeva
	}
	1130.1.1 = {
		holder = 191350 #Ratnadeva II
	}
	1150.1.1 = {
		holder = 191351 #Prthvideva II
	}
	1170.1.1 = {
		holder = 191352 #Jajalladeva
	}
	1190.1.1 = {
		holder = 191353 #Ratnadeva III
	}
	1198.1.1 = {
		holder = 191354 #Pratapamalla
	}
	1225.1.1 = {
		holder = 191355 #Laxmideo
		liege = d_daksina_kosala
	}
	1250.1.1 = {
		holder = 191356 #Simhana
	}
	1280.1.1 = {
		holder = 191357 #Danghira
	}
	1300.1.1 = {
		holder = 191358 #Ramachandra
	}
	1340.1.1 = {
		holder = 191359 #Ratanasena
	}
	1380.1.1 = {
		holder = 191360 #Vahar
	}
	1426.1.1 = {
		holder = 191361 #Kamaldeva
	}
}


c_sripuri = {
	670.1.1 = {
		holder = 191223	#Udayana
		liege = d_daksina_kosala
	}
	720.1.1 = {
		holder = 191224	#Judrabala
	}
	750.1.1 = {
		holder = 191225	#Nannadeva
	}
	780.1.1 = {
		holder = 191228	#Chandragupta
	}
	800.1.1 = {
		holder = 191230	#Haragupta
	}
	850.1.1 = {
		holder = 191231	#Balarjuna
	}
	870.1.1 = {
		holder = 175130 #Vikramaditya I Jayameru
	}
	895.1.1 = {
		holder = 189188	#Janamejaya
		liege = d_daksina_kosala
	}
	922.1.1 = {
		holder = 189189	#Yayati
	}
	955.1.1 = {
		holder = 189190	#Bhimaratha
	}
	975.1.1 = {
		holder = 189191	#Dharamaratha
	}
	995.1.1 = {
		holder = 189191	#Nahusa
	}
	1010.1.1 = {
		holder = 189193	#Indranatha
	}
	1022.1.1 = {
		holder = 189194	#Yayati
	}
	1040.1.1 = {
		holder = 189195	#Udyotakesari
	}
	1050.1.1 = {
		holder = additional_somavamsis_2 #Abhimanyu - Grandfather of Udyotakesari.
	}
	1063.1.1 = {
		holder = additional_somavamsis_3 #Someshvara - Son of Abhimanyu
	}
	1075.1.1 = { #Lost to Haihayas
		holder = 191348 #Prthvideva
		liege = d_ratanpur
	}
	1110.1.1 = {
		holder = 191349 #Jajalladeva
	}
	1130.1.1 = {
		holder = 191350 #Ratnadeva II
	}
	1150.1.1 = {
		holder = 191351 #Prthvideva II
	}
	1170.1.1 = {
		holder = 191352 #Jajalladeva
	}
	1190.1.1 = {
		holder = 191353 #Ratnadeva III
	}
	1198.1.1 = {
		holder = 191354 #Pratapamalla
	}
	1225.1.1 = {
		holder = 191355 #Laxmideo
		liege = d_daksina_kosala
	}
	1250.1.1 = {
		holder = 191356 #Simhana
	}
	1280.1.1 = {
		holder = 191357 #Danghira
	}
	1300.1.1 = {
		holder = 191358 #Ramachandra
	}
	1340.1.1 = {
		holder = 191359 #Ratanasena
	}
	1380.1.1 = {
		holder = 191360 #Vahar
	}
	1426.1.1 = {
		holder = 191361 #Kamaldeva
	}
}


c_suvarnapura = {
	670.1.1 = {
		holder = 191223	#Udayana
		liege = d_daksina_kosala
	}
	720.1.1 = {
		holder = 191224	#Judrabala
	}
	750.1.1 = {
		holder = 191225	#Nannadeva
	}
	780.1.1 = {
		holder = 191228	#Chandragupta
	}
	800.1.1 = {
		holder = 191230	#Haragupta
	}
	850.1.1 = {
		holder = 191231	#Balarjuna
	}
	882.1.1 = {
		holder = 189188	#Janamejaya
	}
	922.1.1 = {
		holder = 189189	#Yayati
	}
	955.1.1 = {
		holder = 189190	#Bhimaratha
	}
	975.1.1 = {
		holder = 189191	#Dharamaratha
	}
	995.1.1 = {
		holder = 189191	#Nahusa
	}
	1010.1.1 = {
		holder = 189193	#Indranatha
	}
	1022.1.1 = {
		holder = 189194	#Yayati
	}
	1040.1.1 = {
		holder = 189195	#Udyotakesari
	}
	1050.1.1 = {
		holder = additional_somavamsis_2 #Abhimanyu - Grandfather of Udyotakesari.
	}
	1063.1.1 = {
		holder = additional_somavamsis_3 #Someshvara - Son of Abhimanyu
	}
	1075.1.1 = { #Lost to Haihayas
		holder = 191348 #Prthvideva
		liege = d_ratanpur
	}
	1110.1.1 = {
		holder = 191349 #Jajalladeva
	}
	#Eastern Gangas
	1150.1.1 = {
		holder = 191207 #Kamarnava
		liege = d_tosali
	}
	1157.1.1 = {
		holder = 191208 #Raghava
	}
	1171.1.1 = {
		holder = 191209 #Ragaraja
	}
	1192.1.1 = {
		holder = 189178 #Anangabhima
	}
	1195.1.1 = {
		holder = 191210 #Rajaraja
	}
	1216.1.1 = {
		holder = 191211 #Anangabhīma
	}
	1238.1.1 = {
		holder = 191212 #Narasimha
	}
	1264.1.1 = {
		holder = 191213 #Bhanudeva
	}
	1279.1.1 = {
		holder = 191214 #Narasimha
	}
	1306.1.1 = {
		holder = 191215 #Bhanudeva
	}
	1328.1.1 = {
		holder = 191216 #Narasimha
	}
	1352.1.1 = {
		holder = 191217 #Bhanudeva
	}
	1378.1.1 = {
		holder = 191218 #Narasimha
	}
	1414.1.1 = {
		holder = 189177 #Bhanudeva
	}
}


c_sambalpur = {
	670.1.1 = {
		holder = 191223	#Udayana
		liege = d_daksina_kosala
	}
	720.1.1 = {
		holder = 191224	#Judrabala
	}
	750.1.1 = {
		holder = 191225	#Nannadeva
	}
	780.1.1 = {
		holder = 191228	#Chandragupta
	}
	800.1.1 = {
		holder = 191230	#Haragupta
	}
	850.1.1 = {
		holder = 191231	#Balarjuna
	}
	882.1.1 = {
		holder = 189188	#Janamejaya
	}
	922.1.1 = {
		holder = 189189	#Yayati
	}
	955.1.1 = {
		holder = 189190	#Bhimaratha
	}
	975.1.1 = {
		holder = 189191	#Dharamaratha
	}
	995.1.1 = {
		holder = 189191	#Nahusa
	}
	1010.1.1 = {
		holder = 189193	#Indranatha
	}
	1022.1.1 = {
		holder = 189194	#Yayati
	}
	1040.1.1 = {
		holder = 189195	#Udyotakesari
	}
	1050.1.1 = {
		holder = additional_somavamsis_2 #Abhimanyu - Grandfather of Udyotakesari.
	}
	1063.1.1 = {
		holder = additional_somavamsis_3 #Someshvara - Son of Abhimanyu
	}
	1075.1.1 = { #Lost to Haihayas
		holder = 191348 #Prthvideva
		liege = d_ratanpur
	}
	1110.1.1 = {
		holder = 189183 #Codaganga
		liege = d_tosali
	}
	1150.1.1 = {
		holder = 191207 #Kamarnava
	}
	1157.1.1 = {
		holder = 191208 #Raghava
	}
	1171.1.1 = {
		holder = 191209 #Ragaraja
	}
	1192.1.1 = {
		holder = 189178 #Anangabhima
	}
	1195.1.1 = {
		holder = 191210 #Rajaraja
	}
	1216.1.1 = {
		holder = 191211 #Anangabhīma
	}
	1238.1.1 = {
		holder = 191212 #Narasimha
	}
	1264.1.1 = {
		holder = 191213 #Bhanudeva
	}
	1279.1.1 = {
		holder = 191214 #Narasimha
	}
	1306.1.1 = {
		holder = 191215 #Bhanudeva
	}
	1328.1.1 = {
		holder = 191216 #Narasimha
	}
	1352.1.1 = {
		holder = 191217 #Bhanudeva
	}
	1378.1.1 = {
		holder = 191218 #Narasimha
	}
	1414.1.1 = {
		holder = 189177 #Bhanudeva
	}
}


c_kiranapura = {
	#Nagas of Kawardha
	740.1.1 = {
		holder = 191294 #Ramachandra
		liege = d_dahala
	}
	780.1.1 = {
		holder = 191263 #Ahiraja
	}
	820.1.1 = {
		holder = 191264 #Rajalla
	}
	860.1.1 = {
		holder = 191265 #Dharnidhara
	}
	920.1.1 = {
		holder = 191266 #Mahimadeva
	}
	960.1.1 = {
		holder = 191267 #Sarvavandana
	}
	1000.1.1 = {
		liege = d_ratanpur
	}
	1030.1.1 = {
		holder = 191268 #Gopaladeva
	}
	1090.1.1 = {
		holder = 191269 #Naladeva
	}
	1100.1.1 = {
		holder = 191270 #Bhuvanapala
	}
	1120.1.1 = {
		holder = 191271 #Kirtipala
	}
	1130.1.1 = {
		holder = 191272 #Jayatrapala
	}
	1140.1.1 = {
		holder = 191273 #Mahipala
	}
	1150.1.1 = {
		holder = 191274 #Visamapala
	}
	1160.1.1 = {
		holder = 191275 #Janhu
	}
	1170.1.1 = {
		holder = 191276 #Janapala
	}
	1175.1.1 = {
		holder = 191277 #Yasoraja
	}
	1210.1.1 = {
		holder = 191278 #Kanhadadeva
	}
	1220.1.1 = {
		holder = 191279 #Laksmavarma
	}
	1225.1.1 = {
		liege = d_daksina_kosala
	}
	1240.1.1 = {
		holder = 191280 #Khadgadeva
	}
	1260.1.1 = {
		holder = 191281 #Bhuvanaikamalla
	}
	1270.1.1 = {
		holder = 191282 #Arjuna
	}
	1280.1.1 = {
		holder = 191283 #Bhima
	}
	1290.1.1 = {
		holder = 191284 #Bhoja
	}
	1300.1.1 = {
		holder = 191288 #Laksmana
	}
	1320.1.1 = {
		holder = 191289 #Ramchandra
	}
	1345.1.1 = {
		holder = 191290 #Jaya
	}

}


d_kalinga = {
	376.1.1 = {
		liege = e_gupta
	}
	376.1.2 = {
		liege = none
	}
	496.1.1 = {
		holder = 191188 #Indravarma
	}	
	534.1.1 = {
		holder = 191189	#Maharajendravarma
	}
	560.1.1 = {
		holder = 191190 #Mahasmantavarma
	}
	575.1.1 = {
		holder = 191191 #Hastivarma
	}
	583.1.1 = {
		holder = 191192 #Indravarma
	}
	587.1.1 = {
		holder = 191193 #Mitravarma
	}
	624.1.1 = {
		holder = 191194 #Indravarma
	}
	633.1.1 = {
		holder = 191196 #Indravarma
	}
	650.1.1 = {
		holder = 191197 #Gunavarma
	}
	679.1.1 = {
		holder = 191198 #Devendravarma
	}
	700.1.1 = {
		holder = 191199 #Anantavarma
	}
	717.1.1 = {
		holder = 191200 #Nandavarma
	}
	747.1.1 = {
		holder = 191201 #Devendravarma
	}
	752.1.1 = {
		holder = 191202 #Rajendravarma
	}
	780.1.1 = {
		holder = 191203 #Anantavarma
	}
	804.1.1 = {
		holder = 191204 #Devandravarma
	}
	809.1.1 = {
		holder = 189167 #Rajendravarma
	}
	847.1.1 = {
		holder = 191205 #Satyavarma
	}
	854.1.1 = {
		holder = 189168 #Anantavarma
	}
	870.1.1 = {
		holder = 189169	#Bhupendravarma
	}
	889.1.1 = {
		holder = 189170 #Devendravarma
	}
	895.1.1 = {
		holder = 189172 #Vajrahasta
	}
	939.1.1 = {
		holder = 189174 #Gundama
	}
	942.1.1 = {
		holder = 189175 #Kamavarnava
	}
	977.1.1 = {
		holder = 189176 #Vinyaditya
	}
	980.1.1 = {
		holder = 189173 #Vajrahasta
	}
	1015.1.1 = {
		holder = 189179 #Kamavarna
	}
	1016.1.1 = {
		holder = 189180 #Gundama
	}
	1019.1.1 = {
		holder = 191206 #Madhukamavarna
	}
	1038.1.1 = {
		holder = 189181 #Vajrahasta
	}
	1040.1.1 = {
		holder = 189195	#Udyotakesari
		liege = k_orissa
	}
	1065.1.1 = {
		holder = 189196	#Janmejaya
	}
	1070.1.1 = {
		holder = 189182 #Rajaraja
	}
	1078.1.1 = {
		holder = 189183 #Codaganga
	}
	1150.1.1 = {
		holder = 191207 #Kamarnava
	}
	1157.1.1 = {
		holder = 191208 #Raghava
	}
	1171.1.1 = {
		holder = 191209 #Ragaraja
	}
	1192.1.1 = {
		holder = 189178 #Anangabhima
	}
	1195.1.1 = {
		holder = 191210 #Rajaraja
	}
	1216.1.1 = {
		holder = 191211 #Anangabhīma
	}
	1238.1.1 = {
		holder = 191212 #Narasimha
	}
	1264.1.1 = {
		holder = 191213 #Bhanudeva
	}
	1279.1.1 = {
		holder = 191214 #Narasimha
	}
	1306.1.1 = {
		holder = 191215 #Bhanudeva
	}
	1328.1.1 = {
		holder = 191216 #Narasimha
	}
	1352.1.1 = {
		holder = 191217 #Bhanudeva
	}
	1378.1.1 = {
		holder = 191218 #Narasimha
	}
	1414.1.1 = {
		holder = 189177 #Bhanudeva
	}
}


c_kalinganagar = {
	496.1.1 = {
		holder = 191188 #Indravarma
		liege = d_kalinga
	}	
	534.1.1 = {
		holder = 191189	#Maharajendravarma
	}
	560.1.1 = {
		holder = 191190 #Mahasmantavarma
	}
	575.1.1 = {
		holder = 191191 #Hastivarma
	}
	583.1.1 = {
		holder = 191192 #Indravarma
	}
	587.1.1 = {
		holder = 191193 #Mitravarma
	}
	624.1.1 = {
		holder = 191194 #Indravarma
	}
	633.1.1 = {
		holder = 191196 #Indravarma
	}
	650.1.1 = {
		holder = 191197 #Gunavarma
	}
	679.1.1 = {
		holder = 191198 #Devendravarma
	}
	700.1.1 = {
		holder = 191199 #Anantavarma
	}
	717.1.1 = {
		holder = 191200 #Nandavarma
	}
	747.1.1 = {
		holder = 191201 #Devendravarma
	}
	752.1.1 = {
		holder = 191202 #Rajendravarma
	}
	780.1.1 = {
		holder = 191203 #Anantavarma
	}
	804.1.1 = {
		holder = 191204 #Devandravarma
	}
	809.1.1 = {
		holder = 189167 #Rajendravarma
	}
	847.1.1 = {
		holder = 191205 #Satyavarma
	}
	854.1.1 = {
		holder = 189168 #Anantavarma
	}
	870.1.1 = {
		holder = 189169	#Bhupendravarma
	}
	889.1.1 = {
		holder = 189170 #Devendravarma
	}
	895.1.1 = {
		holder = 189172 #Vajrahasta
	}
	939.1.1 = {
		holder = 189174 #Gundama
	}
	942.1.1 = {
		holder = 189175 #Kamavarnava
	}
	977.1.1 = {
		holder = 189176 #Vinyaditya
	}
	980.1.1 = {
		holder = 189173 #Vajrahasta
	}
	1015.1.1 = {
		holder = 189179 #Kamavarna
	}
	1016.1.1 = {
		holder = 189180 #Gundama
	}
	1019.1.1 = {
		holder = 191206 #Madhukamavarna
	}
	1038.1.1 = {
		holder = 189181 #Vajrahasta
	}
	1070.1.1 = {
		holder = 189182 #Rajaraja
	}
	1078.1.1 = {
		holder = 189183 #Codaganga
	}
	1150.1.1 = {
		holder = 191207 #Kamarnava
	}
	1157.1.1 = {
		holder = 191208 #Raghava
	}
	1171.1.1 = {
		holder = 191209 #Ragaraja
	}
	1192.1.1 = {
		holder = 189178 #Anangabhima
	}
	1195.1.1 = {
		holder = 191210 #Rajaraja
	}
	1216.1.1 = {
		holder = 191211 #Anangabhīma
	}
	1238.1.1 = {
		holder = 191212 #Narasimha
	}
	1264.1.1 = {
		holder = 191213 #Bhanudeva
	}
	1279.1.1 = {
		holder = 191214 #Narasimha
	}
	1306.1.1 = {
		holder = 191215 #Bhanudeva
	}
	1328.1.1 = {
		holder = 191216 #Narasimha
	}
	1352.1.1 = {
		holder = 191217 #Bhanudeva
	}
	1378.1.1 = {
		holder = 191218 #Narasimha
	}
	1414.1.1 = {
		holder = 189177 #Bhanudeva
	}
}


c_puri = {
	660.1.1 = {
		holder = 191304 #Sailodbhava
		liege = d_tosali
	}
	700.1.1 = {
		holder = 191305 #Ranabhita
	}
	750.1.1 = {
		holder = 191306 #Sainyabhita
	}
	790.1.1 = {
		holder = 191307 #Yasobhita
	}
	850.1.1 = {
		holder = 191308 #Sainyabhita II
	}
	890.1.1 = {
		holder = 191309 #Yasobhita II
	}
	940.1.1 = {
		holder = 191310 #Madhyamaraja
	}
	980.1.1 = {
		holder = 191311 #Dharmaraja Manabhita
	}
	1020.1.1 = {
		holder = 191312 #Madhyamaraja II
	}
	1040.1.1 = {
		holder = 191313 #Ranaksobha
	}
	1060.1.1 = {
		holder = 191314 #Petavyalloparaja (brother of above)
	}
	1090.1.1 = {
		holder = 191316 #Madhyamaraja III
	}
	1110.1.1 = {
		liege = d_kalinga
	}
	1130.1.1 = {
		holder = 189183 #Codaganga
	}
	1150.1.1 = {
		holder = 191207 #Kamarnava
	}
	1157.1.1 = {
		holder = 191208 #Raghava
	}
	1171.1.1 = {
		holder = 191209 #Ragaraja
	}
	1192.1.1 = {
		holder = 189178 #Anangabhima
	}
	1195.1.1 = {
		holder = 191210 #Rajaraja
	}
	1216.1.1 = {
		holder = 191211 #Anangabhīma
	}
	1238.1.1 = {
		holder = 191212 #Narasimha
	}
	1264.1.1 = {
		holder = 191213 #Bhanudeva
	}
	1279.1.1 = {
		holder = 191214 #Narasimha
	}
	1306.1.1 = {
		holder = 191215 #Bhanudeva
	}
	1328.1.1 = {
		holder = 191216 #Narasimha
	}
	1352.1.1 = {
		holder = 191217 #Bhanudeva
	}
	1378.1.1 = {
		holder = 191218 #Narasimha
	}
	1414.1.1 = {
		holder = 189177 #Bhanudeva
	}
}


c_swetaka_mandala = {
	720.1.1 = {
		holder = 191233  #Jayavarmadeva
		liege = d_tosali
	}
	760.1.1 = {
		holder = 191234  #Anantavarman
	}
	770.1.1 = {
		holder = 191235  #Gangakavilasa
	}
	790.1.1 = {
		holder = 191236 #Bhupendravarman
	}
	820.1.1 = {
		holder = 189217 #Mahendravarman
	}
	840.1.1 = {
		holder = 189218 #Pritvhivarman
	}
	868.1.1 = {
		holder = 189221 #Indravarman
	}
	880.1.1 = {
		holder = 189222 #Indravarman
	}
	909.1.1 = {
		holder = 191237 #Samantavarman
	}

	#End Svetaka Gangas

	#Start Chikiti Gangas:

	921.1.1 = {
		holder = chikiti_ganga_1 #Kesaba Rautara
	}
	940.1.1 = {
		holder = chikiti_ganga_2 #Balabhadra Rautara
	}
	997.1.1 = {
		holder = chikiti_ganga_3 #Madhaba Rautara
	}
	1059.1.1 = {
		holder = chikiti_ganga_4 #Languli Rautara
	}
	1094.1.1 = {
		holder = chikiti_ganga_5 #Mohana Rautara
	}
	1143.1.1 = {
		holder = chikiti_ganga_6 #Balarama Rautara
	}
	1197.1.1 = {
		holder = chikiti_ganga_7 #Biswanatha Rautara
	}
	1249.1.1 = {
		holder = chikiti_ganga_8 #Harisarana Rautara
	}
	1272.1.1 = {
		holder = chikiti_ganga_9 #Raghunatha Rautara
	}
	1313.1.1 = {
		holder = chikiti_ganga_10 #Dinabandhu Rautara
	}
	1364.1.1 = {
		holder = chikiti_ganga_11 #Gopinatha Rautara
	}
	#Dynasty remains until 20th century
}


c_vizagipatam = {
	496.1.1 = {
		holder = 191188 #Indravarma
	}	
	534.1.1 = {
		holder = 191189	#Maharajendravarma
	}
	560.1.1 = {
		holder = 191190 #Mahasmantavarma
	}
	575.1.1 = {
		holder = 191191 #Hastivarma
	}
	583.1.1 = {
		holder = 191192 #Indravarma
	}
	587.1.1 = {
		holder = 191193 #Mitravarma
	}
	624.1.1 = {
		holder = 191194 #Indravarma
	}
	633.1.1 = {
		holder = 191196 #Indravarma
	}
	650.1.1 = {
		holder = 191197 #Gunavarma
	}
	679.1.1 = {
		holder = 191198 #Devendravarma
	}
	700.1.1 = {
		holder = 191199 #Anantavarma
	}
	717.1.1 = {
		holder = 191200 #Nandavarma
	}
	747.1.1 = {
		holder = 191201 #Devendravarma
	}
	752.1.1 = {
		holder = 191202 #Rajendravarma
	}
	780.1.1 = {
		holder = 191203 #Anantavarma
	}
	804.1.1 = {
		holder = 191204 #Devandravarma
	}
	809.1.1 = {
		holder = 189167 #Rajendravarma
	}
	847.1.1 = {
		holder = 191205 #Satyavarma
	}
	854.1.1 = {
		holder = 189168 #Anantavarma
	}
	870.1.1 = {
		holder = 189169	#Bhupendravarma
	}
	889.1.1 = {
		holder = 189170 #Devendravarma
	}
	895.1.1 = {
		holder = 189172 #Vajrahasta
	}
	939.1.1 = {
		holder = 189174 #Gundama
	}
	942.1.1 = {
		holder = 189175 #Kamavarnava
	}
	977.1.1 = {
		holder = 189176 #Vinyaditya
	}
	980.1.1 = {
		holder = 189173 #Vajrahasta
	}
	1015.1.1 = {
		holder = 189179 #Kamavarna
	}
	1016.1.1 = {
		holder = 189180 #Gundama
		liege = d_kalinga
	}
	1019.1.1 = {
		holder = 191206 #Madhukamavarna (far är 189173)
	}
	1038.1.1 = {
		holder = 189181 #Vajrahasta
	}
	1070.1.1 = {
		holder = 189182 #Rajaraja
	}
	1078.1.1 = {
		holder = 189183 #Codaganga
	}
	1150.1.1 = {
		holder = 191207 #Kamarnava
	}
	1157.1.1 = {
		holder = 191208 #Raghava
	}
	1171.1.1 = {
		holder = 191209 #Ragaraja
	}
	1192.1.1 = {
		holder = 189178 #Anangabhima
	}
	1195.1.1 = {
		holder = 191210 #Rajaraja
	}
	1216.1.1 = {
		holder = 191211 #Anangabhīma
	}
	1238.1.1 = {
		holder = 191212 #Narasimha
	}
	1264.1.1 = {
		holder = 191213 #Bhanudeva
	}
	1279.1.1 = {
		holder = 191214 #Narasimha
	}
	1306.1.1 = {
		holder = 191215 #Bhanudeva
	}
	1328.1.1 = {
		holder = 191216 #Narasimha
	}
	1352.1.1 = {
		holder = 191217 #Bhanudeva
	}
	1378.1.1 = {
		holder = 191218 #Narasimha
	}
	1414.1.1 = {
		holder = 189177 #Bhanudeva
	}
}


d_dandakaranya = {
	376.1.1 = {
		liege = e_gupta
	}
	376.1.2 = {
		liege = none
	}
	867.1.1 = { change_development_level = 5 }
	1066.1.1 = { change_development_level = 8 }
	
	945.1.1 = {
		holder = 191247#Rajalla
	}
	970.1.1 = {
		holder = 191248#Sankhapala
	}
	1021.1.1 = {
		holder = 191249#Nrapatibhusana
	}
	1060.1.1 = {
		holder = 191250#Jagadekabhusana
	}
	1065.1.1 = {
		holder = 191251#Madhurantaka
	}
	1069.1.1 = {
		holder = 191252#Somesvara
	}
	1108.1.1 = {
		holder = 191253#Somesvara
	}
	1130.1.1 = {
		holder = 191254#Kanharadeva
	}
	1147.1.1 = {
		holder = 191255#Jagakedabhusana
	}
	1218.1.1 = {
		holder = 191256#Kirtipala
	}
	1230.1.1 = {
		holder = 191257#Janhu
	}
	1280.1.1 = {
		holder = 191258#Harischandradeva
	}
	1324.1.1 = {
		holder = 191259#Annam Dev of Bastar
	}
	1369.1.1 = {
		holder = 191260#Hamir Dev
	}
	1410.1.1 = {
		holder = 191261#Bhatai Dev
	}
}


c_cakrakuta = {
	760.1.1 = {
		holder = 191243#Vallabharaja
	}
	800.1.1 = {
		holder = 191244#Rajamalla
	}
	850.1.1 = {
		holder = 191245#Vankhaditya
	}
	900.1.1 = {
		holder = 191246#Naladeva
	}
	920.1.1 = {
		holder = 191247#Rajalla
	}
	945.1.1 = {
		liege = d_dandakaranya
	}
	970.1.1 = {
		holder = 191248#Sankhapala
	}
	1021.1.1 = {
		holder = 191249#Nrapatibhusana
	}
	1060.1.1 = {
		holder = 191250#Jagadekabhusana
	}
	1065.1.1 = {
		holder = 191251#Madhurantaka
	}
	1069.1.1 = {
		holder = 191252#Somesvara
	}
	1108.1.1 = {
		holder = 191253#Somesvara
	}
	1130.1.1 = {
		holder = 191254#Kanharadeva
	}
	1147.1.1 = {
		holder = 191255#Jagakedabhusana
	}
	1218.1.1 = {
		holder = 191256#Kirtipala
	}
	1230.1.1 = {
		holder = 191257#Janhu
	}
	1280.1.1 = {
		holder = 191258#Harischandradeva
	}
	1324.1.1 = {
		holder = 191259#Annam Dev of Bastar
	}
	1369.1.1 = {
		holder = 191260#Hamir Dev
	}
	1410.1.1 = {
		holder = 191261#Bhatai Dev
	}
}


c_barasuru = {
	760.1.1 = {
		holder = 191243#Vallabharaja
	}
	800.1.1 = {
		holder = 191244#Rajamalla
	}
	850.1.1 = {
		holder = 191245#Vankhaditya
	}
	900.1.1 = {
		holder = 191246#Naladeva
	}
	920.1.1 = {
		holder = 191247#Rajalla
	}
	945.1.1 = {
		liege = d_dandakaranya
	}
	970.1.1 = {
		holder = 191248#Sankhapala
	}
	1021.1.1 = {
		holder = 191249#Nrapatibhusana
	}
	1060.1.1 = {
		holder = 191250#Jagadekabhusana
	}
	1065.1.1 = {
		holder = 191251#Madhurantaka
	}
	1066.1.1 = {
		holder = 189108 #Kulottunga (Rajiga)
		liege = k_tamilakam
	}
	1069.1.1 = {
		holder = 191252#Somesvara
		liege = d_dandakaranya
	}
	1108.1.1 = {
		holder = 191253#Somesvara
	}
	1130.1.1 = {
		holder = 191254#Kanharadeva
	}
	1147.1.1 = {
		holder = 191255#Jagakedabhusana
	}
	1218.1.1 = {
		holder = 191256#Kirtipala
	}
	1230.1.1 = {
		holder = 191257#Janhu
	}
	1280.1.1 = {
		holder = 191258#Harischandradeva
	}
	1324.1.1 = {
		holder = 191259#Annam Dev of Bastar
	}
	1369.1.1 = {
		holder = 191260#Hamir Dev
	}
	1410.1.1 = {
		holder = 191261#Bhatai Dev
	}

}

