
k_poland = {
	867.1.1 = { change_development_level = 2 }
	1066.1.1 = { change_development_level = 8 }
	1101.1.1 = { change_development_level = 12 }
	
	1025.4.18 = {
		holder = 756	#Boleslaw I the Brave
	}
	
	1025.6.17 = {
		holder = 758	#Mieszko II Lambert
	}
	
	1031.4.1 = {
		# Mieszko is deposed at this point. While he reclaims all Polish lands later, he does not manage to re-crown himself as King (nobody does until Boleslaw II)
		holder = 0		# 766 # Bezprym
	}
	
	# No legitimate kings, only Dukes controlling the land of the Kingdom
	#
	#1032.7.10 = {
	#	holder = 758	#Mieszko II Lambert (restored)
	#}
	#
	#1034.5.11 = {
	#	holder = 0 		# 302003 #Boleslaw the Forgotten — Excised for being a blight on the regnal numbering system.
	#}
	#
	#1039.1.10 = {
	#	holder = 760	#Kazimierz I the Restorer
	#}
	
	1058.11.28 = {
		# Technically shouldn't happen until 1075, but it needs to happen before game start or Boleslaw loses a bunch of his vassals.
		holder = 762	#Boleslaw II the Bold
		effect = {
			if = {
				limit = {
					exists = holder
					has_dlc_feature = royal_court
				}
				holder = {
					set_court_language = language_high_german
					if = {
						limit = { NOT = { knows_court_language_of = this } }
						learn_court_language_of = this
					}
				}
			}
		}
	}
	
	1079.5.1 = {
		holder = 764	#Wladyslaw I Herman
	}
	
	1102.6.4 = {
		holder = 170108	#Zbigniew
	}
	
	1107.4.1 = {
		holder = 221515	#Boleslaw III Wrymouth
	}
	
	1138.10.28 = {
		holder = 221531 #Wladyslaw II the Exile
	}
	
	1146.2.2 = {
		holder = 125973	#Boleslaw IV the Curly
	}
	
	1173.1.5 = {
		holder = 221560	#Mieszko III the Old
	}
	
	1177.4.21 = {
		holder = 221520	#Kazimierz II the Just
	}
}


d_lesser_poland = {
	#Krakus and the Lechitic tribes
	700.1.1 = {
		holder = 82273		#Krakus I the legendary
		liege = 0
	}
	725.1.1 = {
		holder = 82274		#Wanda the legendary
	}
	738.1.1 = {
		holder = 302066
	}
	778.1.1 = {
		holder = 302067
	}
	813.1.1 = {
		holder = 0
	}
	
	#Polish capital is moved to Krakow
	1034.5.11 = {
		holder = 760
		effect = { set_title_name = d_lesser_poland_late }
		liege = k_poland
	}
	1058.11.28 = {
		holder = 762
	}
	1079.1.1 = {
		holder = 764
	}
	1098.1.1 = {
		holder = 221515
	}
	1138.10.28 = {
		holder = 221531
	}
	1146.5.1 = {
		holder = 125973
	}
	1173.4.3 = {
		holder = 221560
	}
	1177.1.1 = {
		holder = 221520
	}
	1191.1.1 = {
		holder = 221560
	}
	1191.7.1 = {
		holder = 221520
	}
	1194.5.5 = {
		holder = 221524
	}
	1198.1.1 = {
		holder = 221560
	}
	1199.1.1 = {
		holder = 221524
	}
	1202.1.1 = {
		holder = 221560
	}
	1202.3.13 = {
		holder = 221570
	}
	1206.1.1 = {
		holder = 221524
	}
	1210.1.1 = {
		holder = 221550
	}
	1211.5.16 = {
		holder = 221524
	}
	1227.11.23 = {
		holder = 221570
	}
	1229.1.1 = {
		holder = 221525
	}
	1232.1.1 = {
		holder = 221537
	}
	1238.3.19 = {
		holder = 125905
	}
	1241.4.9 = {
		holder = 221525
	}
	1243.1.1 = {
		holder = 125982
	}
	1279.12.7 = {
		holder = 125984
	}
	1288.9.30 = {
		holder = 125909
	}
	1290.6.24 = {
		holder = 125977
	}
	1296.2.8 = {
		holder = 96002
	}
	1305.6.21 = {
		holder = 96003
	}
	1306.8.4 = {
		holder = 471510
	}
	1333.3.2 = {
		holder = 471500
	}

}


c_krakowska = {
	376.1.1 = {
		holder = 990073
		liege = d_scirii
	}
	376.1.2 = {
		holder = 0
		liege = none
	}
	867.1.1 = { change_development_level = 3 }
	1066.1.1 = { change_development_level = 12 }
	
	###Proto-Polish tribes
	#Krakus and the Lechitic tribes
	700.1.1 = {
		holder = 82273		#Krakus I the legendary
		liege = d_lesser_poland
		government = tribal_government
	}
	725.1.1 = {
		holder = 82274		#Wanda the legendary
	}
	738.1.1 = {
		holder = 302066
	}
	778.1.1 = {
		holder = 302067
	}
	813.1.1 = {
		holder = 302055
	}
	829.5.13 = {
		holder = 302056
	}
	862.3.26 = {
		holder = 302058
		liege = 0
	}
	#914.9.15 = {
	#	holder = 0
	#}
	935.1.1 = {
		government = feudal_government	#Ahistorical, just for ease of bookmarks.
	}
	
	###Kazimierz I's succession
	1058.11.28 = {
		holder = 762	#Boleslaw II the Bold
		liege = d_lesser_poland
	}
	1079.5.1 = {
		holder = 764	#Wladyslaw I Herman
	}
	1102.6.4 = {
		holder = 170108	#Zbigniew
	}
	1107.4.1 = {
		holder = 221515	#Boleslaw III Wrymouth
	}
}


c_sacz = {
	###Proto-Polish tribes
	#Krakus and the Lechitic tribes
	376.1.1 = {
		holder = 990073
		liege = d_scirii
	}
	376.1.2 = {
		holder = 0
		liege = none
	}
	700.1.1 = {
		holder = 82273		#Krakus I the legendary
		liege = d_lesser_poland
		government = tribal_government
	}
	725.1.1 = {
		holder = 82274		#Wanda the legendary
	}
	738.1.1 = {
		holder = 302066
	}
	778.1.1 = {
		holder = 302067
	}
	813.1.1 = {
		holder = 302055
	}
	750.1.1 = {
		holder = 194089
		liege = d_lesser_poland
	}
	799.1.1 = {
		holder = 194090
	}
	822.1.1={
		holder = 82258
	}
	860.1.1={
		holder = 82262
	}
	902.1.1={
		liege="d_bohemia"
	}
	922.1.1={
		holder = 82263
	}
	935.1.1 = {
		government = feudal_government	#Ahistorical, just for ease of bookmarks.
	}
	977.1.2={
		holder = 82264
	}
	999.7.1={
		liege="k_poland"
	}
	1033.1.1={
		holder = 82265
	}
	1061.1.1={
		government = theocracy_government
		holder=96098
	}
	1071.8.22={
		holder=20388
	}
	1079.5.11={
		holder=96099
	}
	1101.1.1={
		holder=96100
	}
	1103.1.1={
		holder=96101
	}
	1109.1.1={
		holder=96102
	}
	1118.3.5={
		holder=96103
	}
	1142.1.19={
		holder=96104
	}
	1143.5.11={
		holder=96105
	}
	1166.10.18={
		holder=96106
	}
	1185.1.1={
		holder=96107
	}
	1207.9.11={
		holder=96108
	}
	1223.3.8={
		holder=96109
	}
	1229.7.21={
		holder=96110
	}
	1242.3.15={
		holder=96111
	}
	1266.9.20={
		holder=96112
	}
	1292.1.1={
		holder=96113
	}
	1294.1.1={
		holder=96114
	}
	1320.2.7={
		holder=96115
	}
	1326.1.1={
		holder=96116
	}
	829.5.13 = {
		holder = 302056
	}
	862.3.26 = {
		holder = 302058
		liege = k_moravia
	}
	#914.9.15 = {
	#	holder = 0
	#}
	
	###Kazimierz I's succession
	1058.11.28 = {
		holder = 762	#Boleslaw II the Bold
		liege = d_lesser_poland
	}
	1079.5.1 = {
		holder = 764	#Wladyslaw I Herman
	}
	1102.6.4 = {
		holder = 170108	#Zbigniew
	}
	1107.4.1 = {
		holder = 221515	#Boleslaw III Wrymouth
	}
}


c_sandomierska = {
	376.1.1 = {
		holder = 990073
		liege = d_scirii
	}
	376.1.2 = {
		holder = 0
		liege = none
	}
	867.1.1 = { change_development_level = 3 }
	1066.1.1 = { change_development_level = 10 }
	
	###Proto-Polish tribes
	#Krakus and the Lechitic tribes
	700.1.1 = {
		holder = 82273		#Krakus I the legendary
		liege = d_lesser_poland
		government = tribal_government
	}
	725.1.1 = {
		holder = 82274		#Wanda the legendary
	}
	738.1.1 = {
		holder = 302066
	}
	778.1.1 = {
		holder = 302067
	}
	813.1.1 = {
		holder = 302055
	}
	829.5.13 = {
		holder = 302057
	}
	865.9.17 = {
		holder = 302060
	}
	#914.9.15 = {
	#	holder = 0
	#}
	935.1.1 = {
		government = feudal_government	#Ahistorical, just for ease of bookmarks.
	}
	
	###Kazimierz I's succession
	1058.11.28 = {
		holder = 762	#Boleslaw II the Bold
	}
	1066.1.1 = {
		holder = 82321
	}
	1079.5.1 = {
		holder = 764	#Wladyslaw I Herman
	}
	
	
	1102.6.4 = {
		holder = 170108	#Zbigniew
	}
	1107.4.1 = {
		holder = 221515	#Boleslaw III Wrymouth
	}
	1138.10.28 = {
		liege = "k_poland"
	}
	1138.10.28 = {
		holder = 221510
	}
	1166.10.18 = {
		holder = 125973
	}
	1173.4.3 = {
		holder = 221520
	}
	1194.5.5 = {
		holder = 221524
	}
	1227.11.23 = {
		holder = 221525
	}
	1229.1.1 = {
		holder = 125983 #Boleslaw I
	}
	1232.1.1 = {
		holder = 125982 #Boleslaw V the Chaste
	}
	1279.12.7 = {
		holder = 125984
	}
	1288.9.30 = {
		holder = 471510
	}

}


c_stezycka = {
	###Proto-Polish tribes
	500.1.1 = {
		liege = 0
		government = tribal_government
	}
	867.1.1 = {
		holder = 302062
	}
	#899.11.16 = {
	#	holder = 0
	#}
	935.1.1 = {
		government = feudal_government	#Ahistorical, just for ease of bookmarks.
	}
	
	###After Kazimierz I's death
	1058.11.28 = {
		holder = 302044		#Marian Kurowie, semi-fictional
		liege = k_poland
	}
	1100.12.30 = {
		holder = 302045		#Stanislaw Kurowie, semi-fictional
	}
	1129.5.19 = {
		holder = 302046		#Henryk Kurowie, semi-fictional
	}
	1169.11.13 = {
		holder = 302047		#Piotr Kurowie, semi-fictional
	}
	1188.7.17 = {
		holder = 302048		#Konrad Kurowie, semi-fictional
	}
}


c_radomska = {
	###Proto-Polish tribes
	#Krakus and the Lechitic tribes
	700.1.1 = {
		holder = 82273		#Krakus I the legendary
		liege = d_lesser_poland
		government = tribal_government
	}
	725.1.1 = {
		holder = 82274		#Wanda the legendary
	}
	738.1.1 = {
		holder = 302066
	}
	778.1.1 = {
		holder = 302067
	}
	813.1.1 = {
		holder = 302055
	}
	829.5.13 = {
		holder = 302057
	}
	865.9.17 = {
		holder = 302060
	}
	#914.9.15 = {
	#	holder = 0
	#}
	935.1.1 = {
		government = feudal_government	#Ahistorical, just for ease of bookmarks.
	}
	
	###Kazimierz I's succession
	1058.11.28 = {
		holder = 762	#Boleslaw II the Bold
		liege = k_poland
	}
	1066.1.1 = {
		holder = 82321
	}
	1079.5.1 = {
		holder = 764	#Wladyslaw I Herman
	}
	1102.6.4 = {
		holder = 170108	#Zbigniew
	}
	1107.4.1 = {
		holder = 221515	#Boleslaw III Wrymouth
	}
}


c_lubelska = {
	867.1.1 = { change_development_level = 2 }
	1066.1.1 = { change_development_level = 9 }
	
	###Proto-Polish tribes
	#Krakus and the Lechitic tribes
	700.1.1 = {
		holder = 82273		#Krakus I the legendary
		liege = d_lesser_poland
		government = tribal_government
	}
	725.1.1 = {
		holder = 82274		#Wanda the legendary
	}
	738.1.1 = {
		holder = 302066
	}
	778.1.1 = {
		holder = 302067
	}
	813.1.1 = {
		holder = 302055
	}
	829.5.13 = {
		holder = 302057
	}
	865.9.17 = {
		holder = 302060
	}
	#914.9.15 = {
	#	holder = 0
	#}
	935.1.1 = {
		government = feudal_government	#Ahistorical, just for ease of bookmarks.
	}
	
	###After Kazimierz I's death
	1058.11.28 = {
		holder = 302044		#Marian Kurowie, semi-fictional
		liege = k_poland
	}
	1100.12.30 = {
		holder = 302045		#Stanislaw Kurowie, semi-fictional
	}
	1129.5.19 = {
		holder = 302046		#Henryk Kurowie, semi-fictional
	}
	1169.11.13 = {
		holder = 302047		#Piotr Kurowie, semi-fictional
	}
	1188.7.17 = {
		holder = 302048		#Konrad Kurowie, semi-fictional
	}
}


c_tarnowska = {
	376.1.1 = {
		holder = 990073
		liege = d_scirii
	}
	376.1.2 = {
		holder = 0
		liege = none
	}
	###Proto-Polish tribes
	500.1.1 = {
		liege = 0
		government = tribal_government
	}
	867.1.1 = {
		holder = 302061
	}
	#892.3.14 = {
	#	holder = 0
	#}
	935.1.1 = {
		government = feudal_government	#Ahistorical, just for ease of bookmarks.
	}
	1066.1.1 = {
		holder = 96098
	}
	1079.5.1 = {
		holder = 764	#Wladyslaw I Herman
	}
	1102.6.4 = {
		holder = 170108	#Zbigniew
	}
	1107.4.1 = {
		holder = 221515	#Boleslaw III Wrymouth
	}
}


d_wielkopolska = {
	867.1.1 = { change_development_level = 3 }
	1066.1.1 = { change_development_level = 8 }
	
	###Piasts
	800.1.1 = {
		holder = 82233	#Piast
		liege = 0
		government = tribal_government
	}
	861.1.1 = {
		holder = 82235	#Siemowit
	}
	880.1.1 = {
		holder = 82236	#Lestek
	}
	930.1.1 = {
		holder = 752	#Siemomysl
	}
	935.1.1 = {
		government = feudal_government	#Ahistorical, just for ease of bookmarks.
	}
	960.1.2 = {
		holder = 754	#Mieszko I of Poland
	}
	992.5.25 = {
		holder = 756	#Boleslaw I the Brave
	}
	
	1025.4.18 = {
		liege = k_poland
		effect = { set_title_name = d_greater_poland }
	}
	
	1025.6.17 = {
		holder = 758	#Mieszko II Lambert
	}
	1031.4.1 = {
		holder = 766	#Bezprym
	}
	1032.7.10 = {
		holder = 758	#Mieszko II Lambert (restored)
	}
	
	###After Polish capital is moved to Krakow
	1034.5.11 = {
		holder = 0
		liege = 0
	}
}


c_poznanska = {
	867.1.1 = { change_development_level = 2 }
	1066.1.1 = { change_development_level = 9 }
	
	###Piasts
	800.1.1 = {
		holder = 82233	#Piast
		liege = d_wielkopolska
		government = tribal_government
	}
	861.1.1 = {
		holder = 82235	#Siemowit
	}
	880.1.1 = {
		holder = 82236	#Lestek
	}
	930.1.1 = {
		holder = 752	#Siemomysl
	}
	935.1.1 = {
		government = feudal_government	#Ahistorical, just for ease of bookmarks.
	}
	960.1.2 = {
		holder = 754	#Mieszko I of Poland
	}
	992.5.25 = {
		holder = 756	#Boleslaw I the Brave
	}
	
	1025.4.18 = {
		liege = k_poland
	}
	
	1025.6.17 = {
		holder = 758	#Mieszko II Lambert
	}
	1031.4.1 = {
		holder = 766	#Bezprym
	}
	1032.7.10 = {
		holder = 758	#Mieszko II Lambert (restored)
	}
	
	###After Polish capital is moved to Krakow
	1034.5.11 = {
		holder = 302016	#Pawel Ciolek, mostly fictional
		liege = k_poland
	}
	1063.4.9 = {
		holder = 302017	#Jan Ciolek, mostly fictional
	}
	1103.11.18 = {
		holder = 302019	#Pawel Ciolek, mostly fictional
	}
	1127.3.12 = {
		holder = 302021	#Jaroslaw Ciolek, mostly fictional
	}
	1165.2.22 = {
		holder = 302022	#Jan Ciolek, mostly fictional
	}
	1185.12.21 = {
		holder = 302025 #Jaroslaw Ciolek, mostly ficitonal
	}

}


c_gnieznienska = {
	867.1.1 = { change_development_level = 3 }
	1066.1.1 = { change_development_level = 9 }
	
	###Piasts
	800.1.1 = {
		holder = 82233	#Piast
		liege = d_wielkopolska
		government = tribal_government
	}
	861.1.1 = {
		holder = 82235	#Siemowit
	}
	880.1.1 = {
		holder = 82236	#Lestek
	}
	930.1.1 = {
		holder = 752	#Siemomysl
	}
	935.1.1 = {
		government = feudal_government	#Ahistorical, just for ease of bookmarks.
	}
	960.1.2 = {
		holder = 754	#Mieszko I of Poland
	}
	992.5.25 = {
		holder = 756	#Boleslaw I the Brave
	}
	
	###Archbishops of Gniezno
	999.1.1 = {
		holder = 302011	#Radzim Gaudenty
	}
	1022.1.2 = {
		holder = 96071	#Hipolit
	}
	
	1025.4.18 = {
		liege = k_poland
	}
	
	1027.1.1 = {
		holder = 302012	#Bossuta Stefan
	}
	1028.3.7 = {
		holder = 302013	#Fictional
	}
	1075.1.2 = {
		holder = 20393	#Bogumil
	}
	1092.1.1 = {
		holder = 96075	#Marcin
	}
	1112.1.1 = {
		holder = 302014	#Heinrich
	}
	1124.1.1 = {
		holder = 96076	#Jakub
	}
	1148.9.23 = {
		holder = 96077	#Janislaw
	}
	1168.3.11 = {
		holder = 302015	#Zdzislaw
	}
}


c_kaliska = {
	###Piasts
	800.1.1 = {
		holder = 82233	#Piast
		liege = d_wielkopolska
		government = tribal_government
	}
	861.1.1 = {
		holder = 82235	#Siemowit
	}
	880.1.1 = {
		holder = 82236	#Lestek
	}
	930.1.1 = {
		holder = 752	#Siemomysl
	}
	935.1.1 = {
		government = feudal_government	#Ahistorical, just for ease of bookmarks.
	}
	960.1.2 = {
		holder = 754	#Mieszko I of Poland
	}
	992.5.25 = {
		holder = 756	#Boleslaw I the Brave
	}
	
	1025.4.18 = {
		liege = k_poland
	}
	
	1025.6.17 = {
		holder = 758	#Mieszko II Lambert
	}
	1031.4.1 = {
		holder = 766	#Bezprym
	}
	1032.7.10 = {
		holder = 758	#Mieszko II Lambert (restored)
	}
	
	###After Polish capital is moved to Krakow
	1034.5.11 = {
		holder = 302016	#Pawel Ciolek, mostly fictional
		liege = k_poland
	}
	1063.4.9 = {
		holder = 302017	#Jan Ciolek, mostly fictional
	}
	1103.11.18 = {
		holder = 302019	#Pawel Ciolek, mostly fictional
	}
	1127.3.12 = {
		holder = 302021	#Jaroslaw Ciolek, mostly fictional
	}
	1165.2.22 = {
		holder = 302022	#Jan Ciolek, mostly fictional
	}
	1185.12.21 = {
		holder = 302025 #Jaroslaw Ciolek, mostly ficitonal
	}

}


c_wschowska = {
	###Piasts
	800.1.1 = {
		holder = 82233	#Piast
		liege = d_wielkopolska
		government = tribal_government
	}
	861.1.1 = {
		holder = 82235	#Siemowit
	}
	880.1.1 = {
		holder = 82236	#Lestek
	}
	930.1.1 = {
		holder = 752	#Siemomysl
	}
	935.1.1 = {
		government = feudal_government	#Ahistorical, just for ease of bookmarks.
	}
	960.1.2 = {
		holder = 754	#Mieszko I of Poland
	}
	992.5.25 = {
		holder = 756	#Boleslaw I the Brave
	}
	
	1025.4.18 = {
		liege = k_poland
	}
	
	1025.6.17 = {
		holder = 758	#Mieszko II Lambert
	}
	1031.4.1 = {
		holder = 766	#Bezprym
	}
	1032.7.10 = {
		holder = 758	#Mieszko II Lambert (restored)
	}
	
	###After Polish capital is moved to Krakow
	1034.5.11 = {
		holder = 302016	#Pawel Ciolek, mostly fictional
		liege = k_poland
	}
	1063.4.9 = {
		holder = 302017	#Jan Ciolek, mostly fictional
	}
	1103.11.18 = {
		holder = 302019	#Pawel Ciolek, mostly fictional
	}
	1127.3.12 = {
		holder = 302021	#Jaroslaw Ciolek, mostly fictional
	}
	1165.2.22 = {
		holder = 302022	#Jan Ciolek, mostly fictional
	}
	1185.12.21 = {
		holder = 302025 #Jaroslaw Ciolek, mostly ficitonal
	}

}


c_krajna = {
	###Proto-Polish tribes
	500.1.1 = {
		liege = 0
		government = tribal_government
	}
	860.1.1 = {
		holder = 302068
	}
	935.1.1 = {
		government = feudal_government	#Ahistorical, just for ease of bookmarks.
	}
	
	###Znin included in Gniezno's sphere of influence
	1030.1.1 = {
		holder = 302013	#Fictional
		liege = k_poland
	}
	1075.1.2 = {
		holder = 20393	#Bogumil
	}
	1092.1.1 = {
		holder = 96075	#Marcin
	}
	1112.1.1 = {
		holder = 302014	#Heinrich
	}
	1124.1.1 = {
		holder = 96076	#Jakub
	}
	1148.9.23 = {
		holder = 96077	#Janislaw
	}
	1168.3.11 = {
		holder = 302015	#Zdzislaw
	}
}


c_lubusz = {
	###867 Polanian tribes
	500.1.1 = {
		liege = 0
		
		government = tribal_government
	}
	860.1.1 = {
		holder = 302074		#fictional Jaromir Lusici
	}
	935.1.1 = {
		government = feudal_government	#Ahistorical, just for ease of bookmarks.
	}
	
	###Conquered by Poland
	960.1.2 = {
		holder = 754	#Mieszko I of Poland
		liege = d_wielkopolska
	}
	992.5.25 = {
		holder = 756	#Boleslaw I the Brave
	}
	
	1025.4.18 = {
		liege = k_poland
	}
	
	1025.6.17 = {
		holder = 758	#Mieszko II Lambert
	}
	1031.4.1 = {
		holder = 766	#Bezprym
	}
	1032.7.10 = {
		holder = 758	#Mieszko II Lambert (restored)
	}
	
	###After Polish capital is moved to Krakow
	1034.5.11 = {
		holder = 302051		#Dobieslaw Licicawski, fictional
		liege = k_poland
	}
	1064.9.12 = {
		holder = 302052		#Gaudenty Licicawski, fictional
	}
	1099.4.25 = {
		holder = 302054		#Jakub Licicawski, fictional
	}
	
	###Part of the Duchy of Silesia
	1138.1.1 = {
		holder = 96094
		liege = d_upper_silesia
	}
	1153.4.16 = {
		holder = 96096
	}
	1163.1.1 = {
		holder = 221530
	}
	1201.12.7 = {
		holder = 221537
	}
	1238.3.19 = {
		holder = 125905
	}
	1241.4.9 = {
		holder = 471734
	}
	1248.1.1 = {
		holder = 471652
	}
	
	###Switched from Poland to Margraviate of Brandenburg
	#1249.1.1 =
	#{
	#	holder = 0
	#	liege = 0
	#}
}


d_mazovia = {
	867.1.1 = { change_development_level = 2 }
	1066.1.1 = { change_development_level = 6 }
	
	500.1.1 = {
		holder = 0
		liege = 0
	}
}


c_plocka = {
	###Proto-Polish tribes
	500.1.1 = {
		liege = 0
		government = tribal_government
	}
	849.6.6 = {
		holder = 302063
	}
	#901.12.12 = {
	#	holder = 0
	#}
	935.1.1 = {
		government = feudal_government	#Ahistorical, just for ease of bookmarks.
	}
	
	###After Kazimierz I's death
	1058.11.28 = {
		holder = 302026		#Zygmunt Ossowski, semi-fictional
		liege = k_poland
	}
	1101.2.9 = {
		holder = 302027		#Marcin Ossowski, semi-fictional
	}
	1123.4.3 = {
		holder = 302030		#Zygmunt Ossowski, semi-fictional
	}
	1141.4.22 = {
		holder = 302031		#Andrzej Ossowski, semi-fictional
	}
	1186.7.27 = {
		holder = 302033		#Mateusz Ossowski, semi-fictional
	}
}


c_czerska = {
	376.1.1 = {
	}
	376.1.2 = {
		holder = 0
		liege = none
	}
	###Proto-Polish tribes
	500.1.1 = {
		liege = 0
		government = tribal_government
	}
	867.1.1 = {
		holder = 302062
	}
	#899.11.16 = {
	#	holder = 0
	#}
	935.1.1 = {
		government = feudal_government	#Ahistorical, just for ease of bookmarks.
	}
	
	###After Kazimierz I's death
	1058.11.28 = {
		holder = 302036		#Waclaw Lis, semi-fictional
		liege = k_poland
	}
	1092.4.26 = {
		holder = 302037		#Wincenty Lis, semi-fictional
	}
	1121.9.30 = {
		holder = 302039		#Waclaw Lis, semi-fictional
	}
	1166.11.13 = {
		holder = 302040		#Bogumil Lis, semi-fictional
	}

}


c_gostyninska = {
	376.1.1 = {
	}
	376.1.2 = {
		holder = 0
		liege = none
	}
	###Proto-Polish tribes
	500.1.1 = {
		liege = 0
		government = tribal_government
	}
	867.1.1 = {
		holder = 302062
	}
	#899.11.16 = {
	#	holder = 0
	#}
	935.1.1 = {
		government = feudal_government	#Ahistorical, just for ease of bookmarks.
	}
	
	###After Kazimierz I's death
	1058.11.28 = {
		holder = 302036		#Waclaw Lis, semi-fictional
		liege = k_poland
	}
	1092.4.26 = {
		holder = 302037		#Wincenty Lis, semi-fictional
	}
	1121.9.30 = {
		holder = 302039		#Waclaw Lis, semi-fictional
	}
	1166.11.13 = {
		holder = 302040		#Bogumil Lis, semi-fictional
	}

}


c_lomzynska = {
	376.1.1 = {
	}
	376.1.2 = {
		holder = 0
		liege = none
	}
	###Proto-Polish tribes
	500.1.1 = {
		liege = 0
		government = tribal_government
	}
	849.6.6 = {
		holder = 302063
	}
	#901.12.12 = {
	#	holder = 0
	#}
	935.1.1 = {
		government = feudal_government	#Ahistorical, just for ease of bookmarks.
	}
	
	###After Kazimierz I's death
	1058.11.28 = {
		holder = 302026		#Zygmunt Ossowski, semi-fictional
		liege = k_poland
	}
	1101.2.9 = {
		holder = 302027		#Marcin Ossowski, semi-fictional
	}
	1123.4.3 = {
		holder = 302030		#Zygmunt Ossowski, semi-fictional
	}
	1141.4.22 = {
		holder = 302031		#Andrzej Ossowski, semi-fictional
	}
	1186.7.27 = {
		holder = 302033		#Mateusz Ossowski, semi-fictional
	}
}


c_zakroczymska = {
	376.1.1 = {
	}
	376.1.2 = {
		holder = 0
		liege = none
	}
	###Proto-Polish tribes
	500.1.1 = {
		liege = 0
		government = tribal_government
	}
	849.6.6 = {
		holder = 302063
	}
	#901.12.12 = {
	#	holder = 0
	#}
	935.1.1 = {
		government = feudal_government	#Ahistorical, just for ease of bookmarks.
	}
	
	###After Kazimierz I's death
	1058.11.28 = {
		holder = 302026		#Zygmunt Ossowski, semi-fictional
		liege = k_poland
	}
	1101.2.9 = {
		holder = 302027		#Marcin Ossowski, semi-fictional
	}
	1123.4.3 = {
		holder = 302030		#Zygmunt Ossowski, semi-fictional
	}
	1141.4.22 = {
		holder = 302031		#Andrzej Ossowski, semi-fictional
	}
	1186.7.27 = {
		holder = 302033		#Mateusz Ossowski, semi-fictional
	}
}


d_upper_silesia = {
	867.1.1 = { change_development_level = 3 }
	1066.1.1 = { change_development_level = 8 }
	
	750.1.1 = {
		holder = 194084
	}
	799.1.1 = {
		holder = 194085
	}
	822.1.1 = {
		holder = 82291
	}
	859.1.1 = {
		holder = 82304
	}
	867.1.1 = {
		liege = k_moravia
	}
	880.1.1 = {
		holder = 82307
	}
	900.1.1 = {
		holder = 82308
	}
	920.1.1 = {
		holder = 82309
	}
	960.1.1 = {
		holder = 82310
	}
	990.1.1 = {
		holder = 82311
		liege = k_poland
		effect = { set_title_name = c_upper_silesia }
	}
	1036.1.1 = {
		holder = 82312
	}
	1058.11.28 = {
		holder = 96093
	}
	1116.1.1 = {
		holder = 96094
	}
	1153.4.16 = {
		holder = 96096
	}
	1163.1.1 = {
		holder = 221530
	}
	1201.12.7 = {
		holder = 221537
	}
	1238.3.19 = {
		holder = 125905
	}
	1241.4.9 = {
		holder = 471734
	}
	1248.1.1 = {
		holder = 471652
	}
	1266.12.3 = {
		holder = 125909
	}
	1290.6.24 = {
		holder = 471732
	}
	1296.2.22 = {
		holder = 471730
	}
	1311.1.1 = {
		holder = 125931
	}
	1335.11.24 = {
		holder = 471730
	}

}

c_opole = {
	376.1.1 = {
		holder = 990052
		liege = d_hasdingi
	}
	376.1.2 = {
		holder = 0
		liege = none
	}
	750.1.1 = {
		holder = 194084
		liege = d_upper_silesia
		government = tribal_government
	}
	799.1.1 = {
		holder = 194085
	}
	830.1.1 = {
		liege = "k_moravia"
	}
	830.1.1 = {
		holder = 82313
	}
	859.1.1 = {
		holder = 82304
	}
	902.1.1 = {
		holder = 82315
	}
	907.7.4 = {
		liege = "d_bohemia"
	}
	932.1.1 = {
		holder = 82316
	}
	935.1.1 = {
		government = feudal_government	#Ahistorical, just for ease of bookmarks.
	}
	942.1.1 = {
		holder = 82317
	}
	970.1.1 = {
		holder = 82318
	}
	985.1.1 = {
		liege = "k_poland"
	}
	1000.1.1 = {
		holder = 82319
	}
	1020.1.1 = {
		holder = 82320
	}
	1050.1.1 = {
		holder = 82321
	}
	1058.11.28 = {
		holder = 762
	}
	1066.1.1 = {
		holder = 20395
	}
	1079.1.1 = {
		holder = 764
	}
	1102.6.4 = {
		holder = 221515
	}
	1138.10.28 = {
		holder = 221531
	}
	1146.5.1 = {
		holder = 125973
	}
	1163.1.1 = {
		holder = 221530
	}
	1173.1.1 = {
		holder = 221532
	}
	1201.3.22 = {
		holder = 221530
	}
	1201.12.7 = {
		holder = 221537
	}
	1202.1.1 = {
		holder = 221550
	}
	1211.5.16 = {
		holder = 221555
	}
	1230.5.13 = {
		holder = 125944
	}
	1246.10.22 = {
		holder = 471724
	}
	1282.8.27 = {
		holder = 471722
	}
	1313.5.14 = {
		holder = 471720
	}

}


c_brzeg = {
	376.1.1 = {
		holder = 990052
		liege = d_hasdingi
	}
	376.1.2 = {
		holder = 0
		liege = none
	}
	750.1.1 = {
		holder = 194084
		liege = d_upper_silesia
		government = tribal_government
	}
	799.1.1 = {
		holder = 194085
	}
	830.1.1 = {
		liege = "k_moravia"
	}
	830.1.1 = {
		holder = 82313
	}
	902.1.1 = {
		holder = 82315
	}
	907.7.4 = {
		liege = "d_bohemia"
	}
	932.1.1 = {
		holder = 82316
	}
	935.1.1 = {
		government = feudal_government	#Ahistorical, just for ease of bookmarks.
	}
	942.1.1 = {
		holder = 82317
	}
	970.1.1 = {
		holder = 82318
	}
	985.1.1 = {
		liege = "k_poland"
	}
	1000.1.1 = {
		holder = 82319
	}
	1020.1.1 = {
		holder = 82320
	}
	1050.1.1 = {
		holder = 82321
	}
	1058.11.28 = {
		holder = 762
	}
	1066.1.1 = {
		holder = 20396
	}
	1079.1.1 = {
		holder = 764
	}
	1102.6.4 = {
		holder = 221515
	}
	1138.10.28 = {
		holder = 221531
	}
	1146.5.1 = {
		holder = 125973
	}
	1163.1.1 = {
		holder = 221530
	}
	1173.1.1 = {
		holder = 221532
	}
	1201.3.22 = {
		holder = 221530
	}
	1201.12.7 = {
		holder = 221537
	}
	1202.1.1 = {
		holder = 221550
	}
	1211.5.16 = {
		holder = 221555
	}
	1230.5.13 = {
		holder = 125944
	}
	1246.10.22 = {
		holder = 471724
	}
	1282.8.27 = {
		holder = 471722
	}
	1313.5.14 = {
		holder = 471720
	}

}


c_nysa = {
	376.1.1 = {
		holder = 990052
		liege = d_hasdingi
	}
	376.1.2 = {
		holder = 0
		liege = none
	}
	750.1.1 = {
		holder = 194084
		liege = d_upper_silesia
		government = tribal_government
	}
	799.1.1 = {
		holder = 194085
	}
	830.1.1 = {
		liege = "k_moravia"
	}
	830.1.1 = {
		holder = 82313
	}
	902.1.1 = {
		holder = 82315
	}
	907.7.4 = {
		liege = "d_bohemia"
	}
	932.1.1 = {
		holder = 82316
	}
	935.1.1 = {
		government = feudal_government	#Ahistorical, just for ease of bookmarks.
	}
	942.1.1 = {
		holder = 82317
	}
	970.1.1 = {
		holder = 82318
	}
	985.1.1 = {
		liege = "k_poland"
	}
	1000.1.1 = {
		holder = 82319
	}
	1020.1.1 = {
		holder = 82320
	}
	1050.1.1 = {
		holder = 82321
	}
	1058.11.28 = {
		holder = 762
	}
	1066.1.1 = {
		holder = 20396
	}
	1079.1.1 = {
		holder = 764
	}
	1102.6.4 = {
		holder = 221515
	}
	1138.10.28 = {
		holder = 221531
	}
	1146.5.1 = {
		holder = 125973
	}
	1163.1.1 = {
		holder = 221530
	}
	1173.1.1 = {
		holder = 221532
	}
	1201.3.22 = {
		holder = 221530
	}
	1201.12.7 = {
		holder = 221537
	}
	1202.1.1 = {
		holder = 221550
	}
	1211.5.16 = {
		holder = 221555
	}
	1230.5.13 = {
		holder = 125944
	}
	1246.10.22 = {
		holder = 471724
	}
	1282.8.27 = {
		holder = 471722
	}
	1313.5.14 = {
		holder = 471720
	}

}


c_cieszyn = {
	376.1.1 = {
		holder = 990052
		liege = d_hasdingi
	}
	376.1.2 = {
		holder = 0
		liege = none
	}
	750.1.1 = {
		holder = 194084
		liege = d_upper_silesia
		government = tribal_government
	}
	799.1.1 = {
		holder = 194085
	}
	830.1.1 = {
		liege = "k_moravia"
	}
	830.1.1 = {
		holder = 82313
	}
	859.1.1 = {
		holder = 82304
	}
	902.1.1 = {
		holder = 82315
	}
	907.7.4 = {
		liege = "d_bohemia"
	}
	932.1.1 = {
		holder = 82316
	}
	935.1.1 = {
		government = feudal_government	#Ahistorical, just for ease of bookmarks.
	}
	942.1.1 = {
		holder = 82317
	}
	970.1.1 = {
		holder = 82318
	}
	985.1.1 = {
		liege = "k_poland"
	}
	1000.1.1 = {
		holder = 82319
	}
	1020.1.1 = {
		holder = 82320
	}
	1050.1.1 = {
		holder = 82321
	}
	1058.11.28 = {
		holder = 762
	}
	1079.1.1 = {
		holder = 764
	}
	1102.6.4 = {
		holder = 221515
	}
	1138.10.28 = {
		holder = 221531
	}
	1146.5.1 = {
		holder = 125973
	}
	1163.1.1 = {
		holder = 221530
	}
	1173.1.1 = {
		holder = 221532
	}
	1201.3.22 = {
		holder = 221530
	}
	1201.12.7 = {
		holder = 221537
	}
	1202.1.1 = {
		holder = 221550
	}
	1211.5.16 = {
		holder = 221555
	}
	1230.5.13 = {
		holder = 125944
	}
	1246.10.22 = {
		holder = 471724
	}
	1282.8.27 = {
		holder = 471722
	}
	1313.5.14 = {
		holder = 471720
	}

}


c_ratibor = {
	376.1.1 = {
		holder = 990052
		liege = d_hasdingi
	}
	376.1.2 = {
		holder = 0
		liege = none
	}
	750.1.1 = {
		holder = 194084
		liege = d_upper_silesia
		government = tribal_government
	}
	799.1.1 = {
		holder = 194085
	}
	830.1.1 = {
		liege = "k_moravia"
	}
	830.1.1 = {
		holder = 82313
	}
	859.1.1 = {
		holder = 82304
	}
	902.1.1 = {
		holder = 82315
	}
	907.7.4 = {
		liege = "d_bohemia"
	}
	932.1.1 = {
		holder = 82316
	}
	935.1.1 = {
		government = feudal_government	#Ahistorical, just for ease of bookmarks.
	}
	942.1.1 = {
		holder = 82317
	}
	970.1.1 = {
		holder = 82318
	}
	985.1.1 = {
		liege = "k_poland"
	}
	1000.1.1 = {
		holder = 82319
	}
	1020.1.1 = {
		holder = 82320
	}
	1050.1.1 = {
		holder = 82321
	}
	1058.11.28 = {
		holder = 762
	}
	1079.1.1 = {
		holder = 764
	}
	1102.6.4 = {
		holder = 221515
	}
	1138.10.28 = {
		holder = 221531
	}
	1146.5.1 = {
		holder = 125973
	}
	1163.1.1 = {
		holder = 221530
	}
	1173.1.1 = {
		holder = 221532
	}
	1201.3.22 = {
		holder = 221530
	}
	1201.12.7 = {
		holder = 221537
	}
	1202.1.1 = {
		holder = 221550
	}
	1211.5.16 = {
		holder = 221555
	}
	1230.5.13 = {
		holder = 125944
	}
	1246.10.22 = {
		holder = 471724
	}
	1282.8.27 = {
		holder = 471722
	}
	1313.5.14 = {
		holder = 471720
	}

}


c_bethen = {
	376.1.1 = {
		holder = 990052
		liege = d_hasdingi
	}
	376.1.2 = {
		holder = 0
		liege = none
	}
	750.1.1 = {
		holder = 194084
		liege = d_upper_silesia
		government = tribal_government
	}
	799.1.1 = {
		holder = 194085
	}
	830.1.1 = {
		liege = "k_moravia"
	}
	830.1.1 = {
		holder = 82313
	}
	859.1.1 = {
		holder = 82304
	}
	902.1.1 = {
		holder = 82315
	}
	907.7.4 = {
		liege = "d_bohemia"
	}
	932.1.1 = {
		holder = 82316
	}
	935.1.1 = {
		government = feudal_government	#Ahistorical, just for ease of bookmarks.
	}
	942.1.1 = {
		holder = 82317
	}
	970.1.1 = {
		holder = 82318
	}
	985.1.1 = {
		liege = "k_poland"
	}
	1000.1.1 = {
		holder = 82319
	}
	1020.1.1 = {
		holder = 82320
	}
	1050.1.1 = {
		holder = 82321
	}
	1058.11.28 = {
		holder = 762
	}
	1079.1.1 = {
		holder = 764
	}
	1102.6.4 = {
		holder = 221515
	}
	1138.10.28 = {
		holder = 221531
	}
	1146.5.1 = {
		holder = 125973
	}
	1163.1.1 = {
		holder = 221530
	}
	1173.1.1 = {
		holder = 221532
	}
	1201.3.22 = {
		holder = 221530
	}
	1201.12.7 = {
		holder = 221537
	}
	1202.1.1 = {
		holder = 221550
	}
	1211.5.16 = {
		holder = 221555
	}
	1230.5.13 = {
		holder = 125944
	}
	1246.10.22 = {
		holder = 471724
	}
	1282.8.27 = {
		holder = 471722
	}
	1313.5.14 = {
		holder = 471720
	}

}


d_lower_silesia = {
	867.1.1 = { change_development_level = 3 }
	1066.1.1 = { change_development_level = 8 }
	
	750.1.1 = {
		holder = 194084
		government = tribal_government
	}
	799.1.1 = {
		holder = 194085
	}
	822.1.1 = {
		holder = 82291
	}
	864.1.1 = {
		holder = 82293
	}
	912.1.1 = {
		holder = 82294
	}
	914.1.1 = {
		holder = 82297
	}
	935.1.1 = {
		government = feudal_government	#Ahistorical, just for ease of bookmarks.
	}
	942.1.1 = {
		holder = 82300
	}
	965.1.1 = {
		holder = 82301
	}
	985.1.1 = {
		holder = 82302
	}
	1020.1.1 = {
		holder = 82303
		liege = k_poland
		effect = { set_title_name = c_lower_silesia }
	}
	1060.11.28 = {
		holder = 96093
	}
	1116.1.1 = {
		holder = 96094
	}
	1153.4.16 = {
		holder = 96096
	}
	1163.1.1 = {
		holder = 221530
	}
	1177.1.1 = {
		holder = 125943
	}
	1190.1.1 = {
		holder = 221530
	}
	1201.12.7 = {
		holder = 221537
	}
	1238.3.19 = {
		holder = 125905
	}
	1241.4.9 = {
		holder = 471734
	}
	1248.1.1 = {
		holder = 125910
	}
	1274.8.6 = {
		holder = 125912
	}
	1309.12.3 = {
		holder = 125913
	}

}


c_breslau = {
	376.1.1 = {
		holder = 990052
		liege = d_hasdingi
	}
	376.1.2 = {
		holder = 0
		liege = none
	}
	867.1.1 = { change_development_level = 3 }
	1066.1.1 = { change_development_level = 10 }
	
	750.1.1 = {
		holder = 194084
		government = tribal_government
	}
	799.1.1 = {
		holder = 194085
	}
	822.1.1 = {
		holder = 82291
	}
	864.1.1 = {
		holder = 82293
		liege = d_lower_silesia
	}
	912.1.1 = {
		holder = 82294
	}
	914.1.1 = {
		holder = 82297
	}
	935.1.1 = {
		government = feudal_government	#Ahistorical, just for ease of bookmarks.
	}
	942.1.1 = {
		holder = 82300
	}
	965.1.1 = {
		holder = 82301
	}
	985.1.1 = {
		holder = 82302
	}
	1020.1.1 = {
		holder = 82303
	}
	1060.11.28 = {
		holder = 96093
	}
	1116.1.1 = {
		holder = 96094
	}
	1153.4.16 = {
		holder = 96096
	}
	1163.1.1 = {
		holder = 221530
	}
	1177.1.1 = {
		holder = 125943
	}
	1190.1.1 = {
		holder = 221530
	}
	1201.12.7 = {
		holder = 221537
	}
	1238.3.19 = {
		holder = 125905
	}
	1241.4.9 = {
		holder = 471734
	}
	1248.1.1 = {
		holder = 125910
	}
	1274.8.6 = {
		holder = 125912
	}
	1309.12.3 = {
		holder = 125913
	}

}


c_miliez = {
	376.1.1 = {
		holder = 990052
		liege = d_hasdingi
	}
	376.1.2 = {
		holder = 0
		liege = none
	}
	750.1.1 = {
		holder = 194084
		government = tribal_government
	}
	799.1.1 = {
		holder = 194085
	}
	822.1.1 = {
		holder = 82291
	}
	864.1.1 = {
		holder = 82293
	}
	912.1.1 = {
		holder = 82294
	}
	914.1.1 = {
		holder = 82297
	}
	935.1.1 = {
		government = feudal_government	#Ahistorical, just for ease of bookmarks.
	}
	942.1.1 = {
		holder = 82300
	}
	965.1.1 = {
		holder = 82301
	}
	985.1.1 = {
		holder = 82302
	}
	1020.1.1 = {
		holder = 82303
	}
	1060.11.28 = {
		holder = 96093
	}
	1116.1.1 = {
		holder = 96094
	}
	1153.4.16 = {
		holder = 96096
	}
	1163.1.1 = {
		holder = 221530
	}
	1177.1.1 = {
		holder = 125943
	}
	1190.1.1 = {
		holder = 221530
	}
	1201.12.7 = {
		holder = 221537
	}
	1238.3.19 = {
		holder = 125905
	}
	1241.4.9 = {
		holder = 471734
	}
	1248.1.1 = {
		holder = 125910
	}
	1274.8.6 = {
		holder = 125912
	}
	1309.12.3 = {
		holder = 125913
	}

}


c_schweibus = {
	376.1.1 = {
		holder = 990052
		liege = d_hasdingi
	}
	376.1.2 = {
		holder = 0
		liege = none
	}
	750.1.1 = {
		holder = 194084
		government = tribal_government
	}
	799.1.1 = {
		holder = 194085
	}
	822.1.1 = {
		holder = 82291
	}
	864.1.1 = {
		holder = 82293
	}
	912.1.1 = {
		holder = 82294
	}
	914.1.1 = {
		holder = 82297
	}
	935.1.1 = {
		government = feudal_government	#Ahistorical, just for ease of bookmarks.
	}
	942.1.1 = {
		holder = 82300
	}
	965.1.1 = {
		holder = 82301
	}
	985.1.1 = {
		holder = 82302
	}
	1020.1.1 = {
		holder = 82303
	}
	1060.11.28 = {
		liege = d_lower_silesia
		holder = 302018
	}
	1116.1.1 = {
		holder = 96094
	}
	1153.4.16 = {
		holder = 96096
	}
	1163.1.1 = {
		holder = 221530
	}
	1177.1.1 = {
		holder = 125943
	}
	1190.1.1 = {
		holder = 221530
	}
	1201.12.7 = {
		holder = 221537
	}
	1238.3.19 = {
		holder = 125905
	}
	1241.4.9 = {
		holder = 471734
	}
	1248.1.1 = {
		holder = 125910
	}
	1274.8.6 = {
		holder = 125912
	}
	1309.12.3 = {
		holder = 125913
	}

}


c_grunberg = {
	750.1.1 = {
		holder = 194084
		government = tribal_government
	}
	799.1.1 = {
		holder = 194085
	}
	822.1.1 = {
		holder = 82291
	}
	864.1.1 = {
		holder = 82293
	}
	912.1.1 = {
		holder = 82294
	}
	914.1.1 = {
		holder = 82297
	}
	935.1.1 = {
		government = feudal_government	#Ahistorical, just for ease of bookmarks.
	}
	942.1.1 = {
		holder = 82300
	}
	965.1.1 = {
		holder = 82301
	}
	985.1.1 = {
		holder = 82302
	}
	1020.1.1 = {
		holder = 82303
	}
	1060.11.28 = {
		liege = d_upper_silesia
		holder = 767
	}
	1116.1.1 = {
		holder = 96094
	}
	1153.4.16 = {
		holder = 96096
	}
	1163.1.1 = {
		holder = 221530
	}
	1177.1.1 = {
		holder = 125943
	}
	1190.1.1 = {
		holder = 221530
	}
	1201.12.7 = {
		holder = 221537
	}
	1238.3.19 = {
		holder = 125905
	}
	1241.4.9 = {
		holder = 471734
	}
	1248.1.1 = {
		holder = 125910
	}
	1274.8.6 = {
		holder = 125912
	}
	1309.12.3 = {
		holder = 125913
	}

}


c_sprottau = {
	750.1.1 = {
		holder = 194084
		government = tribal_government
	}
	799.1.1 = {
		holder = 194085
	}
	822.1.1 = {
		holder = 82291
	}
	864.1.1 = {
		holder = 82293
	}
	912.1.1 = {
		holder = 82294
	}
	914.1.1 = {
		holder = 82297
	}
	935.1.1 = {
		government = feudal_government	#Ahistorical, just for ease of bookmarks.
	}
	942.1.1 = {
		holder = 82300
	}
	965.1.1 = {
		holder = 82301
	}
	985.1.1 = {
		holder = 82302
	}
	1020.1.1 = {
		holder = 82303
	}
	1060.11.28 = {
		holder = 767
	}
	1116.1.1 = {
		holder = 96094
	}
	1153.4.16 = {
		holder = 96096
	}
	1163.1.1 = {
		holder = 221530
	}
	1177.1.1 = {
		holder = 125943
	}
	1190.1.1 = {
		holder = 221530
	}
	1201.12.7 = {
		holder = 221537
	}
	1238.3.19 = {
		holder = 125905
	}
	1241.4.9 = {
		holder = 471734
	}
	1248.1.1 = {
		holder = 125910
	}
	1274.8.6 = {
		holder = 125912
	}
	1309.12.3 = {
		holder = 125913
	}

}


c_przemkow = {
	376.1.1 = {
		holder = 990052
		liege = d_hasdingi
	}
	376.1.2 = {
		holder = 0
		liege = none
	}
	750.1.1 = {
		holder = 194084
		government = tribal_government
	}
	799.1.1 = {
		holder = 194085
	}
	822.1.1 = {
		holder = 82291
	}
	864.1.1 = {
		holder = 82293
	}
	912.1.1 = {
		holder = 82294
	}
	914.1.1 = {
		holder = 82297
	}
	935.1.1 = {
		government = feudal_government	#Ahistorical, just for ease of bookmarks.
	}
	942.1.1 = {
		holder = 82300
	}
	965.1.1 = {
		holder = 82301
	}
	985.1.1 = {
		holder = 82302
	}
	1020.1.1 = {
		holder = 82303
	}
	1060.11.28 = {
		liege = d_upper_silesia
		holder = 82312
	}
	1116.1.1 = {
		holder = 96094
	}
	1153.4.16 = {
		holder = 96096
	}
	1163.1.1 = {
		holder = 221530
	}
	1177.1.1 = {
		holder = 125943
	}
	1190.1.1 = {
		holder = 221530
	}
	1201.12.7 = {
		holder = 221537
	}
	1238.3.19 = {
		holder = 125905
	}
	1241.4.9 = {
		holder = 471734
	}
	1248.1.1 = {
		holder = 125910
	}
	1274.8.6 = {
		holder = 125912
	}
	1309.12.3 = {
		holder = 125913
	}

}


c_legnica = {
	376.1.1 = {
		holder = 990052
		liege = d_hasdingi
	}
	376.1.2 = {
		holder = 0
		liege = none
	}
	750.1.1 = {
		holder = 194084
		government = tribal_government
	}
	799.1.1 = {
		holder = 194085
	}
	822.1.1 = {
		holder = 82291
	}
	864.1.1 = {
		holder = 82293
	}
	912.1.1 = {
		holder = 82294
	}
	914.1.1 = {
		holder = 82297
	}
	935.1.1 = {
		government = feudal_government	#Ahistorical, just for ease of bookmarks.
	}
	942.1.1 = {
		holder = 82300
	}
	965.1.1 = {
		holder = 82301
	}
	985.1.1 = {
		holder = 82302
	}
	1020.1.1 = {
		holder = 82303
	}
	1060.11.28 = {
		holder = 96093
	}
	1116.1.1 = {
		holder = 96094
	}
	1153.4.16 = {
		holder = 96096
	}
	1163.1.1 = {
		holder = 221530
	}
	1177.1.1 = {
		holder = 125943
	}
	1190.1.1 = {
		holder = 221530
	}
	1201.12.7 = {
		holder = 221537
	}
	1238.3.19 = {
		holder = 125905
	}
	1241.4.9 = {
		holder = 471734
	}
	1248.1.1 = {
		holder = 125910
	}
	1274.8.6 = {
		holder = 125912
	}
	1309.12.3 = {
		holder = 125913
	}

}


d_kuyavia = {
	###Proto-Polish tribes
	500.1.1 = {
		holder = 0
		liege = 0
	}
	
	###Kazimierz I's succession
	1058.11.28 = {
		holder = 764	#Wladyslaw I Herman
		liege = k_poland
	}
	1102.6.4 = {
		holder = 170108	#Zbigniew
	}
	
	1107.4.1 = {
		holder = 221515	#Boleslaw III Wrymouth
	}
}


c_kujawy = {
	376.1.1 = {
	}
	376.1.2 = {
		holder = 0
		liege = none
	}
	867.1.1 = { change_development_level = 2 }
	1066.1.1 = { change_development_level = 9 }
	
	###Proto-Polish tribes
	500.1.1 = {
		liege = 0
		government = tribal_government
	}
	867.1.1 = {
		holder = 302064
	}
	#888.12.26 = {
	#	holder = 0
	#}
	935.1.1 = {
		government = feudal_government	#Ahistorical, just for ease of bookmarks.
	}
	
	###Kazimierz I's succession
	1058.11.28 = {
		holder = 764	#Wladyslaw I Herman
		liege = d_kuyavia
	}
	1102.6.4 = {
		holder = 170108	#Zbigniew
	}
	
	1107.4.1 = {
		holder = 221515	#Boleslaw III Wrymouth
	}
}


c_dobrzynska = {
	376.1.1 = {
	}
	376.1.2 = {
		holder = 0
		liege = none
	}
	###Proto-Polish tribes
	500.1.1 = {
		liege = 0
		government = tribal_government
	}
	867.1.1 = {
		holder = 302064
	}
	#888.12.26 = {
	#	holder = 0
	#}
	935.1.1 = {
		government = feudal_government	#Ahistorical, just for ease of bookmarks.
	}
	
	###Kazimierz I's succession
	1058.11.28 = {
		holder = 302004	#Mieszko, Boleslaw & Wladyslaw's brother
		liege = k_poland
	}
	1065.1.28 = {
		holder = 764	#Wladyslaw I Herman
		liege = d_kuyavia
	}
	1102.6.4 = {
		holder = 170108	#Zbigniew
	}
	
	1107.4.1 = {
		holder = 221515	#Boleslaw III Wrymouth
	}
}


c_leczycka = {
	376.1.1 = {
	}
	376.1.2 = {
		holder = 0
		liege = none
	}
	###Proto-Polish tribes
	500.1.1 = {
		liege = 0
		government = tribal_government
	}
	867.1.1 = {
		holder = 302065
	}
	#912.8.23 = {
	#	holder = 0
	#}
	935.1.1 = {
		government = feudal_government	#Ahistorical, just for ease of bookmarks.
	}
	
	###Kazimierz I's succession
	1058.11.28 = {
		holder = 764	#Wladyslaw I Herman
		liege = d_kuyavia
	}
	1102.6.4 = {
		holder = 170108	#Zbigniew
	}
	
	1107.4.1 = {
		holder = 221515	#Boleslaw III Wrymouth
	}
}


c_sieradzka = {
	###Proto-Polish tribes
	500.1.1 = {
		liege = 0
		government = tribal_government
	}
	867.1.1 = {
		holder = 302065
	}
	#912.8.23 = {
	#	holder = 0
	#}
	935.1.1 = {
		government = feudal_government	#Ahistorical, just for ease of bookmarks.
	}
	
	###Kazimierz I's succession
	1058.11.28 = {
		holder = 764	#Wladyslaw I Herman
		liege = d_kuyavia
	}
	1102.6.4 = {
		holder = 170108	#Zbigniew
	}
	
	1107.4.1 = {
		holder = 221515	#Boleslaw III Wrymouth
	}
}


c_wielunska = {
	###Proto-Polish tribes
	500.1.1 = {
		liege = 0
		government = tribal_government
	}
	867.1.1 = {
		holder = 302065
	}
	#912.8.23 = {
	#	holder = 0
	#}
	935.1.1 = {
		government = feudal_government	#Ahistorical, just for ease of bookmarks.
	}
	
	###Kazimierz I's succession
	1058.11.28 = {
		holder = 302004	#Mieszko, Boleslaw & Wladyslaw's brother
		liege = k_poland
	}
	1065.1.28 = {
		holder = 762	#Boleslaw II the Bold
	}
	1066.1.1 = {
		holder = 82257
	}
	1079.5.1 = {
		holder = 764	#Wladyslaw I Herman
		liege = d_kuyavia
	}
	1102.6.4 = {
		holder = 170108	#Zbigniew
	}
	
	1107.4.1 = {
		holder = 221515	#Boleslaw III Wrymouth
	}
}

