﻿k_syria = {
	867.1.1 = {	change_development_level = 7 }
	1066.1.1 = { change_development_level = 10 }
}

d_aleppo = {
	782.1.1 = {
		liege = "e_arabia"
		holder = 146020
	}
	860.1.1 = {
		holder = 159738
	}
	1066.1.1 = {
		holder = 20743
		liege = "k_persia"
	}
	1075.1.1 = {
		holder = 144018
	}
	1076.1.1 = {
		holder = 144019
	}
	1080.1.1 = {
		holder = 3822
	}
	1085.1.1 = {
		holder = 144016
	}
	
	1086.1.1 = {
		holder = 3079
	}
	1094.1.1 = {
		holder = 3044
	}
	1095.1.1 = {
		holder = 144020
	}
	1098.1.1 = {
		liege = 0
	}
	1113.1.1 = {
		holder = 144021
	}
	1114.1.1 = {
		holder = 144022
	}
	1117.1.1 = {
		holder = 144066
	}
	1118.1.1 = {
		holder = 34249
	}
	1119.1.1 = {
		holder = 93460
	}
	1121.1.1 = {
		holder = 34249
	}
	1125.1.1 = {
		holder = 93408
	}
	1127.1.1 = {
		holder = 93461
	}
	1128.1.1 = {
		holder = 144029
	}
	1146.9.14 = {
		holder = 144031
	}
	1174.4.15 = {
		holder = 144033
	}
	1183.1.1 = {
		liege = "k_egypt"
	}
	1183.1.1 = {
		holder = 226052
	}
	1186.1.1 = {
		holder = 226054
	}
	1216.10.8 = {
		holder = 144081
	}
	1236.1.1 = {
		holder = 144082
	}
	1260.1.1 = {	
		liege = "e_ilkhanate"
		holder = 93462
	}
	1260.9.3 = {
		liege = "k_egypt"
	}
	1260.9.3 = {
		holder = 32933
	}
	1277.7.1 = {
		holder = 32934
	}
	1279.1.1 = {
		holder = 32949
	}
	1279.7.1 = {
		holder = 32936
	}
	1291.11.10 = {
		holder = 32937
	}
	1293.12.14 = {
		holder = 485000
	}
	1294.7.1 = {
		holder = 32938
	}
	1296.1.1 = {
		holder = 32939
	}
	1299.1.1 = {
		holder = 485000
	}
	1309.1.1 = {
		holder = 32940
	}
	1309.11.1 = {
		holder = 485000
	}
}


c_aleppo = {
	867.1.1 = {	change_development_level = 10 }
	1066.1.1 = { change_development_level = 16 }
	
	733.1.1 = {
		liege = "d_antioch"
		holder = 146051
	}
	753.1.1 = {
		holder = 146049
	}
	767.1.1 = {
		holder = 146050
	}
	860.1.1 = {
		liege = "d_aleppo"
		holder = 159738
	}
	1066.1.1 = {
		holder = 20743
	}
	1075.1.1 = {
		holder = 144018
	}
	1076.1.1 = {
		holder = 144019
	}
	1080.1.1 = {
		holder = 3822
	}
	1085.1.1 = {
		holder = 144016
	}
	1086.1.1 = {
		holder = 3079
	}
	1094.1.1 = {
		holder = 3044
	}
	1095.1.1 = {
		holder = 144020
	}
	1113.1.1 = {
		holder = 144021
	}
	1114.1.1 = {
		holder = 144022
	}
	1117.1.1 = {
		holder = 144066
	}
	1118.1.1 = {
		holder = 34249
	}
	1119.1.1 = {
		holder = 93460
	}
	1121.1.1 = {
		holder = 34249
	}
	1125.1.1 = {
		holder = 93408
	}
	1127.1.1 = {
		holder = 93461
	}
	1128.1.1 = {
		holder = 144029
	}
	1146.9.14 = {
		holder = 144031
	}
	1174.4.15 = {
		holder = 144033
	}
	1183.1.1 = {
		holder = 226052
	}
	1186.1.1 = {
		holder = 226054
	}
	1216.10.8 = {
		holder = 144081
	}
	1236.1.1 = {
		holder = 144082
	}
	1260.1.1 = {	
		holder = 93462
	}
	1260.9.3 = {	
		holder = 93463
	}
	1300.1.1 = {	
		holder = 93464
	}
	
	
	
	
	

}


c_suriya = {
	706.1.1 = {
		liege = "d_lebanon"
		holder = 146014
	}
	735.1.1 = {
		holder = 146015
	}
	750.1.1 = {
		holder = 146017
	}
	782.1.1 = {
		liege = "d_aleppo"
		holder = 146020
	}
	860.1.1 = {
		holder = 159738
	}
	1066.1.1 = {
		holder = 20745
	}
	1089.1.1 = {
		holder = 3079
	}
	1094.1.1 = {
		holder = 3044
	}
	1095.1.1 = {
		holder = 144020
	}
	1113.1.1 = {
		holder = 144021
	}
	1114.1.1 = {
		holder = 144022
	}
	1117.1.1 = {
		holder = 144066
	}
	1118.1.1 = {
		holder = 34249
	}
	1119.1.1 = {
		holder = 93460
	}
	1121.1.1 = {
		holder = 34249
	}
	1125.1.1 = {
		holder = 93408
	}
	1127.1.1 = {
		holder = 93461
	}
	1128.1.1 = {
		holder = 144029
	}
	1146.9.14 = {
		holder = 144031
	}
	1174.4.15 = {
		holder = 144033
	}
	1175.1.1 = {
		holder = 226000
	}
	1179.1.1 = {
		holder = 226011
	}
	1191.10.10 = {
		holder = 144083
	}
	1222.12.1 = {
		holder = 144084
	}
	1229.1.1 = {
		holder = 144085
	}
	1245.1.1 = {
		holder = 144089
	}
	1260.1.1 = {
		holder = 93485
	}
	1284.1.1 = {
		holder = 93486
	}
	1312.1.1 = {
		liege = "d_damascus"
	}
	1312.1.1 = {
		holder = 144091
	}
	1331.10.27 = {
		holder = 485430
	}

}


c_syrrusafa = {
	376.1.1 = {
		holder = 990076
		liege = k_ghassanids
	}
	376.1.2 = {
		holder = 0
		liege = none
	}
	706.1.1 = {
		liege = "d_lebanon"
		holder = 146014
	}
	735.1.1 = {
		holder = 146015
	}
	754.1.1 = {
		holder = 146020
	}
	782.1.1 = {
		liege = "d_aleppo"
	}
	860.1.1 = {
		holder = 159738
	}
	1066.1.1 = {
		holder = 20743
	}
	1075.1.1 = {
		holder = 144018
	}
	1076.1.1 = {
		holder = 144019
	}
	1080.1.1 = {
		holder = 3822
	}
	1085.1.1 = {
		holder = 144016
	}
	1086.1.1 = {
		holder = 3079
	}
	1094.1.1 = {
		holder = 3044
	}
	1095.1.1 = {
		holder = 144020
	}
	1113.1.1 = {
		holder = 144021
	}
	1114.1.1 = {
		holder = 144022
	}
	1117.1.1 = {
		holder = 144066
	}
	1118.1.1 = {
		holder = 34249
	}
	1119.1.1 = {
		holder = 93460
	}
	1121.1.1 = {
		holder = 34249
	}
	1125.1.1 = {
		holder = 93408
	}
	1127.1.1 = {
		holder = 93461
	}
	1128.1.1 = {
		holder = 144029
	}
	1146.9.14 = {
		holder = 144031
	}
	1174.4.15 = {
		holder = 144033
	}
	1183.1.1 = {
		holder = 226052
	}
	1186.1.1 = {
		holder = 226054
	}
	1216.10.8 = {
		holder = 144081
	}
	1236.1.1 = {
		holder = 144082
	}
	1260.1.1 = {	
		holder = 93462
	}
	1260.9.3 = {	
		holder = 93467
	}
	1300.1.1 = {	
		holder = 93468
	}
}


c_qinnasrin = {
	706.1.1 = {
		liege = "d_lebanon"
		holder = 146014
	}
	720.1.1 = {
		holder = 146015
	}
	735.1.1 = {
		holder = 146016
	}
	758.1.1 = {
		holder = 146018
	}
	779.1.1 = {
		holder = 146021
	}
	860.1.1 = {
		liege = "d_aleppo"
	}
	860.1.1 = {
		holder = 159738
	}
	1066.1.1 = {
		liege = "d_aleppo"
	}
	1066.1.1 = {
		holder = 20747
	}
	1100.1.1 = {
		liege = "d_hashshashin"
		holder = 144225
	}
	1124.1.1 = {
		holder = 144226
	}
	1138.1.1 = {
		holder = 144227
	}
	1162.1.1 = {
		holder = 227012
	}
	1192.1.1 = {
		holder = 144228
	}
	1210.1.1 = {
		holder = 144229
	}
	1221.1.1 = {
		holder = 144230
	}
	1255.1.1 = {
		holder = 144231
	}
	1256.1.1 = {
		liege = "d_aleppo"
	}
	1256.1.1 = {
		holder = 93458
	}
	1300.1.1 = {
		holder = 93459
	}
}


d_edessa = {
	638.1.1={
		liege="e_arabia"
		holder=146030
	}
	658.1.1={
		holder=146032
	}
	732.1.1={
		holder=146033
	}
	766.1.1={
		holder=146034
	}
	772.1.1={
		holder=146035
	}
	782.1.1={
		holder=146036
	}
	790.1.1={
		holder=146037
	}
	860.1.1 = {
		holder=159736
	}
	983.1.1= {
		liege=0
		holder=159143
	}
	990.1.1= {
		holder=159145
	}
	997.1.1= {
		holder=159146
	}
	1010.1.1= {
		holder=0
	}
	1011.1.1= {
		holder=159147
	}
	1061.1.1= {
		holder=20738
	}
	1066.1.1= {
		holder=20738
		liege="k_persia"
	}
	1077.1.1= {
		holder=85001
	}
	1086.1.1= {
		holder=93117
	}
	1092.1.1= {
		holder=232564
	}
	1098.1.1= {
		liege=0
	}
	1098.1.1= {
		holder=10073 #Baudouin I de Boulogne
	}
	1100.4.2= {
		holder=232007 #Baudouin II de Rethel
	}
	1118.4.2= {
		holder=231012 #Joscelin I de Courtenay
	}
	1131.10.1= {
		holder=231013 #Joscelin II de Courtenay
	}
	1150.1.1= {
		holder = 144032
	}
	1170.9.16= {
		holder = 144041
	}
	1176.1.1= {
		liege="k_egypt"
	}
	1180.1.1= {
		holder = 144042
	}
	1183.1.1= {
		holder = 226052
	}
	1196.1.1= {
		holder = 32918
	}
	1216.10.8= {
		holder = 32920
	}
	1250.1.1= {
		holder = 93422
	}
	1258.1.1= {
		liege="e_ilkhanate"
	}
	1283.1.1= {
		holder = 93423
	}
	1320.1.1= {
		holder = 93424
	}
	1335.1.1= {
		liege="k_egypt"
	}

}


c_samosata = {
	637.1.1 = {
		liege = "d_antioch"
	}
	733.1.1 = {
		holder = 146051
	}
	759.1.1 = {
		holder = 146052
	}
	774.1.1 = {
		holder = 146053
	}
	786.1.1 = {
		liege = "d_armeniac"
	}
	806.1.1 = {
		liege = "d_edessa"
	}
	860.1.1 = {
		holder = 159736
	}
	962.1.1 = {
		liege = "d_armeniac"
	}
	1066.1.1 = {
		liege = "d_edessa"
	}
	1066.1.1 = {
		holder = 3046
	}
	1071.8.26 = {
		liege = "d_antioch"
	}
	1071.8.26 = {
		holder = 93497
	}
	1074.1.1 = {
		holder = 85001
	}
	1084.2.1 = {
		holder = 41701
	}
	1086.1.1 = {
		liege = "d_armeniac"
		holder = 90087
	}
	#First Crusade
	1098.1.1 = {
		liege = "d_edessa"
	}
	#lords of Marash
	1098.1.1 = {
		holder = 93426
	}
	1111.1.1 = {
		holder = 93427
	}
	1124.1.1 = {
		holder = 93428
	}
	1146.11.1 = {
		holder = 93429
	}
	1149.6.28 = {
		holder = 231013 #Joscelin II de Courtenay
	}
	1150.1.1 = {
		holder = 144032
	}
	1170.9.16 = {
		holder = 144041
	}
	1180.1.1 = {
		holder = 144042
	}
	1183.1.1 = {
		holder = 226052
	}
	1196.1.1 = {
		holder = 32918
	}
	1216.10.8 = {
		holder = 32920
	}
	1250.1.1 = {
		holder = 93422
	}
	1283.1.1 = {
		holder = 93423
	}
	1307.1.1 = {
		liege = "d_chaldia"
		holder = 93417
	}

}


c_marash = {
	637.1.1 = {
		liege = "d_antioch"
	}
	733.1.1 = {
		holder = 146051
	}
	759.1.1 = {
		holder = 146052
	}
	774.1.1 = {
		holder = 146053
	}
	786.1.1 = {
		liege = "d_armeniac"
	}
	806.1.1 = {
		liege = "d_edessa"
	}
	860.1.1 = {
		holder = 159736
	}
	962.1.1 = {
		liege = "d_armeniac"
	}
	1066.1.1 = {
		liege = "d_edessa"
	}
	1066.1.1 = {
		holder = 3046
	}
	1071.8.26 = {
		liege = "d_antioch"
	}
	1071.8.26 = {
		holder = 93497
	}
	1074.1.1 = {
		holder = 85001
	}
	1084.2.1 = {
		holder = 41701
	}
	1086.1.1 = {
		liege = "d_armeniac"
		holder = 90087
	}
	#First Crusade
	1098.1.1 = {
		liege = "d_edessa"
	}
	#lords of Marash
	1098.1.1 = {
		holder = 93426
	}
	1111.1.1 = {
		holder = 93427
	}
	1124.1.1 = {
		holder = 93428
	}
	1146.11.1 = {
		holder = 93429
	}
	1149.6.28 = {
		holder = 231013 #Joscelin II de Courtenay
	}
	1150.1.1 = {
		holder = 144032
	}
	1170.9.16 = {
		holder = 144041
	}
	1180.1.1 = {
		holder = 144042
	}
	1183.1.1 = {
		holder = 226052
	}
	1196.1.1 = {
		holder = 32918
	}
	1216.10.8 = {
		holder = 32920
	}
	1250.1.1 = {
		holder = 93422
	}
	1283.1.1 = {
		holder = 93423
	}
	1307.1.1 = {
		liege = "d_chaldia"
		holder = 93417
	}

}


c_aintab = {
	637.1.1 = {
		liege = "d_antioch"
	}
	733.1.1 = {
		holder = 146051
	}
	759.1.1 = {
		holder = 146052
	}
	774.1.1 = {
		holder = 146053
	}
	786.1.1 = {
		liege = "d_cilicia"
	}
	806.1.1 = {
		liege = "d_edessa"
	}
	860.1.1 = {
		holder = 159736
	}
	962.1.1 = {
		liege = "d_cilicia"
	}
	1066.1.1 = {
		liege = "d_edessa"
	}
	1066.1.1 = {
		holder = 20741
	}
	1071.8.26 = {
		liege = "d_antioch"
	}
	1071.8.26 = {
		holder = 93497
	}
	1074.1.1 = {
		holder = 85001
	}
	1084.2.1 = {
		holder = 41701
	}
	1086.1.1 = {
		liege = "d_cilicia"
		holder = 90087
	}
	#First Crusade
	1098.1.1 = {
		liege = "d_edessa"
	}
	#lords of Marash
	1098.1.1 = {
		holder = 93426
	}
	1111.1.1 = {
		holder = 93427
	}
	1124.1.1 = {
		holder = 93428
	}
	1146.11.1 = {
		holder = 93429
	}
	1149.6.28 = {
		holder = 231013 #Joscelin II de Courtenay
	}
	1150.1.1 = {
		holder = 144032
	}
	1170.9.16 = {
		holder = 144041
	}
	1180.1.1 = {
		holder = 144042
	}
	1183.1.1 = {
		holder = 226052
	}
	1196.1.1 = {
		holder = 32918
	}
	1216.10.8 = {
		holder = 32920
	}
	1250.1.1 = {
		holder = 93422
	}
	1283.1.1 = {
		holder = 93423
	}
	1307.1.1 = {
		liege = "d_chaldia"
		holder = 93417
	}

}


c_homs = {
	867.1.1 = {	change_development_level = 10 }
	1066.1.1 = { change_development_level = 16 }
	
	706.1.1 = {
		liege = "d_lebanon"
		holder = 146014
	}
	735.1.1 = {
		holder = 146015
	}
	754.1.1 = {
		holder = 146020
	}
	782.1.1 = {
		liege = "d_aleppo"
	}
	860.1.1 = {
		holder = levantine000010
		liege = e_arabia
	}
	1066.1.1 = {
		holder = 20745
		liege = "d_aleppo"
	}
	1066.1.1 = {
		holder = 20746
	}
	1089.1.1 = {
		holder = 3079
	}
	1094.1.1 = {
		holder = 3044
	}
	1095.1.1 = {
		holder = 144020
	}
	1113.1.1 = {
		holder = 144021
	}
	1114.1.1 = {
		holder = 144022
	}
	1117.1.1 = {
		holder = 144066
	}
	1118.1.1 = {
		holder = 34249
	}
	1119.1.1 = {
		holder = 93460
	}
	1121.1.1 = {
		holder = 34249
	}
	1125.1.1 = {
		holder = 93408
	}
	1127.1.1 = {
		holder = 93461
	}
	1128.1.1 = {
		holder = 144029
	}
	1140.1.1 = {
		holder = 144029
	}
	1146.9.14 = {
		holder = 144032
	}
	1149.1.1 = {
		holder = 144031
	}
	1164.1.1 = {
		holder = 32912
	}
	1175.1.1 = {
		holder = 226000
	}
	1179.1.1 = {
		holder = 226012
	}
	1186.3.5 = {
		holder = 144086
	}
	1240.1.1 = {
		holder = 144087
	}
	1246.6.28 = {
		holder = 144088
	}
	1260.1.1 = {
		holder = 93487
	}
	1290.1.1 = {
		holder = 93488
	}
	1312.1.1 = {
		liege = "d_damascus"
	}
	1320.1.1 = {
		holder = 485420
	}

}


c_shayzar = {
	706.1.1 = {
		liege = "d_lebanon"
		holder = 146014
	}
	735.1.1 = {
		holder = 146015
	}
	754.1.1 = {
		holder = 146016
	}
	783.1.1 = {
		holder = 146019
	}
	794.1.1 = {
		holder = 146021
	}
	860.1.1 = {
		holder = 159737
	}
	1066.1.1 = {
		holder = 1758
		liege = "e_byzantium"
	}
	1070.1.1 = {
		holder = 144232
		liege = "k_egypt"
	}
	1072.1.1 = {
		holder = 144233
	}
	1099.1.1 = {
		holder = 144234
	}
	1109.7.12 = {
		liege = "d_lebanon"
	}
	1109.7.12 = {
		holder = 223671 #Bertrand
	}
	1112.1.1 = {
		holder = 223670 #Pons
	}
	1137.3.1 = {
		holder = 223660 #Raymond II
	}
	1152.1.1 = {
		holder = 223650 #Raymond III
	}
	1187.9.1 = {
		holder = 223651 #Raymond IV
	}
	1198.6.1 = {
		holder = 223755 #Bohemond I
	}
	1233.3.1 = {
		holder = 31024 #Bohemond II
	}
	1252.1.1 = {
		holder = 31031 #Bohemond III
	}
	1275.1.1 = {
		holder = 31034 #Bohemond IV
	}
	1287.10.19 = {
		holder = 31036 #Lucia I
	}
	1289.3.1 = {
		holder = 93447 #K_Egypt
	}
	#Tortosa still has d_lebanon after c_tripoli falls
	1289.3.1 = {
		liege = "k_egypt"
	}
	
	1291.8.14 = {
		liege = "d_lebanon"
	}
	1292.1.1 = {
		holder = 93448
	}
	1310.1.1 = {
		holder = 93449
	}
	1330.1.1 = {
		holder = 93450
	}
	

}


c_hama = {
	706.1.1 = {
		liege = "d_lebanon"
		holder = 146014
	}
	735.1.1 = {
		holder = 146015
	}
	750.1.1 = {
		holder = 146017
	}
	782.1.1 = {
		liege = "d_aleppo"
		holder = 146020
	}
	860.1.1 = {
		holder = levantine000010
		liege = e_arabia
	}
	1066.1.1 = {
		holder = 20745
		liege = "d_aleppo"
	}
	1089.1.1 = {
		holder = 3079
	}
	1094.1.1 = {
		holder = 3044
	}
	1095.1.1 = {
		holder = 144020
	}
	1113.1.1 = {
		holder = 144021
	}
	1114.1.1 = {
		holder = 144022
	}
	1117.1.1 = {
		holder = 144066
	}
	1118.1.1 = {
		holder = 34249
	}
	1119.1.1 = {
		holder = 93460
	}
	1121.1.1 = {
		holder = 34249
	}
	1125.1.1 = {
		holder = 93408
	}
	1127.1.1 = {
		holder = 93461
	}
	1128.1.1 = {
		holder = 144029
	}
	1146.9.14 = {
		holder = 144031
	}
	1174.4.15 = {
		holder = 144033
	}
	1175.1.1 = {
		holder = 226000
	}
	1179.1.1 = {
		holder = 226011
	}
	1191.10.10 = {
		holder = 144083
	}
	1222.12.1 = {
		holder = 144084
	}
	1229.1.1 = {
		holder = 144085
	}
	1245.1.1 = {
		holder = 144089
	}
	1260.1.1 = {
		holder = 93485
	}
	1284.1.1 = {
		holder = 93486
	}
	1312.1.1 = {
		liege = "d_damascus"
	}
	1312.1.1 = {
		holder = 144091
	}
	1331.10.27 = {
		holder = 485430
	}

}


d_antioch = {
	867.1.1 = {	change_development_level = 8 }
	1066.1.1 = { change_development_level = 12 }
	
	330.1.1 = {
		liege = "e_byzantium"
	}
	637.1.1 = {
		liege = "e_arabia"
	}
	733.1.1 = {
		holder = 146051
	}
	758.1.1 = {
		holder = 146049
		liege = 0 # De facto
	}
	791.1.1 = {
		holder = 146050
	}
	860.1.1 = {
		holder = 0
	}
	969.1.1 = {
		liege = "e_byzantium"
	}
	1060.1.1 = {
		holder = 1758
	}
	1071.8.26 = {
		liege = 0
		holder = 85001
	}
	1084.2.1 = {
		liege = "k_rum"
		holder = 41701
	}
	1086.1.1 = {
		liege = "k_persia"
		holder = 93117
	}
	1092.1.1 = {
		holder = 93118
	}
	1098.1.1 = {
		liege = 0
	}
	1098.6.3 = {
	
		holder = 1140 #Bohemond I de Hauteville
	}
	1105.1.1 = {
		holder = 30871 #Tancred I de Hauteville (regent)
	}
	1112.12.5 = {
		holder = 30877 #Roger I de Hauteville (regent)
	}
	1119.6.27 = {
		liege = "k_jerusalem"
		holder = 223700 #Bohemond II de Hauteville
	}
	1130.1.5 = {
		holder = 223525 #Foulques I d'Anjou (regent)
	}
	1136.4.1 = {
		liege = 0
		holder = 223740 #Raimond I de Poitou
	}
	1149.6.28 = {
		holder = 223720 #Constance I de Hauteville
	}
	1153.1.1 = {
		holder = 223590 #Renaud I de Chatillion
	}
	1160.1.1 = {
		holder = 223750 #Bohemond III de Poitou
	}
	1201.3.20 = {
		holder = 223755 #Bohemond IV de Poitou
	}
	1216.1.1 = {
		holder = 31018 #Raymon-Roupen I de Poitou
	}
	1219.1.1 = {
		holder = 223755 #Bohemond IV de Poitou
	}
	1233.3.1 = {
		holder = 31024 #Bohemond V de Poitou
	}
	1252.1.1 = {
		holder = 31031 #Bohemond VI de Poitou
	}
	
	#Antioch conquerd by Baibars
	
	1268.1.1 = {
		liege = "k_egypt"
	}
	1268.1.1 = {
		holder = 32933 #K_Egypt
	}
	1277.7.1 = {
		holder = 32934
	}
	#1279.1.1 = {
	#	holder = 32942
	#}
	1279.1.1 = { #Should be 1279.7.1, above holder does not exist
		holder = 32936
	}
	1291.11.10 = {
		holder = 32937
	}
	1293.12.14 = {
		holder = 485000
	}
	1294.7.1 = {
		holder = 32938
	}
	1296.1.1 = {
		holder = 32939
	}
	1299.1.1 = {
		holder = 485000
	}
	1309.1.1 = {
		holder = 32940
	}
	1309.11.1 = {
		holder = 485000
	}
	
	

}


c_antiocheia = {
	376.1.1 = {
		de_jure_liege = d_syria
		holder = 990011
		liege = d_syria
	}
	376.1.2 = {
		de_jure_liege = d_antioch
		holder = 0
		liege = none
	}
	867.1.1 = {	change_development_level = 12 }
	1066.1.1 = { change_development_level = 18 }
	
	330.1.1 = {
		liege = "d_antioch"
	}
	733.1.1 = {
		holder = 146051
	}
	758.1.1 = {
		holder = 146049
	}
	791.1.1 = {
		holder = 146050
	}
	860.1.1 = {
		liege = "d_edessa"
		holder = 159736
	}
	863.1.1 = {
		liege = "d_cilicia"
	}
	863.1.1 = {
		holder = 159730
	}	
	969.1.1 = {
		liege = "d_antioch"
	}
	1060.1.1 = {
		holder = 1758
	}
	1071.8.26 = {
		holder = 85001
	}
	1084.2.1 = {
		holder = 41701
	}
	1086.1.1 = {
		holder = 93117
	}
	1092.1.1 = {
		holder = 93118
	}
	1098.6.3 = {
		holder = 1140 #Bohemond I de Hauteville
	}
	1105.1.1 = {
		holder = 30871 #Tancred I de Hauteville (regent)
	}
	1112.12.5 = {
		holder = 30877 #Roger I de Hauteville (regent)
	}
	1119.6.27 = {
		holder = 223700 #Bohemond II de Hauteville
	}
	1130.1.5 = {
		holder = 223525 #Foulques I d'Anjou (regent)
	}
	1136.4.1 = {
		holder = 223740 #Raimond I de Poitou
	}
	1149.6.28 = {
		holder = 223720 #Constance I de Hauteville
	}
	1153.1.1 = {
		holder = 223590 #Renaud I de Chatillion
	}
	1160.1.1 = {
		holder = 223750 #Bohemond III de Poitou
	}
	1201.3.20 = {
		holder = 223755 #Bohemond IV de Poitou
	}
	1216.1.1 = {
		holder = 31018 #Raymon-Roupen I de Poitou
	}
	1219.1.1 = {
		holder = 223755 #Bohemond IV de Poitou
	}
	1233.3.1 = {
		holder = 31024 #Bohemond V de Poitou
	}
	1252.1.1 = {
		holder = 31031 #Bohemond VI de Poitou
	}
	
	#Antioch conquerd by Baibars
	
	1268.1.1 = {
		holder = 32933 #K_Egypt
	}
	1277.7.1 = {
		holder = 32934
	}
	#1279.1.1 = {
	#	holder = 32942
	#}
	1279.1.1 = { #Should be 1279.7.1, above holder does not exist
		holder = 32936
	}
	1291.11.10 = {
		holder = 32937
	}
	1293.12.14 = {
		holder = 485000
	}
	1294.7.1 = {
		holder = 32938
	}
	1296.1.1 = {
		holder = 32939
	}
	1299.1.1 = {
		holder = 485000
	}
	1309.1.1 = {
		holder = 32940
	}
	1309.11.1 = {
		holder = 485000
	}

}


c_alexandretta = {
	376.1.1 = {
		de_jure_liege = d_syria
		holder = 990011
		liege = d_syria
	}
	376.1.2 = {
		de_jure_liege = d_antioch
		holder = 0
		liege = none
	}
	330.1.1 = {
		liege = "d_antioch"
	}
	733.1.1 = {
		holder = 146051
	}
	758.1.1 = {
		holder = 146049
	}
	791.1.1 = {
		holder = 146050
	}
	852.1.1 = {
		liege = "d_cilicia"
	}
	852.1.1 = {
		holder = 163135
	}
	862.1.1 = {
		holder = armenian.000084
	}
	966.1.1 = {
		liege = "e_byzantium"
	}
	969.1.1 = {
		liege = "d_antioch"
	}
	1060.1.1 = {
		holder = 1758
	}
	1071.8.26 = {
		holder = 85001
	}
	1084.2.1 = {
	
		holder = 41701
	}
	1086.1.1 = {
	
		holder = 93117
	}
	1092.1.1 = {
		holder = 93118
	}
	1098.6.3 = {
		holder = 1140 #Bohemond I de Hauteville
	}
	1105.1.1 = {
		holder = 30871 #Tancred I de Hauteville (regent)
	}
	1112.12.5 = {
		holder = 30877 #Roger I de Hauteville (regent)
	}
	1119.6.27 = {
		holder = 223700 #Bohemond II de Hauteville
	}
	1130.1.5 = {
		holder = 223525 #Foulques I d'Anjou (regent)
	}
	1136.4.1 = {
		holder = 223740 #Raimond I de Poitou
	}
	1149.6.28 = {
		holder = 223720 #Constance I de Hauteville
	}
	1153.1.1 = {
		holder = 223590 #Renaud I de Chatillion
	}
	1160.1.1 = {
		holder = 223750 #Bohemond III de Poitou
	}
	1201.3.20 = {
		holder = 223755 #Bohemond IV de Poitou
	}
	1216.1.1 = {
		holder = 31018 #Raymon-Roupen I de Poitou
	}
	1219.1.1 = {
		holder = 223755 #Bohemond IV de Poitou
	}
	1233.3.1 = {
		holder = 31024 #Bohemond V de Poitou
	}
	1252.1.1 = {
		holder = 31031 #Bohemond VI de Poitou
	}
	
	#Antioch conquerd by Baibars
	
	1268.1.1 = {
		holder = 32933 #K_Egypt
	}
	1277.7.1 = {
		holder = 32934
	}
	#1279.1.1 = {
	#	holder = 32942
	#}
	1279.1.1 = { #Should be 1279.7.1, above holder does not exist
		holder = 32936
	}
	1291.11.10 = {
		holder = 32937
	}
	1293.12.14 = {
		holder = 485000
	}
	1294.7.1 = {
		holder = 32938
	}
	1296.1.1 = {
		holder = 32939
	}
	1299.1.1 = {
		holder = 485000
	}
	1309.1.1 = {
		holder = 32940
	}
	1309.11.1 = {
		holder = 485000
	}

}


d_lebanon = {
	867.1.1 = {	change_development_level = 8 }
	1066.1.1 = { change_development_level = 12 }
	
	706.1.1 = {
		liege = "e_arabia"
		holder = 146014
	}
	735.1.1 = {
		holder = 146015
	}
	754.1.1 = {
		holder = 146016
	}
	783.1.1 = {
		holder = 146019
	}
	794.1.1 = {
		holder = 146021
	}
	860.1.1 = {
		holder = 159737
	}
	880.1.1 = {
		holder = 0
		liege = 0
	}
	1099.7.15 = {
		liege = "k_jerusalem"
	}
	1099.7.15 = {
		holder = 338 #Raymond I
	}
	1105.2.28 = {
		holder = 223673 #Alfons Jourdain
	}
	1109.1.1 = {
		holder = 223671 #Bertrand
	}
	1112.1.1 = {
		holder = 223670 #Pons
	}
	1137.3.1 = {
		holder = 223660 #Raymond II
	}
	1152.1.1 = {
		holder = 223650 #Raymond III
	}
	1187.9.1 = {
		holder = 223651 #Raymond IV
	}
	1198.6.1 = {
		holder = 223755 #Bohemond I
	}
	1201.3.20 = {
		liege = 0 # to Antioch
	}
	1233.3.1 = {
		holder = 31024 #Bohemond II
	}
	1252.1.1 = {
		holder = 31031 #Bohemond III
	}
	1254.1.1 = {
		liege = "k_armenia"
	}
	1268.1.1 = {
		liege = 0
	}
	1275.1.1 = {
		holder = 31034 #Bohemond IV
	}
	1287.10.19 = {
		holder = 31036 #Lucia I
	}
	
	#conquered by Sultan Qalawun; Tortosa falls 1291
	1291.8.14 = {
		liege = "k_egypt"
	}
	1291.8.14 = {
		holder = 32936 #K_Egypt
	}
	1291.11.10 = {
		holder = 32937
	}
	1293.12.14 = {
		holder = 485000
	}
	1294.7.1 = {
		holder = 32938
	}
	1296.1.1 = {
		holder = 32939
	}
	1299.1.1 = {
		holder = 485000
	}
	1309.1.1 = {
		holder = 32940
	}
	1309.11.1 = {
		holder = 485000
	}
	
	

}


c_beirut = {
	376.1.1 = {
		de_jure_liege = d_syria
		holder = 990011
		liege = d_syria
	}
	376.1.2 = {
		de_jure_liege = d_lebanon
		holder = 0
		liege = none
	}
	750.1.1 = {
		liege = "d_damascus"
		holder = 146060
	}
	760.1.1 = {
		holder = 146063
	}
	866.1.1 = {
		liege = "d_urdunn"
	}
	866.1.1 = {
		holder = 163134
	}
	877.1.1 = {
		liege = 0
	}
	1066.1.1 = {
		holder = 20772
		liege = "k_egypt"
	}
	1089.1.1 = {
		holder = 93496
	}
	
	1110.1.1 = {
		liege = "d_urdunn"
	}
	1110.1.1 = {
		holder = 32147 #Foulques de Guines
	}
	1125.1.1 = {
		holder = 32186
	}
	1138.1.1 = {
		holder = 32187
	}
	1148.1.1 = {
		holder = 32189
	}
	1156.6.7 = {
		holder = 32188
	}
	1169.1.1 = {
		holder = 32190
	}
	1187.9.1 = {
		liege = "d_damascus"
	}
	1187.9.1 = {
		holder = 93445
	}
	1204.1.1 = {
		liege = "k_jerusalem"
	}
	1204.1.1 = {
		holder = 144159
	}
	1236.1.1 = {
		holder = 144165
	}
	1247.1.1 = {
		holder = 144184
	}
	1254.1.1 = {
		holder = 144158
	}
	1264.1.1 = {
		liege = "k_cyprus"
	}
	1264.1.1 = {
		holder = 138022 #Hugues II of Cyprus
	}
	1267.1.1 = {
		holder = 461906 #Isabelle d'Ibelin
	}
	1291.1.1 = {
		holder = 461903 #Guy of Cyprus
	}
	1292.1.1 = {
		liege = "d_palestine"
	}
	1292.1.1 = {
		holder = 93446
	}
	1320.1.1 = {
		holder = 485200
	}

}


c_tripoli = {
	376.1.1 = {
		de_jure_liege = d_syria
		holder = 990011
		liege = d_syria
	}
	376.1.2 = {
		de_jure_liege = d_lebanon
		holder = 0
		liege = none
	}
	867.1.1 = {	change_development_level = 12 }
	1066.1.1 = { change_development_level = 18 }
	
	706.1.1 = {
		liege = "d_lebanon"
		holder = 146014
	}
	735.1.1 = {
		holder = 146015
	}
	754.1.1 = {
		holder = 146016
	}
	783.1.1 = {
		holder = 146019
	}
	794.1.1 = {
		holder = 146021
	}
	860.1.1 = {
		holder = 159737
	}
	1066.1.1 = {
		holder = 20769
		liege = "k_egypt"
	}
	1070.1.1 = {
		holder = 144232
	}
	1072.1.1 = {
		holder = 144233
	}
	1099.1.1 = {
		holder = 144234
	}
	1109.7.12 = {
		liege = "d_lebanon"
	}
	1109.7.12 = {
		holder = 223671 #Bertrand
	}
	1112.1.1 = {
		holder = 223670 #Pons
	}
	1137.3.1 = {
		holder = 223660 #Raymond II
	}
	1152.1.1 = {
		holder = 223650 #Raymond III
	}
	1187.9.1 = {
		holder = 223651 #Raymond IV
	}
	1198.6.1 = {
		holder = 223755 #Bohemond I
	}
	1233.3.1 = {
		holder = 31024 #Bohemond II
	}
	1252.1.1 = {
		holder = 31031 #Bohemond III
	}
	1275.1.1 = {
		holder = 31034 #Bohemond IV
	}
	1287.10.19 = {
		holder = 31036 #Lucia I
	}
	1289.3.1 = {
		holder = 93447 #K_Egypt
	}
	#Tortosa still has d_lebanon after c_tripoli falls
	1289.3.1 = {
		liege = "k_egypt"
	}
	
	1291.8.14 = {
		liege = "d_lebanon"
	}
	1292.1.1 = {
		holder = 93448
	}
	1310.1.1 = {
		holder = 93449
	}
	1330.1.1 = {
		holder = 93450
	}
	

}


d_damascus = {
	800.1.1 = {
		change_development_level = 5
	}
	1000.1.1 = {
		change_development_level = 9
	}
	1100.1.1 = {
		change_development_level = 17
	}
	
	661.2.28 = {
		liege = "e_arabia"
		holder = 163029
	}
	680.5.6 = {
		holder = 163030
	}
	683.1.1 = {
		holder = 163031
	}
	684.6.1 = {
		holder = 163003
	}
	685.5.7 = {
		holder = 163002
	}
	705.1.1 = {
		holder = 163032
	}
	715.1.1 = {
		holder = 163033
	}
	717.10.1 = {
		holder = 163035
	}
	720.2.10 = {
		holder = 163036
	}
	724.1.1 = {
		holder = 163001
	}
	743.2.6 = {
		holder = 163037
	}
	744.6.16 = {
		holder = 163038
	}
	744.10.3 = {
		holder = 163039
	}
	744.11.3 = {
		holder = 163041
	}
	750.1.1 = {
		holder = 146061
	}
	754.1.1 = {
		holder = 146060
	}
	754.6.1 = {
		holder = 146127
	}
	766.1.1 = {
		holder = 146062
	}
	775.1.1 = {
		holder = 146063
	}
	783.1.1 = {
		holder = 34005
	}
	786.1.1 = {
		holder = 146063
	}
	793.1.1 = {
		holder = 188647
	}
	794.1.1 = {
		holder = 146064
	}
	797.1.1 = {
		holder = 188646
	}
	803.1.1 = {
		holder = 188653
	}
	809.1.1 = {
		holder = 146064
	}
	850.1.1 = {
		holder = levantine0001
	}
	866.1.1 = {
		holder = 146080
	}
	978.1.1 = {
		liege = "k_egypt"
	}
	1066.1.1 = {
		holder = 20768
	}
	1067.1.1 = {
		holder = 93430
	}
	1069.1.1 = {
		holder = 93431
	}
	1071.1.1 = {
		holder = 93432
	}
	1076.1.1 = {
		liege = "k_persia"
	}
	1076.1.1 = {
		holder = 93433
	}
	#Seljuk
	1079.1.1 = {
		holder = 3044
	}
	
	1095.1.1 = {
		holder = 144023
	}
	1098.1.1 = {
		liege = 0
	}
	1104.6.1 = {
		holder = 144024
	}
	#Burid
	1105.1.1 = {
		holder = 93435
	}
	1128.2.12 = {
		holder = 93436
	}
	1132.6.6 = {
		holder = 93437
	}
	1135.1.1 = {
		holder = 93438
	}
	1139.1.1 = {
		holder = 93439
	}
	1140.1.1 = {
		holder = 93440
	}
	#Zengid
	1154.4.8 = {
		holder = 144031
	}
	1174.4.15 = {
		holder = 144033
	}
	#Ayyubid
	1175.1.1 = {
		liege = "k_egypt"
	}
	1175.1.1 = {
		holder = 226000
	}
	1186.1.1 = {
		holder = 226051
	}
	1196.1.1 = {
		holder = 226052
	}
	1218.1.1 = {
		holder = 144077
	}
	1227.1.1 = {
		holder = 144078
	}
	1229.1.1 = {
		holder = 144079
	}
	1237.8.27 = {
		holder = 144080
	}
	1245.1.1 = {
		holder = 144082
	}
	1260.1.1 = {
		holder = 34990
	}
	1280.1.1 = {
		holder = 32939
	}
	1296.1.1 = {
		holder = 34991
	}
	1297.1.1 = {
		holder = 34992
	}
	1312.1.1 = {
		holder = 34993
	}
}


c_damascus = {
	376.1.1 = {
		holder = 990076
		liege = k_ghassanids
	}
	376.1.2 = {
		holder = 0
		liege = none
	}
	867.1.1 = {	change_development_level = 10 }
	1066.1.1 = { change_development_level = 16 }
	
	661.2.28 = {
		liege = "d_damascus"
		holder = 163029
	}
	680.5.6 = {
		holder = 163030
	}
	683.1.1 = {
		holder = 163031
	}
	684.12.1 = {
		holder = 163003
	}
	685.5.7 = {
		holder = 163002
	}
	705.1.1 = {
		holder = 163032
	}
	715.1.1 = {
		holder = 163033
	}
	717.10.1 = {
		holder = 163035
	}
	720.2.10 = {
		holder = 163036
	}
	724.1.1 = {
		holder = 163001
	}
	743.2.6 = {
		holder = 163037
	}
	744.6.16 = {
		holder = 163038
	}
	744.10.3 = {
		holder = 163039
	}
	744.11.3 = {
		holder = 163041
	}
	750.1.1 = {
		holder = 146061
	}
	754.1.1 = {
		holder = 146060
	}
	754.6.1 = {
		holder = 146127
	}
	766.1.1 = {
		holder = 146062
	}
	775.1.1 = {
		holder = 146063
	}
	783.1.1 = {
		holder = 34005
	}
	786.1.1 = {
		holder = 146063
	}
	793.1.1 = {
		holder = 188647
	}
	794.1.1 = {
		holder = 146064
	}
	797.1.1 = {
		holder = 188646
	}
	803.1.1 = {
		holder = 188653
	}
	809.1.1 = {
		holder = 146064
	}
	850.1.1 = {
		holder = levantine0001
	}
	866.1.1 = {
		liege = "d_damascus"
		holder = 146080
	}
	1066.1.1 = {
		holder = 20768
	}
	1067.1.1 = {
		holder = 93430
	}
	1069.1.1 = {
		holder = 93431
	}
	1071.1.1 = {
		holder = 93432
	}
	1076.1.1 = {
		holder = 93433
	}
	#Seljuk
	1079.1.1 = {
		holder = 3044
	}
	
	1095.1.1 = {
		holder = 144023
	}
	1104.6.1 = {
		holder = 144024
	}
	#Burid
	1105.1.1 = {
		holder = 93435
	}
	1128.2.12 = {
		holder = 93436
	}
	1132.6.6 = {
		holder = 93437
	}
	1135.1.1 = {
		holder = 93438
	}
	1139.1.1 = {
		holder = 93439
	}
	1140.1.1 = {
		holder = 93440
	}
	#Zengid
	1154.4.8 = {
		holder = 144031
	}
	1174.4.15 = {
		holder = 144033
	}
	#Ayyubid
	1175.1.1 = {
		holder = 226000
	}
	1186.1.1 = {
		holder = 226051
	}
	1196.1.1 = {
		holder = 226052
	}
	1218.1.1 = {
		holder = 144077
	}
	1227.1.1 = {
		holder = 144078
	}
	1229.1.1 = {
		holder = 144079
	}
	1237.8.27 = {
		holder = 144080
	}
	1245.1.1 = {
		holder = 144082
	}
	1260.1.1 = {
		holder = 34990
	}
	1280.1.1 = {
		holder = 32939
	}
	1296.1.1 = {
		holder = 34991
	}
	1297.1.1 = {
		holder = 34992
	}
	1312.1.1 = {
		holder = 34993
	}
}


c_juwair = {
	376.1.1 = {
		holder = 990076
		liege = k_ghassanids
	}
	376.1.2 = {
		holder = 0
		liege = none
	}
	867.1.1 = {	change_development_level = 5 }
	1066.1.1 = { change_development_level = 8 }
	
	661.2.28 = {
		liege = "d_damascus"
		holder = 163029
	}
	680.5.6 = {
		holder = 163030
	}
	683.1.1 = {
		holder = 163031
	}
	684.12.1 = {
		holder = 163003
	}
	685.5.7 = {
		holder = 163002
	}
	705.1.1 = {
		holder = 163032
	}
	715.1.1 = {
		holder = 163033
	}
	717.10.1 = {
		holder = 163035
	}
	720.2.10 = {
		holder = 163036
	}
	724.1.1 = {
		holder = 163001
	}
	743.2.6 = {
		holder = 163037
	}
	744.6.16 = {
		holder = 163038
	}
	744.10.3 = {
		holder = 163039
	}
	744.11.3 = {
		holder = 163041
	}
	750.1.1 = {
		holder = 146061
	}
	754.1.1 = {
		holder = 146060
	}
	754.6.1 = {
		holder = 146127
	}
	766.1.1 = {
		holder = 146062
	}
	775.1.1 = {
		holder = 146063
	}
	783.1.1 = {
		holder = 34005
	}
	786.1.1 = {
		holder = 146063
	}
	793.1.1 = {
		holder = 188647
	}
	794.1.1 = {
		holder = 146064
	}
	797.1.1 = {
		holder = 188646
	}
	803.1.1 = {
		holder = 188653
	}
	809.1.1 = {
		holder = 146064
	}
	850.1.1 = {
		liege = "d_urdunn"
		holder = levantine0001
	}
	866.1.1 = {
		liege = "d_damascus"
		holder = 146080
	}
	1066.1.1 = {
		holder = 20768
	}
	1067.1.1 = {
		holder = 93430
	}
	1069.1.1 = {
		holder = 93431
	}
	1071.1.1 = {
		holder = 93432
	}
	1076.1.1 = {
		holder = 93433
	}
	#Seljuk
	1079.1.1 = {
		holder = 3044
	}
	
	1095.1.1 = {
		holder = 144023
	}
	1104.6.1 = {
		holder = 144024
	}
	#Burid
	1105.1.1 = {
		holder = 93435
	}
	1128.2.12 = {
		holder = 93436
	}
	1132.6.6 = {
		holder = 93437
	}
	1135.1.1 = {
		holder = 93438
	}
	1139.1.1 = {
		holder = 93439
	}
	1140.1.1 = {
		holder = 93440
	}
	#Zengid
	1154.4.8 = {
		holder = 144031
	}
	1174.4.15 = {
		holder = 144033
	}
	#Ayyubid
	1175.1.1 = {
		holder = 226000
	}
	1186.1.1 = {
		holder = 226051
	}
	1196.1.1 = {
		holder = 226052
	}
	1218.1.1 = {
		holder = 144077
	}
	1227.1.1 = {
		holder = 144078
	}
	1229.1.1 = {
		holder = 144079
	}
	1237.8.27 = {
		holder = 144080
	}
	1245.1.1 = {
		holder = 144082
	}
	1260.1.1 = {
		holder = 34990
	}
	1280.1.1 = {
		holder = 32939
	}
	1296.1.1 = {
		holder = 34991
	}
	1297.1.1 = {
		holder = 34992
	}
	1312.1.1 = {
		holder = 34993
	}
}


c_baalbek = {
	706.1.1 = {
		liege = "d_lebanon"
		holder = 146014
	}
	735.1.1 = {
		holder = 146015
	}
	754.1.1 = {
		holder = 146016
	}
	760.1.1 = {
		holder = 146019
	}
	794.1.1 = {
		holder = 146021
	}
	860.1.1 = {
		holder = levantine000010
		liege = e_arabia
	}
	1066.1.1 = {
		liege = "d_damascus"
		holder = 20770
	}
	1110.1.1 = {
		holder = 93520
	}
	1142.1.1 = {
		liege = "d_knights_hospitaler"
	}
	1142.1.1 = {
		holder = 147001
	}
	1160.1.1 = {
		holder = 147002
	}
	1162.1.1 = {
		holder = 147003
	}
	1163.1.1 = {
		holder = 147004
	}
	1170.1.1 = {
		holder = 147005
	}
	1172.1.1 = {
		holder = 147006
	}
	1177.1.1 = {
		holder = 231000
	}
	1187.5.1 = {
		holder = 147007
	}
	1187.7.1 = {
		holder = 147008
	}
	1190.1.1 = {
		holder = 147009
	}
	1192.4.25 = {
		holder = 147010
	}
	1202.3.23 = {
		holder = 142132
	}
	1206.5.25 = {
		holder = 147012
	}
	1207.4.27 = {
		holder = 147013
	}
	1230.2.27 = {
		holder = 147014
	}
	1231.9.12 = {
		holder = 147015
	}
	1236.11.1 = {
		holder = 147017
	}
	1240.3.17 = {
		holder = 147018
	}
	1242.4.30 = {
		holder = 147019
	}
	1258.6.6 = {
		holder = 147020
	}
	1271.1.1 = {
		liege = "d_damascus"
	}
	1271.1.1 = {
		holder = 93456
	}
	1310.1.1 = {
		holder = 93457
	}
}


c_hauran = {
	376.1.1 = {
		holder = 990076
		liege = k_ghassanids
	}
	376.1.2 = {
		holder = 0
		liege = none
	}
	867.1.1 = {	change_development_level = 5 }
	1066.1.1 = { change_development_level = 8 }
	
	733.1.1 = {
		liege = "d_urdunn"
		holder = 146027
	}
	767.1.1 = {
		holder = 146026
	}
	800.1.1 = {
		holder = 146025
	}
	825.1.1 = {
		holder = 155148
	}
	852.3.1 = {
		holder = 155149
	}
	850.1.1 = {
		liege = "d_urdunn"
		holder = levantine0001
	}
	866.1.1 = {
		liege = "d_damascus"
		holder = 146080
	}
	877.1.1 = {
		liege = 0
	}
	1066.1.1 = {
		liege = "d_damascus"
	}
	1066.1.1 = {
		holder = 20768
	}
	1067.1.1 = {
		holder = 93430
	}
	1069.1.1 = {
		holder = 93431
	}
	1071.1.1 = {
		holder = 93432
	}
	1076.1.1 = {
		holder = 93433
	}
	#Seljuk
	1079.1.1 = {
		holder = 3044
	}
	
	1095.1.1 = {
		holder = 144023
	}
	1104.6.1 = {
		holder = 144024
	}
	#Burid
	1105.1.1 = {
		holder = 93435
	}
	1128.2.12 = {
		holder = 93436
	}
	1132.6.6 = {
		holder = 93437
	}
	1135.1.1 = {
		holder = 93438
	}
	1139.1.1 = {
		holder = 93439
	}
	1140.1.1 = {
		holder = 93440
	}
	#Zengid
	1154.4.8 = {
		holder = 144031
	}
	1174.4.15 = {
		holder = 144033
	}
	#Ayyubid
	1175.1.1 = {
		holder = 226000
	}
	1186.1.1 = {
		holder = 226051
	}
	1196.1.1 = {
		holder = 226052
	}
	1218.1.1 = {
		holder = 144077
	}
	1227.1.1 = {
		holder = 144078
	}
	1229.1.1 = {
		holder = 144079
	}
	1237.8.27 = {
		holder = 144080
	}
	1245.1.1 = {
		holder = 144082
	}
	1260.1.1 = {
		holder = 34990
	}
	1280.1.1 = {
		holder = 32939
	}
	1296.1.1 = {
		holder = 34991
	}
	1297.1.1 = {
		holder = 34992
	}
	1312.1.1 = {
		holder = 34993
	}

}


d_palmyra = {
	800.1.1 = {
		change_development_level = 5
	}
	1000.1.1 = {
		change_development_level = 6
	}
	1100.1.1 = {
		change_development_level = 15
	}
	
	710.1.1 = {
		liege = "e_arabia"
		holder = 146067
	}
	747.1.1 = {
		holder = 146070
	}
	761.1.1 = {
		holder = 146071
	}
	780.1.1 = {
		holder = 146072
	}
	795.1.1 = {
		holder = 146073
	}
	815.1.1 = {
		holder = 0
	}
	866.1.1 = {
		holder = levantine0001
	}
	877.1.1 = {
		liege = 0
		holder = 0
	}
}


c_palmyra = {
	376.1.1 = {
		holder = 990076
		liege = k_ghassanids
	}
	376.1.2 = {
		holder = 0
		liege = none
	}
	706.1.1 = {
		liege = "d_lebanon"
		holder = 146014
	}
	735.1.1 = {
		holder = 146015
	}
	754.1.1 = {
		holder = 146020
	}
	782.1.1 = {
		liege = "d_aleppo"
	}
	860.1.1 = {
		holder = 159738
	}
	866.1.1 = {
		holder = levantine0001
	}	
	1066.1.1 = {
		holder = 20743
	}
	1075.1.1 = {
		holder = 144018
	}
	1076.1.1 = {
		holder = 144019
	}
	1080.1.1 = {
		holder = 3822
	}
	1085.1.1 = {
		holder = 144016
	}
	1086.1.1 = {
		holder = 3079
	}
	1094.1.1 = {
		holder = 3044
	}
	1095.1.1 = {
		holder = 144020
	}
	1113.1.1 = {
		holder = 144021
	}
	1114.1.1 = {
		holder = 144022
	}
	1117.1.1 = {
		holder = 144066
	}
	1118.1.1 = {
		holder = 34249
	}
	1119.1.1 = {
		holder = 93460
	}
	1121.1.1 = {
		holder = 34249
	}
	1125.1.1 = {
		holder = 93408
	}
	1127.1.1 = {
		holder = 93461
	}
	1128.1.1 = {
		holder = 144029
	}
	1146.9.14 = {
		holder = 144031
	}
	1174.4.15 = {
		holder = 144033
	}
	1183.1.1 = {
		holder = 226052
	}
	1186.1.1 = {
		holder = 226054
	}
	1216.10.8 = {
		holder = 144081
	}
	1236.1.1 = {
		holder = 144082
	}
	1260.1.1 = {	
		holder = 93462
	}
	1260.9.3 = {	
		holder = 93467
	}
	1300.1.1 = {	
		holder = 93468
	}
}


c_sukhna = {
	376.1.1 = {
		holder = 990076
		liege = k_ghassanids
	}
	376.1.2 = {
		holder = 0
		liege = none
	}
	867.1.1 = {	change_development_level = 5 }
	1066.1.1 = { change_development_level = 8 }
	
	710.1.1 = {
		liege = "d_palmyra"
		holder = 146067
	}
	747.1.1 = {
		holder = 188604
	}
	756.1.1 = {
		holder = 146072
	}
	780.1.1 = {
		holder = 146073
	}
	#815.1.1 = {
	#	holder = 0
	#}
	866.1.1 = {
		holder = levantine0001
	}
	877.1.1 = {
		liege = 0
	}
	1066.1.1 = {
		liege = "d_aleppo"
	}
	1066.1.1 = {
		holder = 93469
	}
	1100.1.1 = {
		holder = 93470
	}
	1140.1.1 = {
		holder = 93471
	}
	1180.1.1 = {
		holder = 93472
	}
	1220.1.1 = {
		holder = 93473
	}
	1260.1.1 = {
		holder = 93474
	}
	1300.1.1 = {
		holder = 93475
	}
	1330.1.1 = {
		holder = 93476
	}
}


c_qaryatan = {
	376.1.1 = {
		holder = 990076
		liege = k_ghassanids
	}
	376.1.2 = {
		holder = 0
		liege = none
	}
	867.1.1 = {	change_development_level = 5 }
	1066.1.1 = { change_development_level = 8 }
	
	750.1.1 = {
		liege = "d_damascus"
		holder = 146060
	}
	760.1.1 = {
		holder = 146063
	}
	866.1.1 = {
		liege = "d_palmyra"
		holder = levantine000010
	}
	877.1.1 = {
		liege = 0
	}
	1066.1.1 = {
		liege = "d_damascus"
		holder = 20771
	}
	1105.1.1 = {
		liege = "d_urdunn"
	}
	1105.1.1 = {
		holder = 93007
	}
	1137.1.1 = {
		holder = 93008
	}
	1156.1.1 = {
		holder = 223561
	}
	1173.1.1 = {
		holder = 93008
	}
	1179.4.27 = {
		holder = 223560
	}
	1187.10.2 = {
		liege = "d_damascus"
	}
	1187.10.2 = {
		holder = 93441
	}
	1210.1.1 = {
		holder = 93442
	}
	1250.1.1 = {
		holder = 93443
	}
	1290.1.1 = {
		holder = 93444
	}
	1317.1.1 = {
		holder = 485190
	}

}

