k_yemen = {
	867.1.1 = {	change_development_level = 3 }
	1066.1.1 = { change_development_level = 6 }
}

d_sanaa = {
	867.1.1 = {	change_development_level = 8 }
	1066.1.1 = { change_development_level = 12 }

	630.1.1 = {
		liege = e_arabia
	}
	
	768.1.1 = {
		holder = 188748 # Yazid, brother-in-law of al-Mansur Abbasid (actually ruled in the 770s)
		liege = 0 # De facto
	}
	780.1.1 = {
		holder = 0
	}
	
	847.1.1 = {
		liege = 0
		holder = 188735 # Yu'fir Yufirid
	}
		
	882.1.1 = {
		holder = 159399 # Rassids
	}
	911.1.1 = {
		holder = 159400
	}
	922.1.1 = {
		holder = 159401
	}
	968.1.1 = {
		holder = 159405
	}
	998.1.1 = {
		holder = 159409
	}
	1010.1.1 = {
		holder = 159410
	}
	1066.1.1 = {
		holder = 45049
	}
	1068.1.1 = {
		holder = 45050
	}
	1099.1.1 = {
		holder = 45051
	}
	1109.1.1 = {
		holder = 45052
	}
	1111.1.1 = {
		holder = 45053
	}
	1116.1.1 = {
		holder = 45054
	}
	1117.1.1 = {
		holder = 45055
	}
	1137.1.1 = {
		holder = 45058
	}
	1138.1.1 = {
		holder = 45059
	}
	1171.1.1 = {
		liege = "k_egypt"
	}
	1171.1.1 = {
		holder = 32915
	}
	1174.1.1 = {
		holder = 32916
	}
	1197.1.1 = {
		holder = 144092
	}
	1202.1.1 = {
		holder = 144093
	}
	1203.1.1 = {
		holder = 32929
	}
	1229.1.1 = {
		liege = 0
	}
	1229.1.1 = {
		holder = 144094
	}
	1250.1.1 = {
		holder = 144095
	}
	1295.1.1 = {
		holder = 144096
	}
	1296.1.1 = {
		holder = 144097
	}
	1322.1.1 = {
		holder = 144098
	}
}


c_sanaa = {
	376.1.1 = {
		liege = k_himyarites
		holder = 990078
	}
	376.1.2 = {
		holder = 0
		liege = none
	}
	867.1.1 = {	change_development_level = 12 }
	1066.1.1 = { change_development_level = 18 }
	
	# c_sanaa
	
	630.1.1 = {
		liege = "d_sanaa"
	}
	
	768.1.1 = {
		holder = 188748 # Yazid, brother-in-law of al-Mansur Abbasid (actually ruled in the 770s)
	}
	
	847.1.1 = {
		holder = 188735 # Yu'fir Yufirid
	}
	872.1.1 = {
		holder = yemeni0002 # Muhammad Yufirid
	}
	876.1.1 = {
		holder = yemeni0004 # Ibrahim Yufirid
	}
	
	882.1.1 = {
		holder = 159399 # Rassids
	}
	911.1.1 = {
		holder = 159400
	}
	922.1.1 = {
		holder = 159401
	}
	968.1.1 = {
		holder = 159405
	}
	998.1.1 = {
		holder = 159409
	}
	1010.1.1 = {
		holder = 159410
	}
	1066.1.1 = {
		holder = 45049
	}
	1068.1.1 = {
		holder = 45050
	}
	1099.1.1 = {
		holder = 45051
	}
	1109.1.1 = {
		holder = 45052
	}
	1111.1.1 = {
		holder = 45053
	}
	1116.1.1 = {
		holder = 45054
	}
	1117.1.1 = {
		holder = 45055
	}
	1137.1.1 = {
		holder = 45058
	}
	1138.1.1 = {
		holder = 45059
	}
	1171.1.1 = {
		holder = 32915
	}
	1174.1.1 = {
		holder = 32916
	}
	1197.1.1 = {
		holder = 144092
	}
	1202.1.1 = {
		holder = 144093
	}
	1203.1.1 = {
		holder = 32929
	}
	1229.1.1 = {
		holder = 144094
	}
	1250.1.1 = {
		holder = 144095
	}
	1295.1.1 = {
		holder = 144096
	}
	1296.1.1 = {
		holder = 144097
	}
	1322.1.1 = {
		holder = 144098
	}
}


c_tihamat-al-yamani = {
	376.1.1 = {
		liege = k_himyarites
		holder = 990078
	}
	376.1.2 = {
		holder = 0
		liege = none
	}
	847.1.1 = {
		liege = "d_sanaa"
		holder = 188735 # Yu'fir Yufirid
	}
	872.1.1 = {
		holder = yemeni0002 # Muhammad Yufirid
	}
	876.1.1 = {
		holder = yemeni0004 # Ibrahim Yufirid
	}
	
	882.1.1 = {
		holder = 159399 # Rassids
	}
	911.1.1 = {
		holder = 159400
	}
	922.1.1 = {
		holder = 159401
	}
	968.1.1 = {
		holder = 159405
	}
	998.1.1 = {
		holder = 159409
	}
	1010.1.1 = {
		holder = 159410
	}

	1060.1.1 = {
		liege = d_taizz
		holder = 45035
	}
	1070.1.1 = {
		holder = 45036
	}
	1084.1.1 = {
		holder = 45050
	}
	1099.1.1 = {
		holder = 45051
	}
	1109.1.1 = {
		holder = 45052
	}
	1111.1.1 = {
		holder = 45053
	}
	1116.1.1 = {
		holder = 45054
	}
	1117.1.1 = {
		holder = 45055
	}
	1137.1.1 = {
		holder = 45058
	}
	1138.1.1 = {
		holder = 45059
	}
	1171.1.1 = {
		holder = 32915
	}
	1174.1.1 = {
		holder = 32916
	}
	1197.1.1 = {
		holder = 144092
	}
	1202.1.1 = {
		holder = 144093
	}
	1203.1.1 = {
		holder = 32929
	}
	1229.1.1 = {
		holder = 144094
	}
	1250.1.1 = {
		holder = 144095
	}
	1295.1.1 = {
		holder = 144096
	}
	1296.1.1 = {
		holder = 144097
	}
	1322.1.1 = {
		holder = 144098
	}	
}


c_najran = {
	376.1.1 = {
		liege = k_himyarites
		holder = 990078
	}
	376.1.2 = {
		holder = 0
		liege = none
	}
	# c_sanaa
	
	630.1.1 = {
		liege = "d_sanaa"
		government = tribal_government
	}
	
	768.1.1 = {
		holder = 188748 # Yazid, brother-in-law of al-Mansur Abbasid (actually ruled in the 770s)
	}
	
	#Harb
	847.1.1 = {
		holder = bedouin0085
	}
	866.1.1 = {
		holder = bedouin0086
	}
	899.1.1 = {
		holder = bedouin0088
	}
	932.1.1 = {
		holder = bedouin0089
	}

	#960's the Harb migrate northwards

	1066.1.1 = {
		holder = 45049
	}
	1068.1.1 = {
		holder = 45050
	}
	1099.1.1 = {
		holder = 45051
	}
	1109.1.1 = {
		holder = 45052
	}
	1111.1.1 = {
		holder = 45053
	}
	1116.1.1 = {
		holder = 45054
	}
	1117.1.1 = {
		holder = 45055
	}
	1137.1.1 = {
		holder = 45058
	}
	1138.1.1 = {
		holder = 45059
	}
	1171.1.1 = {
		holder = 32915
	}
	1174.1.1 = {
		holder = 32916
	}
	1197.1.1 = {
		holder = 144092
	}
	1202.1.1 = {
		holder = 144093
	}
	1203.1.1 = {
		holder = 32929
	}
	1229.1.1 = {
		holder = 144094
	}
	1250.1.1 = {
		holder = 144095
	}
	1295.1.1 = {
		holder = 144096
	}
	1296.1.1 = {
		holder = 144097
	}
	1322.1.1 = {
		holder = 144098
	}
}


c_zabid = {
	376.1.1 = {
		liege = k_himyarites
		holder = 990078
	}
	376.1.2 = {
		holder = 0
		liege = none
	}
	630.1.1 = {
		liege = "d_sanaa"
	}
	
	768.1.1 = {
		holder = 188742
	}
	
	818.1.1 = {
		liege = 0
		holder = 188736 # Muhammad Ziyadid
	}
	859.1.1 = {
		holder = 188737 # Ibrahim
	}

	876.1.1 = {
		holder = yemeni0004 # Ibrahim Yufirid
	}
	905.1.1 = {
		holder = yemeni0006 # Asad Yufirid
	}
	955.1.1 = {
		holder = yemeni0007 # Muhammad Yufirid
	}
	956.1.1 = {
		holder = yemeni0010 # Qahtan Yufirid
	}

	#Ziyadid
	997.1.1 = {
		holder = 188740 # Abdallah
	}
	1012.1.1 = {
		holder = 188741 # Ibrahim
	}
	1018.1.1 = {
		liege = d_sanaa
	}
	
	1060.1.1 = {
		liege = d_taizz
		holder = 45035
	}
	1070.1.1 = {
		holder = 45036
	}
	1084.1.1 = {
		holder = 45050
	}
	1099.1.1 = {
		holder = 45051
	}
	1109.1.1 = {
		holder = 45052
	}
	1111.1.1 = {
		holder = 45053
	}
	1116.1.1 = {
		holder = 45054
	}
	1117.1.1 = {
		holder = 45055
	}
	1137.1.1 = {
		holder = 45058
	}
	1138.1.1 = {
		holder = 45059
	}
	1171.1.1 = {
		holder = 32915
	}
	1174.1.1 = {
		holder = 32916
	}
	1197.1.1 = {
		holder = 144092
	}
	1202.1.1 = {
		holder = 144093
	}
	1203.1.1 = {
		holder = 32929
	}
	1229.1.1 = {
		holder = 144094
	}
	1250.1.1 = {
		holder = 144095
	}
	1295.1.1 = {
		holder = 144096
	}
	1296.1.1 = {
		holder = 144097
	}
	1322.1.1 = {
		holder = 144098
	}	
}


d_jawf-al-yamani = {
	847.1.1 = {
		government = tribal_government
		holder = bedouin0085
	}
	866.1.1 = {
		holder = bedouin0086
	}
	899.1.1 = {
		holder = bedouin0088
	}
	932.1.1 = {
		holder = bedouin0089
	}
	940.1.1 = {
		holder = 0
	}
}


c_jawf-al-yamani = {
	376.1.1 = {
		liege = k_himyarites
		holder = 990078
	}
	376.1.2 = {
		holder = 0
		liege = none
	}
	630.1.1 = {
		liege = "d_sanaa"
		government = tribal_government
	}
	
	768.1.1 = {
		holder = 188743
	}
	
	#Harb
	847.1.1 = {
		liege = d_jawf-al-yamani
		holder = bedouin0085
	}
	866.1.1 = {
		holder = bedouin0087
	}
	876.1.1 = {
		holder = bedouin0098
	}
	902.1.1 = {
		holder = bedouin0099
	}
	933.1.1 = {
		holder = bedouin0100
	}
	#in the mid 10th century Harb migrate northwards
	
	1066.1.1 = {	#Fictional
		holder = 218008
		liege = 0
	}
	1081.1.1 = {
		holder = 45036
	}
	1084.1.1 = {
		holder = 45050
	}
	1099.1.1 = {
		holder = 45051
	}
	1109.1.1 = {
		holder = 45052
	}
	1111.1.1 = {
		holder = 45053
	}
	1116.1.1 = {
		holder = 45054
	}
	1117.1.1 = {
		holder = 45055
	}
	1137.1.1 = {
		holder = 45058
	}
	1138.1.1 = {
		holder = 45059
	}
	1171.1.1 = {
		holder = 32915
	}
	1174.1.1 = {
		holder = 32916
	}
	1197.1.1 = {
		holder = 144092
	}
	1202.1.1 = {
		holder = 144093
	}
	1203.1.1 = {
		holder = 32929
	}
	1229.1.1 = {
		holder = 144094
	}
	1250.1.1 = {
		holder = 144095
	}
	1295.1.1 = {
		holder = 144096
	}
	1296.1.1 = {
		holder = 144097
	}
	1322.1.1 = {
		holder = 144098
	}	
}


c_wabar = {
	# c_sanaa
	376.1.1 = {
		liege = k_himyarites
		holder = 990078
	}
	376.1.2 = {
		holder = 0
		liege = none
	}
	630.1.1 = {
		liege = "d_sanaa"
		government = tribal_government
	}
	
	768.1.1 = {
		holder = 188748 # Yazid, brother-in-law of al-Mansur Abbasid (actually ruled in the 770s)
	}
	
	847.1.1 = {
		liege = d_jawf-al-yamani
		holder = bedouin0085
	}
	866.1.1 = {
		holder = bedouin0086
	}
	899.1.1 = {
		holder = bedouin0088
	}
	932.1.1 = {
		holder = bedouin0089
	}
	987.1.1 = {
		holder = bedouin0090
	}

	1066.1.1 = {	#Fictional
		holder = 218008
		liege = 0
	}
	1081.1.1 = {
		holder = 45050
	}
	1099.1.1 = {
		holder = 45051
	}
	1109.1.1 = {
		holder = 45052
	}
	1111.1.1 = {
		holder = 45053
	}
	1116.1.1 = {
		holder = 45054
	}
	1117.1.1 = {
		holder = 45055
	}
	1137.1.1 = {
		holder = 45058
	}
	1138.1.1 = {
		holder = 45059
	}
	1171.1.1 = {
		holder = 32915
	}
	1174.1.1 = {
		holder = 32916
	}
	1197.1.1 = {
		holder = 144092
	}
	1202.1.1 = {
		holder = 144093
	}
	1203.1.1 = {
		holder = 32929
	}
	1229.1.1 = {
		holder = 144094
	}
	1250.1.1 = {
		holder = 144095
	}
	1295.1.1 = {
		holder = 144096
	}
	1296.1.1 = {
		holder = 144097
	}
	1322.1.1 = {
		holder = 144098
	}
}


d_taizz = {
	867.1.1 = {	change_development_level = 8 }
	1066.1.1 = { change_development_level = 12 }
	
	818.1.1 = {
		holder = 188736 # Muhammad Ziyadid
	}
	859.1.1 = {
		holder = 188737 # Ibrahim
	}
	896.1.1 = {
		holder = 188738 # Ziyad
	}
	911.1.1 = {
		holder = 188739 # Ishaq
	}
	981.1.1 = {
		holder = 188740 # Abdallah
	}
	1012.1.1 = {
		holder = 188741 # Ibrahim
	}
	1018.1.1 = {
		holder = 0
	}

	1040.1.1 = {
		holder = 45035
	}
	1084.1.1 = {
		holder = 0
	}
}


c_taizz = {
	376.1.1 = {
		liege = k_himyarites
		holder = 990078
	}
	376.1.2 = {
		holder = 0
		liege = none
	}
	867.1.1 = {	change_development_level = 12 }
	1066.1.1 = { change_development_level = 18 }
	
	768.1.1 = {
		liege = "d_sanaa"
		holder = 188742
	}

	847.1.1 = {
		holder = 188735 # Yu'fir Yufirid
	}
	872.1.1 = {
		holder = yemeni0002 # Muhammad Yufirid
	}
	876.1.1 = {
		holder = yemeni0004 # Ibrahim Yufirid
	}
	905.1.1 = {
		holder = yemeni0006 # Asad Yufirid
	}
	955.1.1 = {
		holder = yemeni0007 # Muhammad Yufirid
	}
	956.1.1 = {
		holder = yemeni0010 # Qahtan Yufirid
	}

	#Ziyadid
	997.1.1 = {
		holder = 188740 # Abdallah
	}
	1012.1.1 = {
		holder = 188741 # Ibrahim
	}
	1018.1.1 = {
		liege = d_sanaa
	}
	
	1066.1.1 = {
		holder = 45035
	}
	1070.1.1 = {
		holder = 45036
	}
	1084.1.1 = {
		holder = 45050
	}
	1099.1.1 = {
		holder = 45051
	}
	1109.1.1 = {
		holder = 45052
	}
	1111.1.1 = {
		holder = 45053
	}
	1116.1.1 = {
		holder = 45054
	}
	1117.1.1 = {
		holder = 45055
	}
	1137.1.1 = {
		holder = 45058
	}
	1138.1.1 = {
		holder = 45059
	}
	1171.1.1 = {
		holder = 32915
	}
	1174.1.1 = {
		holder = 32916
	}
	1197.1.1 = {
		holder = 144092
	}
	1202.1.1 = {
		holder = 144093
	}
	1203.1.1 = {
		holder = 32929
	}
	1229.1.1 = {
		holder = 144094
	}
	1250.1.1 = {
		holder = 144095
	}
	1295.1.1 = {
		holder = 144096
	}
	1296.1.1 = {
		holder = 144097
	}
	1322.1.1 = {
		holder = 144098
	}	
}


c_mandab = {
	376.1.1 = {
		liege = k_himyarites
		holder = 990078
	}
	376.1.2 = {
		holder = 0
		liege = none
	}
	630.1.1 = {
		liege = "d_sanaa"
	}
	
	760.1.1 = {
		holder = 188744
	}
	
	
	818.1.1 = {
		liege = d_taizz
		holder = 188736 # Muhammad Ziyadid
	}
	859.1.1 = {
		holder = 188737 # Ibrahim
	}
	896.1.1 = {
		holder = 188738 # Ziyad
	}
	911.1.1 = {
		holder = 188739 # Ishaq
	}
	981.1.1 = {
		holder = 188740 # Abdallah
	}
	1012.1.1 = {
		holder = 188741 # Ibrahim
	}
	1018.1.1 = {
		liege = d_sanaa
	}
	
	1066.1.1 = {
		holder = 45035
	}
	1070.1.1 = {
		holder = 45036
	}
	1080.1.1 = {
		holder = 45037
	}
	1084.1.1 = {
		holder = 45039
	}
	1086.1.1 = {
		holder = 45038
	}
	1110.1.1 = {
		holder = 45041
	}
	#1120.1.1 = {
	#	holder = 0
	#}
	1137.1.1 = {
		holder = 45058
	}
	1138.1.1 = {
		holder = 45043
	}
	1139.1.1 = {
		holder = 45060 # 45046??
	}
	1140.1.1 = {
		holder = 45047
	}
	1153.1.1 = {
		holder = 45045
	}
	1166.1.1 = {
		holder = 45059
	}
	1171.1.1 = {
		holder = 32915
	}
	1174.1.1 = {
		holder = 32916
	}
	1197.1.1 = {
		holder = 144092
	}
	1202.1.1 = {
		holder = 144093
	}
	1203.1.1 = {
		holder = 32929
	}
	1229.1.1 = {
		holder = 144094
	}
	1250.1.1 = {
		holder = 144095
	}
	1295.1.1 = {
		holder = 144096
	}
	1296.1.1 = {
		holder = 144097
	}
	1322.1.1 = {
		holder = 144098
	}
}


c_dathina = {
	376.1.1 = {
		liege = k_himyarites
		holder = 990078
	}
	376.1.2 = {
		holder = 0
		liege = none
	}
	630.1.1 = {
		liege = "d_sanaa"
	}
	
	768.1.1 = {
		holder = 188743
	}
	
	818.1.1 = {
		liege = d_taizz
		holder = 188736 # Muhammad Ziyadid
	}
	859.1.1 = {
		holder = 188737 # Ibrahim
	}
	896.1.1 = {
		holder = 188738 # Ziyad
	}
	911.1.1 = {
		holder = 188739 # Ishaq
	}
	981.1.1 = {
		holder = 188740 # Abdallah
	}
	1012.1.1 = {
		holder = 188741 # Ibrahim
	}
	
	1066.1.1 = {
		holder = yemeni0011
	}
	1089.1.1 = {
		holder = 45050
	}
	1099.1.1 = {
		holder = 45051
	}
	1109.1.1 = {
		holder = 45052
	}
	1111.1.1 = {
		holder = 45053
	}
	1116.1.1 = {
		holder = 45054
	}
	1117.1.1 = {
		holder = 45055
	}
	1137.1.1 = {
		holder = 45058
	}
	1138.1.1 = {
		holder = 45059
	}
	1171.1.1 = {
		holder = 32915
	}
	1174.1.1 = {
		holder = 32916
	}
	1197.1.1 = {
		holder = 144092
	}
	1202.1.1 = {
		holder = 144093
	}
	1203.1.1 = {
		holder = 32929
	}
	1229.1.1 = {
		holder = 144094
	}
	1250.1.1 = {
		holder = 144095
	}
	1295.1.1 = {
		holder = 144096
	}
	1296.1.1 = {
		holder = 144097
	}
	1322.1.1 = {
		holder = 144098
	}	
}


c_hadramawt = {
	376.1.1 = {
		liege = k_himyarites
		holder = 990078
	}
	376.1.2 = {
		holder = 0
		liege = none
	}
	630.1.1 = {
		liege = "d_sanaa"
		government = tribal_government
	}
	
	765.1.1 = {
		holder = 188732 # Yufirids
	}
	800.1.1 = {
		holder = 188733 # Yufirids
	}
	825.1.1 = {
		holder = 188734 # Abd ar-Rahman Yufirid
	}
	847.1.1 = {
		holder = 188735 # Yu'fir Yufirid
	}
	867.1.1 = {	#Fictional
		holder = 218005
		liege = 0
	}
	1066.1.1 = {	#Fictional
		holder = 218007
		liege = 0
	}

	1092.1.1 = {
		government = clan_government
		holder = 45050
	}
	1099.1.1 = {
		holder = 45051
	}
	1109.1.1 = {
		holder = 45052
	}
	1111.1.1 = {
		holder = 45053
	}
	1116.1.1 = {
		holder = 45054
	}
	1117.1.1 = {
		holder = 45055
	}
	1137.1.1 = {
		holder = 45058
	}
	1138.1.1 = {
		holder = 45059
	}
	1171.1.1 = {
		holder = 32915
	}
	1174.1.1 = {
		holder = 32916
	}
	1197.1.1 = {
		holder = 144092
	}
	1202.1.1 = {
		holder = 144093
	}
	1203.1.1 = {
		holder = 32929
	}
	1229.1.1 = {
		holder = 144094
	}
	1250.1.1 = {
		holder = 144095
	}
	1295.1.1 = {
		holder = 144096
	}
	1296.1.1 = {
		holder = 144097
	}
	1322.1.1 = {
		holder = 144098
	}	
}


c_ahqaf = {
	376.1.1 = {
		liege = k_himyarites
		holder = 990078
	}
	376.1.2 = {
		holder = 0
		liege = none
	}
	630.1.1 = {
		liege = "d_sanaa"
		government = tribal_government
	}
	
	765.1.1 = {
		holder = 188732 # Yufirids
	}
	800.1.1 = {
		holder = 188733 # Yufirids
	}
	825.1.1 = {
		holder = 188734 # Abd ar-Rahman Yufirid
	}
	847.1.1 = {
		holder = 188735 # Yu'fir Yufirid
	}
	867.1.1 = {	#Fictional
		holder = 218004
		liege = 0
	}

	1066.1.1 = {	#Fictional
		holder = 218007
		liege = 0
	}

	1092.1.1 = {
		government = clan_government
		holder = 45050
	}
	1099.1.1 = {
		holder = 45051
	}
	1109.1.1 = {
		holder = 45052
	}
	1111.1.1 = {
		holder = 45053
	}
	1116.1.1 = {
		holder = 45054
	}
	1117.1.1 = {
		holder = 45055
	}
	1137.1.1 = {
		holder = 45058
	}
	1138.1.1 = {
		holder = 45059
	}
	1171.1.1 = {
		holder = 32915
	}
	1174.1.1 = {
		holder = 32916
	}
	1197.1.1 = {
		holder = 144092
	}
	1202.1.1 = {
		holder = 144093
	}
	1203.1.1 = {
		holder = 32929
	}
	1229.1.1 = {
		holder = 144094
	}
	1250.1.1 = {
		holder = 144095
	}
	1295.1.1 = {
		holder = 144096
	}
	1296.1.1 = {
		holder = 144097
	}
	1322.1.1 = {
		holder = 144098
	}	
}


c_kinda_sakun = {
	376.1.1 = {
		liege = k_himyarites
		holder = 990078
	}
	376.1.2 = {
		holder = 0
		liege = none
	}
	# c_kathiri
	
	630.1.1 = {
		liege = "d_sanaa"
		government = tribal_government
	}
	
	765.1.1 = {
		holder = 188732 # Yufirids
	}
	800.1.1 = {
		holder = 188733 # Yufirids
	}
	825.1.1 = {
		holder = 188734 # Abd ar-Rahman Yufirid
	}
	847.1.1 = {
		holder = 188735 # Yu'fir Yufirid
	}
	867.1.1 = {	#Fictional
		holder = 218006
		liege = 0
	}
	881.1.1 = {
		holder = 159399
		government = clan_government
	}
	911.1.1 = {
		holder = 159400
	}
	922.1.1 = {
		holder = 159401
	}
	968.1.1 = {
		holder = 159405
	}
	998.1.1 = {
		holder = 159409
	}
	1010.1.1 = {
		holder = 159410
	}
	1066.1.1 = {
		liege = d_taizz
		holder = yemeni0011
	}
	1089.1.1 = {
		holder = 45050
	}
	1099.1.1 = {
		holder = 45051
	}
	1109.1.1 = {
		holder = 45052
	}
	1111.1.1 = {
		holder = 45053
	}
	1116.1.1 = {
		holder = 45054
	}
	1117.1.1 = {
		holder = 45055
	}
	1137.1.1 = {
		holder = 45058
	}
	1138.1.1 = {
		holder = 45059
	}
	1171.1.1 = {
		holder = 32915
	}
	1174.1.1 = {
		holder = 32916
	}
	1197.1.1 = {
		holder = 144092
	}
	1202.1.1 = {
		holder = 144093
	}
	1203.1.1 = {
		holder = 32929
	}
	1229.1.1 = {
		holder = 144094
	}
	1250.1.1 = {
		holder = 144095
	}
	1295.1.1 = {
		holder = 144096
	}
	1296.1.1 = {
		holder = 144097
	}
	1322.1.1 = {
		holder = 144098
	}	
}


c_mahra = {
	376.1.1 = {
		liege = k_himyarites
		holder = 990078
	}
	376.1.2 = {
		holder = 0
		liege = none
	}
	630.1.1 = {
		liege = d_sanaa
	}
	
	768.1.1 = {
		government = tribal_government
		holder = 188745
	}
	
	866.1.1 = {
		liege = 0
		holder = 74035
	}
	
	1066.1.1 = {	#Fictional
		holder = 218009
		liege = 0
	}
	1081.1.1 = {
		liege = "d_kirman"
		holder = 144027
	}
	1097.1.1 = {
		holder = 144028
	}
	1101.1.1 = {
		holder = 144034
	}
	1142.1.1 = {
		holder = 144035
	}
	1154.1.1 = {
		liege = "d_oman"
	}
	1154.1.1 = {
		holder = 144145
	}
	1161.1.1 = {
		holder = 144560
	}
	1210.1.1 = {
		holder = 144561
	}
	1250.1.1 = {
		holder = 144562
	}
	1278.1.1 = {
		holder = 144563
	}
	1285.1.1 = {
		holder = 144564
	}
}


c_al-asa = {
	376.1.1 = {
		liege = k_himyarites
		holder = 990078
	}
	376.1.2 = {
		holder = 0
		liege = none
	}
	630.1.1 = {
		liege = d_sanaa
	}
	
	768.1.1 = {
		government = tribal_government
		holder = 188745
	}
	
	866.1.1 = {
		liege = 0
		holder = 74035
	}
	
	1066.1.1 = {	#Fictional
		holder = 218009
		liege = 0
	}
	1081.1.1 = {
		liege = "d_kirman"
		holder = 144027
	}
	1097.1.1 = {
		holder = 144028
	}
	1101.1.1 = {
		holder = 144034
	}
	1142.1.1 = {
		holder = 144035
	}
	1154.1.1 = {
		liege = "d_oman"
	}
	1154.1.1 = {
		holder = 144145
	}
	1161.1.1 = {
		holder = 144560
	}
	1210.1.1 = {
		holder = 144561
	}
	1250.1.1 = {
		holder = 144562
	}
	1278.1.1 = {
		holder = 144563
	}
	1285.1.1 = {
		holder = 144564
	}
}


c_socotra = {
	867.1.1 = {	change_development_level = 7 }
	1066.1.1 = { change_development_level = 10 }
	
	757.1.1 = {
		liege = "d_socotra"
	holder = 145965
	government = feudal_government
	}
	789.1.1 = {
		holder = 145966
	}
	822.1.1 = {
		holder = 145967
	}
	853.4.1 = {
		holder = 145618
	}
	872.3.20 = {
		holder = 145617
	}
	897.6.3 = {
		holder = 145616
	}
	1055.6.17 = {
		holder = 145615
	}
	1076.7.6 = {
		holder = 145614
	}
	1103.10.18 = {
		holder = 145613
	}
	1141.1.4 = {
		holder = 145612
	}
	1164.1.12 = {
		holder = 145611
	}
	1181.11.4 = {
		holder = 145610
	}
	1199.10.3 = {
		holder = 145609
	}
	1228.3.1 = {
		holder = 145608
	}
	1233.11.21 = {
		holder = 145607
	}
	1261.12.29 = {
		holder = 145606
	}
	1273.7.15 = {
		holder = 145605
	}
	1289.1.30 = {
		holder = 145604
	}
	1296.1.18 = {
		holder = 145603
	}
	1302.7.4 = {
		holder = 145598
	}
	1318.2.28 = {
		holder = 145597
	}
	1320.11.16 = {
		holder = 145598
	}
	1323.3.8 = {
		holder = 145596
	}
}

c_dhofar = {
	376.1.1 = {
		liege = k_himyarites
		holder = 990078
	}
	376.1.2 = {
		holder = 0
		liege = none
	}
	# c_dhofar
	665.1.1 = {
		liege = d_oman
		government = tribal_government
	}
	
	767.1.1 = {
		holder = 188765
	}
	
	867.1.1 = {
		liege = 0
		holder = 74036
	}
	
	1066.1.1 = {
		liege = "d_kirman"
	}
	1066.1.1 = {
		holder = 3041
	}
	1073.1.1 = {
		holder = 144025
	}
	1074.1.1 = {
		holder = 144026
	}
	1075.1.1 = {
		holder = 144027
	}
	1097.1.1 = {
		holder = 144028
	}
	1101.1.1 = {
		holder = 144034
	}
	1142.1.1 = {
		holder = 144035
	}
	1154.1.1 = {
		liege = "d_oman"
	}
	1154.1.1 = {
		holder = 144145
	}
	1161.1.1 = {
		holder = 144560
	}
	1210.1.1 = {
		holder = 144561
	}
	1250.1.1 = {
		holder = 144562
	}
	1278.1.1 = {
		holder = 144563
	}
	1285.1.1 = {
		holder = 144564
	}
}

